Division,WeightClassKg,Place,Name,Team,BodyweightKg,Best3SquatKg,Best3BenchKg,Best3DeadliftKg,TotalKg,Equipment,Event,Sex
Boys,51.71,1,Tony Carrillo,Graham,51.44,102.06,65.77,115.67,283.5,Single-ply,SBD,M
Boys,51.71,2,Justin Little,Strawn,47.63,102.06,52.16,117.93,272.16,Single-ply,SBD,M
Boys,51.71,3,Roger Garcia,Mineral Wells,50.89,104.33,58.97,102.06,265.35,Single-ply,SBD,M
Boys,51.71,4,Tinnin Smith,Jacksboro,50.44,104.33,56.7,97.52,258.55,Single-ply,SBD,M
Boys,51.71,5,Jordan Whiteside,Peaster,49.08,90.72,54.43,108.86,254.01,Single-ply,SBD,M
Boys,51.71,6,Nick Garcia #5,Tolar,47.54,77.11,45.36,95.25,217.72,Single-ply,SBD,M
Boys,51.71,7,Cj Domiguez,Wichita Falls City View,45.99,61.23,38.56,90.72,190.51,Single-ply,SBD,M
Boys,51.71,DQ,Exxon Pantaleon,Krum,50.62,97.52,,,,Single-ply,SBD,M
Boys,55.79,1,Weston Decker,Peaster,55.79,138.35,83.91,167.83,390.09,Single-ply,SBD,M
Boys,55.79,2,Joey Salinas #1,Jacksboro,53.8,154.22,74.84,147.42,376.48,Single-ply,SBD,M
Boys,55.79,3,Trevor Richard,Chico,55.34,115.67,77.11,145.15,337.93,Single-ply,SBD,M
Boys,55.79,4,Dillon Hervey,Mineral Wells,52.8,108.86,63.5,124.74,297.1,Single-ply,SBD,M
Boys,55.79,5,Anthony Garcia,Strawn,54.88,113.4,56.7,113.4,283.5,Single-ply,SBD,M
Boys,55.79,DQ,Rawlin Morrell,Throckmorton,54.43,,74.84,,,Single-ply,SBD,M
Boys,59.87,1,Jd Franke,Henrietta,59.87,197.31,106.59,170.1,474,Single-ply,SBD,M
Boys,67.13,2,Brandon Hisaw,Graham,59.96,176.9,92.99,190.51,460.4,Single-ply,SBD,M
Boys,59.87,3,Christian Farr,Henrietta,59.87,138.35,95.25,172.37,405.97,Single-ply,SBD,M
Boys,59.87,4,Ivan Karabanoff,Peaster,57.06,138.35,79.38,163.29,381.02,Single-ply,SBD,M
Boys,59.87,5,Roque Rivas,Bowie,59.51,138.35,86.18,156.49,381.02,Single-ply,SBD,M
Boys,59.87,6,Cameron Calame,Graham,56.34,124.74,83.91,136.08,344.73,Single-ply,SBD,M
Boys,59.87,7,Romario Hernandez,Krum,59.42,127.01,74.84,142.88,344.73,Single-ply,SBD,M
Boys,59.87,8,Marcos Morales,Decatur,59.06,111.13,72.57,136.08,319.78,Single-ply,SBD,M
Boys,67.13,9,Ethan Balthrop,Castleberry,60.06,115.67,61.23,129.27,306.17,Single-ply,SBD,M
Boys,59.87,10,Jarrod Wooten,Peaster,59.33,97.52,68.04,120.2,285.76,Single-ply,SBD,M
Boys,67.13,DQ,Josiah Cansler,Perrin-Whitt,59.92,,83.91,158.76,,Single-ply,SBD,M
Boys,67.13,1,Dylan Serna,Krum,65.41,195.04,111.13,190.51,496.68,Single-ply,SBD,M
Boys,67.13,2,Zach Remily,Bowie,61.6,197.31,113.4,181.44,492.15,Single-ply,SBD,M
Boys,74.84,3,Zane Schrader,Olney,67.31,181.44,102.06,181.44,464.93,Single-ply,SBD,M
Boys,67.13,4,Kelton Dethloff,Paradise,66.22,192.78,79.38,176.9,449.06,Single-ply,SBD,M
Boys,67.13,5,Ian Concepcion,Krum,62.6,167.83,72.57,167.83,408.23,Single-ply,SBD,M
Boys,67.13,6,Walker Shelton,Tolar,62.6,158.76,86.18,161.03,405.97,Single-ply,SBD,M
Boys,67.13,7,Dillon Gonzales,Graham,62.96,163.29,86.18,142.88,392.36,Single-ply,SBD,M
Boys,67.13,8,Josh Windham,Chico,63.87,142.88,83.91,145.15,371.95,Single-ply,SBD,M
Boys,67.13,9,Chandler Gordon,Hillsboro,66.86,142.88,83.91,140.61,367.41,Single-ply,SBD,M
Boys,67.13,10,Jordan McConnell,Paradise,60.96,142.88,83.91,138.35,365.14,Single-ply,SBD,M
Boys,67.13,11,Oscar Orozco,Castleberry,64.59,127.01,74.84,154.22,356.07,Single-ply,SBD,M
Boys,67.13,12,Jack Zizzo,Lake Worth,65.32,138.35,79.38,138.35,356.07,Single-ply,SBD,M
Boys,67.13,13,Brian San Miguel,Mineral Wells,66.5,127.01,81.65,127.01,335.66,Single-ply,SBD,M
Boys,67.13,14,York Doby,Peaster,64.41,127.01,74.84,131.54,333.39,Single-ply,SBD,M
Boys,67.13,15,Roger Bryant,Krum,63.14,122.47,70.31,136.08,328.85,Single-ply,SBD,M
Boys,67.13,16,Chase Thompson,Jacksboro,66.77,124.74,70.31,131.54,326.59,Single-ply,SBD,M
Boys,67.13,17,Tanner Welch,Petrolia,62.05,115.67,79.38,124.74,319.78,Single-ply,SBD,M
Boys,67.13,18,Calahan Storey,Paradise,64.05,115.67,63.5,122.47,301.64,Single-ply,SBD,M
Boys,67.13,19,Bryan Ortiz,Castleberry,63.5,117.93,61.23,120.2,299.37,Single-ply,SBD,M
Boys,67.13,20,Jerado Hernandez,Strawn,61.23,111.13,61.23,122.47,294.84,Single-ply,SBD,M
Boys,67.13,21,Victor Contreras,Mineral Wells,65.14,104.33,65.77,104.33,274.42,Single-ply,SBD,M
Boys,74.84,22,Abraham Hernandez,Perrin-Whitt,67.31,92.99,45.36,97.52,235.87,Single-ply,SBD,M
Boys,67.13,DQ,Andrew Mangum,Wichita Falls City View,60.96,102.06,,129.27,,Single-ply,SBD,M
Boys,67.13,DQ,Ethan Raber,Wichita Falls City View,62.05,108.86,,129.27,,Single-ply,SBD,M
Boys,67.13,DQ,Spence Nunley,Perrin-Whitt,66.95,,74.84,124.74,,Single-ply,SBD,M
Boys,67.13,DQ,Jessie Herd,Jacksboro,66.86,156.49,,154.22,,Single-ply,SBD,M
Boys,67.13,DQ,Dillon Hackworth,Chico,61.23,92.99,,104.33,,Single-ply,SBD,M
Boys,74.84,1,Tri Hoang,Wichita Falls City View,69.22,217.72,92.99,258.55,569.26,Single-ply,SBD,M
Boys,74.84,2,Randy Tucker,Perrin-Whitt,74.3,204.12,113.4,204.12,521.63,Single-ply,SBD,M
Boys,82.1,3,Alex Scallion,Castleberry,75.02,210.92,111.13,199.58,521.63,Single-ply,SBD,M
Boys,74.84,4,Leo Gonzales,Mineral Wells,72.85,197.31,122.47,195.04,514.83,Single-ply,SBD,M
Boys,74.84,5,Joel Bennett,Lake Worth,70.67,185.97,92.99,204.12,483.08,Single-ply,SBD,M
Boys,74.84,6,Seth Rogers,Jacksboro,73.39,181.44,108.86,190.51,480.81,Single-ply,SBD,M
Boys,82.1,7,Victor Velazquez,Chico,74.93,176.9,97.52,204.12,478.54,Single-ply,SBD,M
Boys,74.84,8,Brick Martin,Peaster,69.85,183.7,108.86,158.76,451.32,Single-ply,SBD,M
Boys,82.1,9,Evan Bornes,Lake Worth,75.02,165.56,99.79,154.22,419.57,Single-ply,SBD,M
Boys,74.84,10,Ross Mullins,Olney,72.94,149.69,97.52,170.1,417.3,Single-ply,SBD,M
Boys,74.84,11,Greg Roberts,Lake Worth,73.66,158.76,83.91,172.37,415.04,Single-ply,SBD,M
Boys,74.84,12,Matthew Jelen,Krum,70.03,154.22,95.25,158.76,408.23,Single-ply,SBD,M
Boys,74.84,13,Ricardo Carillo,Wichita Falls City View,71.94,145.15,83.91,174.63,403.7,Single-ply,SBD,M
Boys,74.84,14,Nathan Langstan,Tolar,73.3,151.95,86.18,163.29,401.43,Single-ply,SBD,M
Boys,74.84,15,Dean Kane,Krum,72.03,136.08,83.91,158.76,378.75,Single-ply,SBD,M
Boys,74.84,16,Colt Arrington,Tolar,73.48,136.08,86.18,147.42,369.68,Single-ply,SBD,M
Boys,74.84,17,Austin Hogan,Paradise,68.22,142.88,88.45,133.81,365.14,Single-ply,SBD,M
Boys,74.84,18,Jon Thomas,Strawn,74.84,136.08,72.57,154.22,362.87,Single-ply,SBD,M
Boys,74.84,19,Garrett Adams,Decatur,70.76,129.27,86.18,145.15,360.61,Single-ply,SBD,M
Boys,74.84,20,Josam Contreras,Mineral Wells,71.12,120.2,79.38,140.61,340.19,Single-ply,SBD,M
Boys,74.84,21,Ryan Harrison #3,Petrolia,68.95,120.2,61.23,124.74,306.17,Single-ply,SBD,M
Boys,74.84,22,Eduardo Ortiz,Hillsboro,68.86,111.13,61.23,131.54,303.91,Single-ply,SBD,M
Boys,74.84,23,Austin Collins,Chico,71.21,104.33,72.57,122.47,299.37,Single-ply,SBD,M
Boys,82.1,24,Gage Aguilar,Perrin-Whitt,74.93,106.59,72.57,113.4,292.57,Single-ply,SBD,M
Boys,74.84,25,Bryan White,Chico,73.48,104.33,72.57,113.4,290.3,Single-ply,SBD,M
Boys,74.84,26,Grady West,Henrietta,74.21,104.33,61.23,90.72,256.28,Single-ply,SBD,M
Boys,74.84,DQ,Tanner Tomlin,Bowie,69.67,165.56,,142.88,,Single-ply,SBD,M
Boys,74.84,DQ,Kieante Czarnek,Wichita Falls City View,74.39,165.56,,183.7,,Single-ply,SBD,M
Boys,89.81,1,OShae Nolan,Wichita Falls City View,82.28,229.06,124.74,222.26,576.06,Single-ply,SBD,M
Boys,82.1,2,Norman James,Wichita Falls City View,76.38,219.99,145.15,195.04,560.19,Single-ply,SBD,M
Boys,82.1,3,Ramon Salazar,Jacksboro,79.74,226.8,124.74,197.31,548.85,Single-ply,SBD,M
Boys,82.1,4,Travis Mallory,Mineral Wells,77.66,199.58,106.59,195.04,501.22,Single-ply,SBD,M
Boys,82.1,5,Dustin Richards,Krum,78.2,174.63,106.59,204.12,485.34,Single-ply,SBD,M
Boys,82.1,6,Kyle Young #3,Chico,82.01,176.9,108.86,192.78,478.54,Single-ply,SBD,M
Boys,82.1,7,Jackie Polk,Mineral Wells,79.92,158.76,120.2,174.63,453.59,Single-ply,SBD,M
Boys,82.1,8,Maverick Chitty,Lake Worth,79.74,161.03,102.06,183.7,446.79,Single-ply,SBD,M
Boys,82.1,9,Aaron Platt,Tolar,80.83,163.29,95.25,188.24,446.79,Single-ply,SBD,M
Boys,82.1,10,Adrian Aguilar,Lake Worth,81.65,163.29,95.25,165.56,424.11,Single-ply,SBD,M
Boys,82.1,11,Chris Delk,Castleberry,81.1,156.49,92.99,156.49,405.97,Single-ply,SBD,M
Boys,82.1,12,Israel Espinosa,Chico,77.66,156.49,86.18,161.03,403.7,Single-ply,SBD,M
Boys,82.1,13,Eric Maldonado,Castleberry,80.56,147.42,102.06,151.95,401.43,Single-ply,SBD,M
Boys,82.1,14,Logan Shipley,Krum,81.37,136.08,83.91,167.83,387.82,Single-ply,SBD,M
Boys,82.1,15,Brock Reaves,Decatur,78.38,136.08,72.57,167.83,376.48,Single-ply,SBD,M
Boys,82.1,16,Gordon Lewis,Tolar,78.29,124.74,74.84,145.15,344.73,Single-ply,SBD,M
Boys,82.1,17,Josh Hudson #2,Perrin-Whitt,81.56,115.67,72.57,117.93,306.17,Single-ply,SBD,M
Boys,82.1,18,Nate Walterscheidt,Krum,75.48,111.13,52.16,136.08,299.37,Single-ply,SBD,M
Boys,82.1,19,Garret Blank,Krum,77.93,97.52,45.36,142.88,285.76,Single-ply,SBD,M
Boys,82.1,DQ,Nick Loney,Paradise,78.38,136.08,,136.08,,Single-ply,SBD,M
Boys,82.1,DQ,Michael Elmore,Graham,79.11,,,,,Single-ply,SBD,M
Boys,89.81,1,Anthony Garcia,Wichita Falls City View,89.45,206.38,131.54,229.06,566.99,Single-ply,SBD,M
Boys,89.81,2,Tyler Cobb,Paradise,86.82,215.46,124.74,219.99,560.19,Single-ply,SBD,M
Boys,89.81,3,Zayne Gumler,Tolar,88.27,213.19,97.52,226.8,537.51,Single-ply,SBD,M
Boys,89.81,4,Robert Munoz,Lake Worth,85.73,224.53,124.74,181.44,530.7,Single-ply,SBD,M
Boys,89.81,5,True Miller,Bowie,85.82,226.8,108.86,195.04,530.7,Single-ply,SBD,M
Boys,89.81,6,Bodie Cokendolpher,Petrolia,83.37,192.78,92.99,217.72,503.49,Single-ply,SBD,M
Boys,89.81,7,Andrew Maldonado,Castleberry,89.45,192.78,117.93,190.51,501.22,Single-ply,SBD,M
Boys,89.81,8,Brandon Thompson,Jacksboro,84.91,181.44,113.4,204.12,498.95,Single-ply,SBD,M
Boys,89.81,9,Dylan Cole,Decatur,88.18,174.63,136.08,181.44,492.15,Single-ply,SBD,M
Boys,89.81,10,Jordan Carter,Paradise,87.27,183.7,124.74,181.44,489.88,Single-ply,SBD,M
Boys,89.81,11,Jarrett Roper,Paradise,88.81,183.7,124.74,181.44,489.88,Single-ply,SBD,M
Boys,89.81,12,Nate Dawson,Chico,86.73,172.37,113.4,192.78,478.54,Single-ply,SBD,M
Boys,89.81,13,Chris Luna,Castleberry,88.99,192.78,104.33,181.44,478.54,Single-ply,SBD,M
Boys,89.81,14,Aaron Ewing,Lake Worth,87.91,163.29,97.52,183.7,444.52,Single-ply,SBD,M
Boys,89.81,15,Dawson Parrott,Olney,87.54,149.69,104.33,170.1,424.11,Single-ply,SBD,M
Boys,89.81,16,Victor Hernandez #8,Strawn,87.09,147.42,97.52,170.1,415.04,Single-ply,SBD,M
Boys,89.81,17,Andrew Rodrigues,Wichita Falls City View,83.73,142.88,97.52,170.1,410.5,Single-ply,SBD,M
Boys,89.81,18,Dub Little,Strawn,83.01,142.88,90.72,174.63,408.23,Single-ply,SBD,M
Boys,89.81,19,Chase Dodson,Millsap,87.18,147.42,83.91,156.49,387.82,Single-ply,SBD,M
Boys,89.81,20,Brandon Pemberton,Decatur,86.36,140.61,77.11,158.76,376.48,Single-ply,SBD,M
Boys,89.81,21,Zach Wood,Paradise,84.64,129.27,83.91,145.15,358.34,Single-ply,SBD,M
Boys,89.81,22,Robbie Albert,Petrolia,85,122.47,77.11,142.88,342.46,Single-ply,SBD,M
Boys,89.81,23,Trinity Haggard,Throckmorton,87.09,149.69,79.38,,229.06,Single-ply,SB,M
Boys,89.81,DQ,Ivan Garcia #2,Peaster,88,,151.95,,,Single-ply,SB,M
Boys,99.79,1,Jorden Molina,Olney,96.62,249.48,142.88,238.14,630.49,Single-ply,SBD,M
Boys,99.79,2,Jacob Fleming,Graham,94.53,229.06,127.01,201.85,557.92,Single-ply,SBD,M
Boys,99.79,3,Devin Daume,Graham,95.89,210.92,131.54,197.31,539.77,Single-ply,SBD,M
Boys,99.79,4,Mason Del Castillo,Decatur,97.25,197.31,117.93,206.38,521.63,Single-ply,SBD,M
Boys,99.79,5,Ej Lozado,Jacksboro,95.8,195.04,111.13,213.19,519.36,Single-ply,SBD,M
Boys,99.79,6,Pj Caparelli,Bowie,98.16,210.92,104.33,185.97,501.22,Single-ply,SBD,M
Boys,99.79,7,Bubba Johnson,Jacksboro,91.9,183.7,108.86,176.9,469.47,Single-ply,SBD,M
Boys,99.79,8,Justin Silva,Wichita Falls City View,93.62,183.7,97.52,185.97,467.2,Single-ply,SBD,M
Boys,99.79,9,Dylan Coffin,Krum,92.08,179.17,88.45,185.97,453.59,Single-ply,SBD,M
Boys,109.77,10,Dakota Williams #1,Decatur,99.88,172.37,95.25,176.9,444.52,Single-ply,SBD,M
Boys,99.79,11,Graham Cowdrey,Decatur,92.71,167.83,99.79,172.37,439.98,Single-ply,SBD,M
Boys,99.79,12,Shane Tilden,Krum,91.08,158.76,108.86,170.1,437.72,Single-ply,SBD,M
Boys,99.79,13,Skyler Hodges,Krum,95.25,151.95,92.99,172.37,417.3,Single-ply,SBD,M
Boys,99.79,14,Zach Baker #3,Petrolia,95.71,142.88,95.25,170.1,408.23,Single-ply,SBD,M
Boys,99.79,15,Mitchell Coker,Millsap,97.89,142.88,102.06,151.95,396.89,Single-ply,SBD,M
Boys,99.79,16,Chance Bledsoe,Krum,99.34,136.08,92.99,142.88,371.95,Single-ply,SBD,M
Boys,99.79,17,David Hernandez,Hillsboro,91.99,138.35,79.38,122.47,340.19,Single-ply,SBD,M
Boys,99.79,18,Patrick Walthers,Mineral Wells,91.99,122.47,86.18,108.86,317.51,Single-ply,SBD,M
Boys,109.77,1,Joseph Costa,Henrietta,106.05,249.48,158.76,181.44,589.67,Single-ply,SBD,M
Boys,109.77,2,David Whited,Wichita Falls City View,109.32,240.4,133.81,192.78,566.99,Single-ply,SBD,M
Boys,109.77,3,Ivan Gonzales,Graham,109.5,217.72,142.88,204.12,564.72,Single-ply,SBD,M
Boys,109.77,4,Alfredo Librado,Hillsboro,109.32,215.46,145.15,174.63,535.24,Single-ply,SBD,M
Boys,109.77,5,Derek Baynes,Graham,107.77,226.8,115.67,185.97,528.44,Single-ply,SBD,M
Boys,109.77,6,Tj May,Bowie,106.59,204.12,122.47,181.44,508.02,Single-ply,SBD,M
Boys,109.77,7,Esteban Martinez,Krum,107.05,219.99,108.86,176.9,505.76,Single-ply,SBD,M
Boys,109.77,8,Eleazar Diaz,Lake Worth,106.68,215.46,104.33,170.1,489.88,Single-ply,SBD,M
Boys,109.77,9,Colton Richards,Krum,105.41,204.12,99.79,181.44,485.34,Single-ply,SBD,M
Boys,109.77,10,Edgar Mendietta,Hillsboro,107.95,190.51,92.99,185.97,469.47,Single-ply,SBD,M
Boys,109.77,11,Jacob Cortez,Decatur,108.14,176.9,95.25,174.63,446.79,Single-ply,SBD,M
Boys,109.77,12,Allen Martinez,Jacksboro,109.32,165.56,102.06,158.76,426.38,Single-ply,SBD,M
Boys,109.77,13,Marcelino Tafolla,Mineral Wells,108.95,174.63,88.45,136.08,399.16,Single-ply,SBD,M
Boys,109.77,14,Jarred Effler,Strawn,108.86,142.88,74.84,142.88,360.61,Single-ply,SBD,M
Boys,109.77,15,Colby Low,Peaster,105.51,90.72,45.36,92.99,229.06,Single-ply,SBD,M
Boys,109.77,DQ,Chance Brown,Perrin-Whitt,109.32,,102.06,185.97,,Single-ply,SBD,M
Boys,109.77,DQ,Jacob Rice,Perrin-Whitt,106.59,,63.5,170.1,,Single-ply,SBD,M
Boys,109.77,DQ,Morgan Glashen,Wichita Falls City View,102.06,131.54,,142.88,,Single-ply,SBD,M
Boys,124.74,1,Damon Hinrichs,Millsap,118.3,285.76,208.65,226.8,721.21,Single-ply,SBD,M
Boys,124.74,2,Brandon Lane,Tolar,116.03,226.8,151.95,242.67,621.42,Single-ply,SBD,M
Boys,124.74,3,Husky Melendez,Graham,116.21,254.01,167.83,195.04,616.89,Single-ply,SBD,M
Boys,124.74,4,Parker West,Henrietta,119.02,226.8,161.03,181.44,569.26,Single-ply,SBD,M
Boys,124.74,5,John Brock,Henrietta,115.39,226.8,136.08,181.44,544.31,Single-ply,SBD,M
Boys,124.74,6,Matt Tucker,Jacksboro,120.84,217.72,117.93,197.31,532.97,Single-ply,SBD,M
Boys,124.74,7,Eric Zavala,Hillsboro,110.59,195.04,113.4,197.31,505.76,Single-ply,SBD,M
Boys,124.74,8,Julio Martinez,Castleberry,120.75,181.44,97.52,183.7,462.66,Single-ply,SBD,M
Boys,124.74,9,Christian Martinez,Perrin-Whitt,112.94,181.44,72.57,170.1,424.11,Single-ply,SBD,M
Boys,124.74,10,Juan DeLuna,Hillsboro,112.94,136.08,97.52,154.22,387.82,Single-ply,SBD,M
Boys,124.74,11,David Garcia #13,Hillsboro,115.67,151.95,88.45,147.42,387.82,Single-ply,SBD,M
Boys,124.74,12,Levi Jenkins,Paradise,120.75,170.1,72.57,111.13,353.8,Single-ply,SBD,M
Boys,124.74,13,Ryan Ford,Wichita Falls City View,121.74,113.4,92.99,142.88,349.27,Single-ply,SBD,M
Boys,124.74+,1,Allen Hodge,Hillsboro,137.8,272.16,188.24,217.72,678.12,Single-ply,SBD,M
Boys,124.74+,2,Nathan Paschal,Graham,127.37,274.42,151.95,226.8,653.17,Single-ply,SBD,M
Boys,124.74+,3,Jeffery Cooley,Jacksboro,135.53,240.4,140.61,204.12,585.13,Single-ply,SBD,M
Boys,124.74+,4,Pedro Salvador,Hillsboro,125.92,210.92,170.1,201.85,582.87,Single-ply,SBD,M
Boys,124.74+,5,Jt McGuire,Olney,138.98,208.65,124.74,217.72,551.11,Single-ply,SBD,M
Boys,124.74+,6,Edgar Salvador,Hillsboro,142.61,204.12,138.35,201.85,544.31,Single-ply,SBD,M
Boys,124.74+,7,Payton Vanderveer,Millsap,141.52,226.8,127.01,165.56,519.36,Single-ply,SBD,M
Boys,124.74+,8,Dempsey Dorris,Strawn,136.08,192.78,102.06,154.22,449.06,Single-ply,SBD,M
Boys,124.74+,9,Luke Miller,Paradise,138.89,145.15,74.84,147.42,367.41,Single-ply,SBD,M
Boys,124.74+,10,Blake Hailey,Decatur,135.71,136.08,77.11,136.08,349.27,Single-ply,SBD,M
Boys,124.74+,DQ,Teddy Wiley,Krum,135.44,,,124.74,,Single-ply,SBD,M
Boys,,NS,Jonathon Zelasko,Bowie,,,,,,Single-ply,SBD,M
