Division,WeightClassKg,Place,Name,Team,BodyweightKg,Best3SquatKg,Best3BenchKg,Best3DeadliftKg,TotalKg,Equipment,Event,Sex,BirthDate
Boys,55.79,1,Carlos Zamora,Springtown,53.98,129.27,77.11,136.08,342.46,Single-ply,SBD,M,
Boys,59.87,1,Christian Guitterrez,Glen Rose,59.6,102.06,63.5,117.93,283.5,Single-ply,SBD,M,
Boys,67.13,1,Kameron Sinclair,White Settlement Brewer,62.14,172.37,83.91,172.37,428.64,Single-ply,SBD,M,
Boys,67.13,2,Braulio Silva,Glen Rose,66.68,145.15,83.91,154.22,383.29,Single-ply,SBD,M,
Boys,67.13,3,Cason Hughes,Springtown,66.68,142.88,92.99,142.88,378.75,Single-ply,SBD,M,
Boys,67.13,4,James Pompa,Glen Rose,67.13,142.88,77.11,131.54,351.53,Single-ply,SBD,M,
Boys,67.13,5,Gage Edgar,Glen Rose,67.04,127.01,72.57,145.15,344.73,Single-ply,SBD,M,
Boys,67.13,6,Walker Andrews,Glen Rose,66.68,120.2,56.7,136.08,312.98,Single-ply,SBD,M,
Boys,67.13,7,Daniel Wiemer,Springtown,65.77,115.67,63.5,124.74,303.91,Single-ply,SBD,M,
Boys,74.84,1,Bryce Hollingsworth,Springtown,73.94,142.88,97.52,183.7,424.11,Single-ply,SBD,M,
Boys,74.84,2,Conner Homrighaus,Glen Rose,74.03,154.22,97.52,163.29,415.04,Single-ply,SBD,M,
Boys,74.84,3,Terrence Durham,White Settlement Brewer,73.03,156.49,90.72,163.29,410.5,Single-ply,SBD,M,
Boys,74.84,4,Ashton Strahan,Springtown,72.12,158.76,92.99,138.35,390.09,Single-ply,SBD,M,
Boys,74.84,5,Race Turner,Glen Rose,71.21,140.61,86.18,149.69,376.48,Single-ply,SBD,M,
Boys,74.84,6,Barron Barnes,Glen Rose,74.48,136.08,83.91,149.69,369.68,Single-ply,SBD,M,
Boys,82.1,1,Alec Boyle,White Settlement Brewer,79.83,185.97,133.81,190.51,510.29,Single-ply,SBD,M,
Boys,82.1,2,Montrail Cushionberry,White Settlement Brewer,79.83,195.04,136.08,151.95,483.08,Single-ply,SBD,M,
Boys,82.1,3,Josef Yosten,Springtown,81.19,183.7,124.74,163.29,471.74,Single-ply,SBD,M,
Boys,82.1,4,Ryder Cook,Glen Rose,82.1,181.44,92.99,181.44,455.86,Single-ply,SBD,M,
Boys,82.1,5,John Pompa,Glen Rose,82.1,158.76,102.06,174.63,435.45,Single-ply,SBD,M,
Boys,82.1,6,Triston Black,Glen Rose,80.92,181.44,92.99,158.76,433.18,Single-ply,SBD,M,
Boys,82.1,7,Kelby Castro,Springtown,81.65,142.88,102.06,170.1,415.04,Single-ply,SBD,M,
Boys,82.1,8,Christian de la Cruz,Glen Rose,77.75,154.22,95.25,149.69,399.16,Single-ply,SBD,M,
Boys,82.1,9,Mehki Elmore,White Settlement Brewer,78.02,138.35,92.99,161.03,392.36,Single-ply,SBD,M,
Boys,82.1,10,Tyrelle Davis,White Settlement Brewer,79.83,136.08,97.52,158.76,392.36,Single-ply,SBD,M,
Boys,82.1,11,Russell Lem,Glen Rose,78.93,122.47,83.91,151.95,358.34,Single-ply,SBD,M,
Boys,89.81,1,Courtney Pruitt,White Settlement Brewer,89.81,185.97,131.54,174.63,492.15,Single-ply,SBD,M,
Boys,89.81,2,Elizjah Richardson,White Settlement Brewer,89.81,158.76,120.2,183.7,462.66,Single-ply,SBD,M,
Boys,89.81,3,Brodee Trejo,Springtown,89.36,188.24,111.13,158.76,458.13,Single-ply,SBD,M,
Boys,89.81,4,Cam Raymond,Glen Rose,88,181.44,95.25,170.1,446.79,Single-ply,SBD,M,
Boys,89.81,5,Jake Gilbreath,Glen Rose,89.72,181.44,95.25,163.29,439.98,Single-ply,SBD,M,
Boys,89.81,6,Caleb Beggs,Glen Rose,89.72,142.88,72.57,158.76,374.21,Single-ply,SBD,M,
Boys,89.81,7,Jaqualyn Spriggs,White Settlement Brewer,88,138.35,79.38,136.08,353.8,Single-ply,SBD,M,
Boys,89.81,8,Ethan Treadaway,Glen Rose,84.19,140.61,68.04,140.61,349.27,Single-ply,SBD,M,
Boys,89.81,9,Hudson Hulett,Springtown,82.55,129.27,77.11,124.74,331.12,Single-ply,SBD,M,
Boys,89.81,10,Dayton Drugan,Glen Rose,86.18,120.2,70.31,136.08,326.59,Single-ply,SBD,M,
Boys,99.79,1,Collin Tidwell,Springtown,96.16,195.04,106.59,188.24,489.88,Single-ply,SBD,M,
Boys,99.79,2,Hunter Douglas,Glen Rose,96.16,181.44,111.13,167.83,460.4,Single-ply,SBD,M,
Boys,99.79,3,Caleb Williams #9,White Settlement Brewer,99.34,170.1,106.59,151.95,428.64,Single-ply,SBD,M,
Boys,109.77,1,Harley Bowman,Glen Rose,105.05,183.7,124.74,183.7,492.15,Single-ply,SBD,M,
Boys,109.77,2,Robert Orr,White Settlement Brewer,104.78,190.51,124.74,174.63,489.88,Single-ply,SBD,M,
Boys,109.77,3,Errik Mills,White Settlement Brewer,107.05,165.56,129.27,195.04,489.88,Single-ply,SBD,M,
Boys,109.77,4,Kyle Rose,Springtown,103.42,172.37,117.93,174.63,464.93,Single-ply,SBD,M,
Boys,109.77,5,Ruben Baquera,White Settlement Brewer,101.6,163.29,124.74,161.03,449.06,Single-ply,SBD,M,
Boys,109.77,6,Camdon Alvarez,Springtown,106.59,163.29,92.99,142.88,399.16,Single-ply,SBD,M,
Boys,109.77,7,Angel Martinez #10,White Settlement Brewer,109.32,147.42,95.25,154.22,396.89,Single-ply,SBD,M,
Boys,109.77,8,Cambryn Holbrooks,Springtown,105.23,111.13,79.38,151.95,342.46,Single-ply,SBD,M,
Boys,124.74,1,Garrett Haymes,Springtown,115.67,158.76,104.33,158.76,421.84,Single-ply,SBD,M,
Boys,124.74,2,Rj Weatherd,White Settlement Brewer,116.12,145.15,106.59,165.56,417.3,Single-ply,SBD,M,
Boys,124.74,3,Mike Esparza,Glen Rose,116.12,131.54,83.91,142.88,358.34,Single-ply,SBD,M,
Boys,124.74,4,Tyler Berry,Glen Rose,118.39,117.93,79.38,136.08,333.39,Single-ply,SBD,M,
Boys,139.71,1,Cody Brackeen,Springtown,136.08,206.38,120.2,201.85,528.44,Single-ply,SBD,M,
Boys,139.71,2,David Herrera #6,White Settlement Brewer,136.08,174.63,117.93,179.17,471.74,Single-ply,SBD,M,
Boys,139.71,3,Ivan Gonzales,Springtown,131.54,181.44,95.25,158.76,435.45,Single-ply,SBD,M,
Boys,139.71+,1,Dylan Matthiessen,Springtown,140.16,161.03,83.91,183.7,428.64,Single-ply,SBD,M,
Boys,139.71+,2,Adrian Lewis,White Settlement Brewer,158.3,131.54,92.99,165.56,390.09,Single-ply,SBD,M,
Boys,139.71+,3,Cj Morgan,Springtown,140.16,133.81,97.52,151.95,383.29,Single-ply,SBD,M,
