Division,WeightClassKg,Place,Name,Team,BodyweightKg,Best3SquatKg,Best3BenchKg,Best3DeadliftKg,TotalKg,Equipment,Event,Sex
Boys,51.71,1,Miguel Hernandez,Emory Rains,50.71,156.49,90.72,151.95,399.16,Single-ply,SBD,M
Boys,51.71,2,Ja'Vonta Mitchell,Greenville,50.98,136.08,70.31,124.74,331.12,Single-ply,SBD,M
Boys,51.71,3,Tanner Swinsen,Sulphur Springs,51.71,92.99,49.9,106.59,249.48,Single-ply,SBD,M
Boys,55.79,1,Jesse Ortiz,Sulphur Springs,54.07,167.83,79.38,154.22,401.43,Single-ply,SBD,M
Boys,55.79,2,Dylan Izzi,Sulphur Springs,55.34,136.08,88.45,147.42,371.95,Single-ply,SBD,M
Boys,55.79,3,Cesar Colunga,Emory Rains,55.7,133.81,63.5,142.88,340.19,Single-ply,SBD,M
Boys,55.79,4,Freddy Reyes,Greenville,55.25,138.35,63.5,113.4,315.25,Single-ply,SBD,M
Boys,55.79,5,Dylan Simmons,Emory Rains,55.7,136.08,68.04,111.13,315.25,Single-ply,SBD,M
Boys,55.79,6,Caleb Weaver,Van,54.61,88.45,72.57,124.74,285.76,Single-ply,SBD,M
Boys,55.79,7,Ougo Ortiz,Van,55.52,88.45,54.43,113.4,256.28,Single-ply,SBD,M
Boys,67.13,1,Luis Gamez #1,Sulphur Springs,59.96,174.63,113.4,172.37,460.4,Single-ply,SBD,M
Boys,59.87,2,Taylor Ibarra,Sulphur Springs,59.15,142.88,90.72,136.08,369.68,Single-ply,SBD,M
Boys,59.87,3,Bryan Sota,Wolfe City,58.42,127.01,61.23,138.35,326.59,Single-ply,SBD,M
Boys,74.84,1,Wesley McCrary,Wolfe City,67.22,181.44,117.93,176.9,476.27,Single-ply,SBD,M
Boys,74.84,2,Jacob Mitchell,Greenville,67.31,179.17,99.79,176.9,455.86,Single-ply,SBD,M
Boys,67.13,3,Matt Collins #4,Emory Rains,64.95,154.22,111.13,165.56,430.91,Single-ply,SBD,M
Boys,74.84,4,Daniel Broyles,Quinlan Boles,67.31,181.44,108.86,136.08,426.38,Single-ply,SBD,M
Boys,67.13,5,Brant Thayer,Grand Saline,63.23,158.76,83.91,147.42,390.09,Single-ply,SBD,M
Boys,67.13,6,Johnny Amaro,Wolfe City,62.32,147.42,65.77,149.69,362.87,Single-ply,SBD,M
Boys,67.13,7,Clayton Harris,Emory Rains,63.68,136.08,83.91,129.27,349.27,Single-ply,SBD,M
Boys,67.13,8,Trenton Worley,Emory Rains,64.5,129.27,81.65,133.81,344.73,Single-ply,SBD,M
Boys,67.13,9,Harold Black,Grand Saline,66.68,138.35,68.04,136.08,342.46,Single-ply,SBD,M
Boys,74.84,10,Rogelio Juarez,Van,67.22,111.13,86.18,136.08,333.39,Single-ply,SBD,M
Boys,67.13,11,Gustavo Arango,Mineola,63.5,131.54,63.5,136.08,331.12,Single-ply,SBD,M
Boys,67.13,12,Naim Diego,Emory Rains,62.78,111.13,63.5,149.69,324.32,Single-ply,SBD,M
Boys,67.13,13,Spencer Jones,Mineola,61.78,106.59,79.38,136.08,322.05,Single-ply,SBD,M
Boys,67.13,14,Curtis Green,Quinlan Boles,64.41,111.13,81.65,117.93,310.71,Single-ply,SBD,M
Boys,67.13,15,Fabian Roman,Quitman,62.41,102.06,77.11,124.74,303.91,Single-ply,SBD,M
Boys,67.13,16,Bernard Robinson,Emory Rains,62.05,99.79,63.5,111.13,274.42,Single-ply,SBD,M
Boys,74.84,1,Christian Darter,Emory Rains,74.12,206.38,140.61,215.46,562.45,Single-ply,SBD,M
Boys,74.84,2,Cade Gray,Grand Saline,73.57,163.29,111.13,183.7,458.13,Single-ply,SBD,M
Boys,74.84,3,Chris Miles,Sulphur Springs,73.75,181.44,97.52,170.1,449.06,Single-ply,SBD,M
Boys,74.84,4,Payton Phillips,Hawkins,70.22,181.44,83.91,174.63,439.98,Single-ply,SBD,M
Boys,74.84,5,Ty Bielss,Canton,74.66,149.69,88.45,201.85,439.98,Single-ply,SBD,M
Boys,74.84,6,Robert Pyle,Emory Rains,74.75,174.63,88.45,174.63,437.72,Single-ply,SBD,M
Boys,74.84,7,Jesse Harwell,Hawkins,73.57,165.56,95.25,156.49,417.3,Single-ply,SBD,M
Boys,74.84,8,Josh Lemus,Van,73.57,142.88,92.99,165.56,401.43,Single-ply,SBD,M
Boys,74.84,9,Chris Goforth,Emory Rains,74.03,140.61,83.91,149.69,374.21,Single-ply,SBD,M
Boys,74.84,10,Devante Wright,Mineola,68.4,136.08,79.38,136.08,351.53,Single-ply,SBD,M
Boys,74.84,11,Keatyn Treadway,Canton,71.85,131.54,74.84,142.88,349.27,Single-ply,SBD,M
Boys,74.84,12,Bradley Brown,Canton,70.76,124.74,70.31,145.15,340.19,Single-ply,SBD,M
Boys,74.84,13,Jett Jordan,Longview Spring Hill,71.21,113.4,74.84,138.35,326.59,Single-ply,SBD,M
Boys,74.84,14,Taylor Faris,Emory Rains,74.03,127.01,72.57,127.01,326.59,Single-ply,SBD,M
Boys,74.84,15,Clayton Arnold,Canton,73.21,92.99,61.23,158.76,312.98,Single-ply,SBD,M
Boys,74.84,16,Cole Griffin,Emory Rains,70.85,102.06,56.7,145.15,303.91,Single-ply,SBD,M
Boys,74.84,17,Joseph Miller,Emory Rains,72.3,90.72,65.77,104.33,260.82,Single-ply,SBD,M
Boys,74.84,DQ,Damon Arceneaux,Winona,72.3,129.27,,,,Single-ply,SBD,M
Boys,82.1,1,Dedric Smith,Sulphur Springs,78.29,208.65,117.93,226.8,553.38,Single-ply,SBD,M
Boys,82.1,2,Zach Spigner,Sulphur Springs,81.47,179.17,117.93,210.92,508.02,Single-ply,SBD,M
Boys,89.81,3,Logan Thompson,Canton,82.28,183.7,129.27,183.7,496.68,Single-ply,SBD,M
Boys,82.1,4,Tyler Rosamond,Sulphur Springs,81.74,181.44,102.06,179.17,462.66,Single-ply,SBD,M
Boys,82.1,5,Justin Blagburn,Emory Rains,78.38,167.83,111.13,181.44,460.4,Single-ply,SBD,M
Boys,82.1,6,Eric Hernandez,Mineola,81.74,165.56,102.06,158.76,426.38,Single-ply,SBD,M
Boys,89.81,7,Justin Zackery,Emory Rains,82.28,174.63,83.91,165.56,424.11,Single-ply,SBD,M
Boys,82.1,8,Kory Kent,Quinlan Boles,77.66,147.42,102.06,161.03,410.5,Single-ply,SBD,M
Boys,82.1,9,Riley Burrus,Canton,80.29,165.56,79.38,151.95,396.89,Single-ply,SBD,M
Boys,82.1,10,Brandon Clark,Grand Saline,78.93,129.27,115.67,149.69,394.63,Single-ply,SBD,M
Boys,82.1,11,Grayson Burns,Emory Rains,75.57,140.61,79.38,158.76,378.75,Single-ply,SBD,M
Boys,82.1,12,Matt McFatridge,Longview Spring Hill,79.2,124.74,61.23,145.15,331.12,Single-ply,SBD,M
Boys,82.1,DQ,Tino Elias,Mineola,75.93,,,,,Single-ply,SBD,M
Boys,89.81,1,Gannon Brown,Emory Rains,84.91,222.26,156.49,260.82,639.57,Single-ply,SBD,M
Boys,89.81,2,Grant Russell,Emory Rains,86,190.51,129.27,256.28,576.06,Single-ply,SBD,M
Boys,89.81,3,Bryton Wood,Sulphur Springs,83.91,204.12,124.74,192.78,521.63,Single-ply,SBD,M
Boys,89.81,4,Alex Gamez,Sulphur Springs,87.09,206.38,115.67,188.24,510.29,Single-ply,SBD,M
Boys,89.81,5,David Mitchell-Blaylock,Winona,88.9,113.4,124.74,165.56,403.7,Single-ply,SBD,M
Boys,89.81,6,Caleb Freeman,Longview Spring Hill,88.09,97.52,54.43,117.93,269.89,Single-ply,SBD,M
Boys,89.81,DQ,Elijah Cook,Grand Saline,83.28,,,,,Single-ply,SBD,M
Boys,89.81,DQ,Sammy Palma,Grand Saline,88.99,,,,,Single-ply,SBD,M
Boys,99.79,1,Braylon Champion,Greenville,98.61,222.26,136.08,247.21,605.55,Single-ply,SBD,M
Boys,99.79,2,Jb Medley,Canton,99.34,185.97,111.13,151.95,449.06,Single-ply,SBD,M
Boys,99.79,3,De'Andre Jefferson,Winona,91.44,142.88,117.93,176.9,437.72,Single-ply,SBD,M
Boys,99.79,4,Kyle Adams,Canton,95.25,136.08,97.52,136.08,369.68,Single-ply,SBD,M
Boys,99.79,5,Richard Gellegos,Longview Spring Hill,97.98,129.27,77.11,124.74,331.12,Single-ply,SBD,M
Boys,109.77,1,Ciprano Gonzales,Greenville,106.05,260.82,163.29,201.85,625.96,Single-ply,SBD,M
Boys,109.77,2,Josh Hurst,Mineola,107.23,226.8,108.86,204.12,539.77,Single-ply,SBD,M
Boys,109.77,3,Hunter Smith #1,Greenville,103.69,208.65,113.4,204.12,526.17,Single-ply,SBD,M
Boys,109.77,4,Grant Farley,Quinlan Boles,108.59,174.63,102.06,192.78,469.47,Single-ply,SBD,M
Boys,109.77,5,Zach Simans,Wolfe City,102.97,181.44,102.06,172.37,455.86,Single-ply,SBD,M
Boys,109.77,6,David Tapia,Emory Rains,105.6,179.17,88.45,154.22,421.84,Single-ply,SBD,M
Boys,109.77,7,Tim Wilson,Winona,104.6,127.01,106.59,176.9,410.5,Single-ply,SBD,M
Boys,109.77,DQ,Roland Stevens,Grand Saline,105.69,163.29,,,,Single-ply,SBD,M
Boys,124.74,1,Dillon Stevens,Greenville,112.13,240.4,136.08,215.46,591.94,Single-ply,SBD,M
Boys,124.74,2,Mitchell Wheat,Greenville,121.56,235.87,127.01,204.12,566.99,Single-ply,SBD,M
Boys,124.74,3,Chris Figueroa,Grand Saline,116.85,183.7,106.59,192.78,483.08,Single-ply,SBD,M
Boys,124.74+,4,Dakota Griffin,Emory Rains,124.92,201.85,108.86,172.37,483.08,Single-ply,SBD,M
Boys,124.74,5,Emiliano Ramirez,Quitman,119.39,195.04,127.01,158.76,480.81,Single-ply,SBD,M
Boys,124.74,6,Dylan Currie,Grand Saline,116.03,179.17,108.86,172.37,460.4,Single-ply,SBD,M
Boys,124.74,7,Peter Ramirez,Quitman,123.56,156.49,108.86,149.69,415.04,Single-ply,SBD,M
Boys,124.74,8,Colton Chandler,Longview Spring Hill,113.58,136.08,92.99,138.35,367.41,Single-ply,SBD,M
Boys,124.74,9,Michael White,Longview Spring Hill,111.67,136.08,68.04,154.22,358.34,Single-ply,SBD,M
Boys,124.74+,1,Wyatt Santos,Van,147.33,256.28,181.44,231.33,669.05,Single-ply,SBD,M
Boys,124.74+,2,Shaquille Anderson,Greenville,145.78,258.55,145.15,222.26,625.96,Single-ply,SBD,M
Boys,124.74+,3,Cameron Canady,Greenville,141.97,217.72,140.61,244.94,603.28,Single-ply,SBD,M
Boys,124.74+,4,Tristan Fritch,Van,173.09,249.48,156.49,195.04,601.01,Single-ply,SBD,M
Boys,124.74+,5,Jess Jenkins,Sulphur Springs,129.09,210.92,147.42,226.8,585.13,Single-ply,SBD,M
Boys,124.74+,6,Keanan Ivory,Canton,147.24,251.74,115.67,210.92,578.33,Single-ply,SBD,M
Boys,124.74+,7,Garrett Barnes,Grand Saline,137.62,219.99,97.52,181.44,498.95,Single-ply,SBD,M
Boys,124.74+,8,Daniel Smith,Quinlan Boles,132.45,113.4,68.04,90.72,272.16,Single-ply,SBD,M
Boys,124.74+,DQ,Montana Battane,Greenville,141.07,,,,,Single-ply,SBD,M
