Division,WeightClassKg,Place,Name,Team,BodyweightKg,Best3SquatKg,Best3BenchKg,Best3DeadliftKg,TotalKg,Equipment,Event,Sex
Boys,51.71,1,Justin Dowdy,Wills Point,47.63,127.01,72.57,127.01,326.59,Single-ply,SBD,M
Boys,51.71,2,Korbin Kuenemann,Longview Spring Hill,47.72,102.06,47.63,104.33,254.01,Single-ply,SBD,M
Boys,51.71,3,Woodrow Strain,Kaufman,46.36,86.18,47.63,90.72,224.53,Single-ply,SBD,M
Boys,51.71,4,Colby Tulpa,Longview Spring Hill,48.53,86.18,40.82,97.52,224.53,Single-ply,SBD,M
Boys,55.79,1,Ralph Bustos,Kaufman,54.61,151.95,86.18,136.08,374.21,Single-ply,SBD,M
Boys,55.79,2,Angel Ross,Quitman,55.52,129.27,79.38,140.61,349.27,Single-ply,SBD,M
Boys,55.79,3,Justin Weeter,Quitman,54.61,120.2,65.77,138.35,324.32,Single-ply,SBD,M
Boys,55.79,4,Marcus Pierotek,Longview Pine Tree,52.98,102.06,63.5,117.93,283.5,Single-ply,SBD,M
Boys,59.87,1,Nick McKee,Longview Spring Hill,58.33,161.03,95.25,165.56,421.84,Single-ply,SBD,M
Boys,59.87,2,Tyler Watson,Crandall,57.7,129.27,90.72,151.95,371.95,Single-ply,SBD,M
Boys,59.87,3,Garrett Plumlee,Longview Spring Hill,58.79,127.01,81.65,163.29,371.95,Single-ply,SBD,M
Boys,67.13,4,Tony Woods,Kerens,59.96,120.2,68.04,149.69,337.93,Single-ply,SBD,M
Boys,59.87,5,Tyler Davis,Kaufman,58.88,145.15,72.57,49.9,267.62,Single-ply,SBD,M
Boys,74.84,1,Marquise Harris,Canton,67.31,161.03,86.18,149.69,396.89,Single-ply,SBD,M
Boys,67.13,2,Tanner Rhodes,Overton,64.86,163.29,81.65,149.69,394.63,Single-ply,SBD,M
Boys,67.13,3,Brandon Small,White Oak,66.22,124.74,90.72,165.56,381.02,Single-ply,SBD,M
Boys,67.13,4,Brant Thayer,Grand Saline,64.32,158.76,79.38,140.61,378.75,Single-ply,SBD,M
Boys,67.13,5,Joseph Parker,Wills Point,64.41,145.15,79.38,138.35,362.87,Single-ply,SBD,M
Boys,67.13,6,Christian Fisk,Longview Pine Tree,60.78,140.61,70.31,147.42,358.34,Single-ply,SBD,M
Boys,67.13,7,Zach Muniz,Van,62.14,129.27,77.11,131.54,337.93,Single-ply,SBD,M
Boys,67.13,8,Jovani Cornado,Kerens,65.68,124.74,70.31,142.88,337.93,Single-ply,SBD,M
Boys,67.13,9,Andy Gibson,Grand Saline,61.87,117.93,86.18,127.01,331.12,Single-ply,SBD,M
Boys,67.13,10,Casey Cranford,Wills Point,64.05,120.2,79.38,131.54,331.12,Single-ply,SBD,M
Boys,74.84,11,Lane Croft,White Oak,67.31,127.01,72.57,127.01,326.59,Single-ply,SBD,M
Boys,67.13,12,Jessie Dechaume,Kerens,67.13,90.72,74.84,149.69,315.25,Single-ply,SBD,M
Boys,67.13,13,Logan Elmore,Ore City,66.86,95.25,68.04,111.13,274.42,Single-ply,SBD,M
Boys,67.13,14,Noah Vanbardum,White Oak,65.68,99.79,54.43,108.86,263.08,Single-ply,SBD,M
Boys,67.13,15,Cody Presson,White Oak,65.41,90.72,43.09,120.2,254.01,Single-ply,SBD,M
Boys,67.13,16,Jacob Ghormley,Crandall,66.68,74.84,56.7,104.33,235.87,Single-ply,SBD,M
Boys,67.13,DQ,Brad Curtis #1,Canton,63.05,,,,,Single-ply,SBD,M
Boys,67.13,DQ,Kenneth Buffin,Longview Pine Tree,64.95,142.88,,,,Single-ply,SBD,M
Boys,67.13,DQ,Austin Iske,White Oak,63.23,92.99,,106.59,,Single-ply,SBD,M
Boys,74.84,1,James Wright #1,Wills Point,73.75,192.78,113.4,201.85,508.02,Single-ply,SBD,M
Boys,82.1,2,Tavion Hall,Kerens,75.02,172.37,108.86,226.8,508.02,Single-ply,SBD,M
Boys,74.84,3,LaXavier Battee,Kaufman,72.67,181.44,102.06,181.44,464.93,Single-ply,SBD,M
Boys,82.1,4,Ethan Jordan,Ore City,75.02,163.29,111.13,174.63,449.06,Single-ply,SBD,M
Boys,74.84,5,Taylor Young #4,Ore City,68.58,167.83,86.18,183.7,437.72,Single-ply,SBD,M
Boys,74.84,6,Jonny Parker #2,Wills Point,74.3,174.63,88.45,156.49,419.57,Single-ply,SBD,M
Boys,82.1,7,Brett Mallon,Crandall,75.02,145.15,97.52,156.49,399.16,Single-ply,SBD,M
Boys,74.84,8,Anthony Campos,Van,69.4,142.88,95.25,138.35,376.48,Single-ply,SBD,M
Boys,74.84,9,Zane Fudge,Longview Pine Tree,68.76,140.61,83.91,149.69,374.21,Single-ply,SBD,M
Boys,74.84,10,Tony Sanchez,Van,70.31,142.88,86.18,145.15,374.21,Single-ply,SBD,M
Boys,74.84,11,Cade Gray,Grand Saline,71.49,124.74,90.72,158.76,374.21,Single-ply,SBD,M
Boys,74.84,12,Anfernee Harris,Wills Point,68.13,124.74,81.65,154.22,360.61,Single-ply,SBD,M
Boys,74.84,13,Cameron Leath,Wills Point,74.84,124.74,79.38,140.61,344.73,Single-ply,SBD,M
Boys,74.84,14,Dennis Kennedy,Ore City,74.84,111.13,70.31,127.01,308.44,Single-ply,SBD,M
Boys,74.84,15,Sawyer Means,Grand Saline,73.21,97.52,65.77,117.93,281.23,Single-ply,SBD,M
Boys,82.1,DQ,Brendan Curtis,Canton,74.98,142.88,,,,Single-ply,SBD,M
Boys,74.84,DQ,Braxton Allen,Crandall,70.13,129.27,,,,Single-ply,SBD,M
Boys,74.84,DQ,Austin Corn,Crandall,71.67,165.56,97.52,,,Single-ply,SBD,M
Boys,74.84,DQ,Dalton Dykes,Van,72.12,129.27,,,,Single-ply,SBD,M
Boys,74.84,DQ,Dustin Coleman,Ore City,70.03,,58.97,113.4,,Single-ply,SBD,M
Boys,82.1,1,Alex Yancey,Overton,82.1,201.85,131.54,163.29,496.68,Single-ply,SBD,M
Boys,82.1,2,Alec Bates,Quitman,75.84,165.56,106.59,181.44,453.59,Single-ply,SBD,M
Boys,82.1,3,Brady Wilbanks,Longview Pine Tree,80.29,163.29,129.27,158.76,451.32,Single-ply,SBD,M
Boys,82.1,4,Jacob Holley,Kaufman,78.74,154.22,122.47,163.29,439.98,Single-ply,SBD,M
Boys,82.1,5,Grayson Aduddel,Canton,80.29,147.42,117.93,158.76,424.11,Single-ply,SBD,M
Boys,82.1,6,Tristan Ford,Van,79.38,156.49,99.79,161.03,417.3,Single-ply,SBD,M
Boys,82.1,7,Colby McCloud,Grand Saline,79.56,147.42,81.65,181.44,410.5,Single-ply,SBD,M
Boys,82.1,8,Quay Ward,Longview Pine Tree,79.2,142.88,102.06,154.22,399.16,Single-ply,SBD,M
Boys,82.1,9,Jake Bennett,Grand Saline,78.02,136.08,90.72,163.29,390.09,Single-ply,SBD,M
Boys,82.1,10,Daylon Rusk,Longview Pine Tree,79.2,142.88,79.38,151.95,374.21,Single-ply,SBD,M
Boys,89.81,11,Dillion Miers,Longview Pine Tree,82.24,124.74,86.18,154.22,365.14,Single-ply,SBD,M
Boys,82.1,12,Chase Pemberton,Wills Point,80.1,124.74,83.91,147.42,356.07,Single-ply,SBD,M
Boys,82.1,13,Brenden Blunt,Crandall,75.39,129.27,83.91,129.27,342.46,Single-ply,SBD,M
Boys,82.1,DQ,Dustin Thompson,Quitman,78.29,,,,,Single-ply,SBD,M
Boys,82.1,DQ,Aden Williams,Overton,78.65,129.27,,,,Single-ply,SBD,M
Boys,89.81,1,Jonathan Dunson,Kaufman,88.99,206.38,127.01,181.44,514.83,Single-ply,SBD,M
Boys,89.81,2,Chris Ferguson,Longview Pine Tree,88.9,188.24,115.67,192.78,496.68,Single-ply,SBD,M
Boys,89.81,3,Logan Thompson,Canton,89.36,192.78,106.59,167.83,467.2,Single-ply,SBD,M
Boys,89.81,4,Keyotrick Brown,Longview Pine Tree,82.74,170.1,111.13,181.44,462.66,Single-ply,SBD,M
Boys,89.81,5,Josh Reeves,Ore City,84.01,145.15,92.99,192.78,430.91,Single-ply,SBD,M
Boys,89.81,6,Derrick Alexander,Kaufman,83.46,161.03,92.99,167.83,421.84,Single-ply,SBD,M
Boys,89.81,7,William Johnson,Ore City,84.82,142.88,86.18,158.76,387.82,Single-ply,SBD,M
Boys,89.81,8,Brandon Clark,Grand Saline,85.09,111.13,102.06,138.35,351.53,Single-ply,SBD,M
Boys,89.81,9,Christian Sampson,Longview Spring Hill,85.46,131.54,72.57,147.42,351.53,Single-ply,SBD,M
Boys,89.81,DQ,Dillion Green,Longview Spring Hill,86.91,131.54,77.11,,,Single-ply,SBD,M
Boys,89.81,DQ,Ivan Ugalde,Ore City,85.46,,68.04,156.49,,Single-ply,SBD,M
Boys,99.79,DQ,Dalton Thompson,Quitman,89.9,154.22,,,,Single-ply,SBD,M
Boys,99.79,1,Hagen Tucker,Longview Spring Hill,93.44,190.51,122.47,197.31,510.29,Single-ply,SBD,M
Boys,99.79,2,Brett DeBaca,White Oak,94.89,190.51,115.67,185.97,492.15,Single-ply,SBD,M
Boys,99.79,3,Elier Avila,Kaufman,94.35,208.65,106.59,172.37,487.61,Single-ply,SBD,M
Boys,99.79,4,Dallas Green #2,Longview Spring Hill,90.08,181.44,108.86,170.1,460.4,Single-ply,SBD,M
Boys,99.79,5,Keelin Munoz,White Oak,91.9,161.03,90.72,167.83,419.57,Single-ply,SBD,M
Boys,99.79,6,Kyle Walker,Grand Saline,96.25,136.08,102.06,161.03,399.16,Single-ply,SBD,M
Boys,99.79,7,Braylon Bradford,Longview Spring Hill,97.25,140.61,72.57,136.08,349.27,Single-ply,SBD,M
Boys,99.79,8,Jb Medley,Canton,94.53,142.88,95.25,102.06,340.19,Single-ply,SBD,M
Boys,99.79,9,Caden Beavis,White Oak,96.34,131.54,65.77,122.47,319.78,Single-ply,SBD,M
Boys,99.79,DQ,Jason Foster,Overton,99.06,,,,,Single-ply,SBD,M
Boys,99.79,DQ,Bryer Duke,Kerens,92.17,176.9,92.99,,,Single-ply,SBD,M
Boys,99.79,DQ,Bryce Stephens,Ore City,99.79,204.12,,,,Single-ply,SBD,M
Boys,109.77,1,Eddie Calico,Longview Pine Tree,108.59,303.91,208.65,263.08,775.64,Single-ply,SBD,M
Boys,109.77,2,Codey Huggins,Wills Point,107.05,215.46,95.25,204.12,514.83,Single-ply,SBD,M
Boys,109.77,3,Seth Loftin,Van,108.41,176.9,111.13,188.24,476.27,Single-ply,SBD,M
Boys,109.77,4,Michael Willingham,White Oak,106.14,165.56,97.52,181.44,444.52,Single-ply,SBD,M
Boys,109.77,5,Dylan Blizzard,Kaufman,103.87,174.63,97.52,170.1,442.25,Single-ply,SBD,M
Boys,109.77,6,Hunter Hix,Longview Spring Hill,104.87,151.95,102.06,158.76,412.77,Single-ply,SBD,M
Boys,109.77,7,Ryan Warren,Wills Point,108.59,163.29,104.33,131.54,399.16,Single-ply,SBD,M
Boys,109.77,8,Zach Gray,Wills Point,105.78,158.76,99.79,138.35,396.89,Single-ply,SBD,M
Boys,109.77,9,Trey Potter,Ore City,105.23,133.81,108.86,145.15,387.82,Single-ply,SBD,M
Boys,109.77,DQ,Kris Layman,White Oak,106.68,,108.86,185.97,,Single-ply,SBD,M
Boys,124.74,1,William Mitchell,Longview Pine Tree,112.49,229.06,124.74,183.7,537.51,Single-ply,SBD,M
Boys,124.74,2,Larry Counts,Kaufman,111.31,183.7,120.2,181.44,485.34,Single-ply,SBD,M
Boys,124.74,3,Nicholas Rodriguez,Kaufman,120.2,170.1,106.59,179.17,455.86,Single-ply,SBD,M
Boys,124.74,4,Lyle Owens,White Oak,117.93,181.44,113.4,158.76,453.59,Single-ply,SBD,M
Boys,124.74,DQ,Jason Heim,White Oak,114.67,226.8,,,,Single-ply,SBD,M
Boys,124.74,DQ,Ke'Adric Nelson,Canton,113.4,,,,,Single-ply,SBD,M
Boys,124.74+,1,Andre McKissick,Crandall,140.16,226.8,140.61,235.87,603.28,Single-ply,SBD,M
Boys,124.74+,2,Jacob Reicherau,Crandall,143.79,208.65,104.33,201.85,514.83,Single-ply,SBD,M
Boys,124.74+,3,Bobby Wells,Quitman,126.01,190.51,120.2,185.97,496.68,Single-ply,SBD,M
Boys,124.74+,4,Jesse Luna,Wills Point,149.69,208.65,99.79,174.63,483.08,Single-ply,SBD,M
Boys,124.74+,5,Keenan Ivory,Canton,151.32,222.26,77.11,165.56,464.93,Single-ply,SBD,M
Boys,124.74+,6,Scott Sparks,Longview Spring Hill,142.07,165.56,104.33,154.22,424.11,Single-ply,SBD,M
Boys,124.74+,7,Garrett Barnes,Grand Saline,130.18,136.08,83.91,154.22,374.21,Single-ply,SBD,M
Boys,124.74+,8,Lay Lay Harkless,Overton,127.19,151.95,88.45,129.27,369.68,Single-ply,SBD,M
Boys,124.74+,DQ,Carlos Hernandez #10,Van,127.01,188.24,,,,Single-ply,SBD,M
Boys,124.74+,DQ,Alunte Jackson,Longview Pine Tree,156.04,158.76,,,,Single-ply,SBD,M
Boys,,NS,Matt Speegle,Longview Pine Tree,,,,,,Single-ply,SBD,M
Boys,,NS,Jarvis Walls,Longview Pine Tree,,,,,,Single-ply,SBD,M
Boys,,NS,Irvin Shen,Longview Pine Tree,,,,,,Single-ply,SBD,M
Boys,,NS,Julio Guerrero,Kerens,,,,,,Single-ply,SBD,M
Boys,,NS,Brandon Brumbelow,Kerens,,,,,,Single-ply,SBD,M
Boys,,NS,Demtri Reeves,Overton,,,,,,Single-ply,SBD,M
