Division,WeightClassKg,Place,Name,Team,BodyweightKg,Best3SquatKg,Best3BenchKg,Best3DeadliftKg,TotalKg,Equipment,Event,Sex
Boys,51.71,1,Angel Garcia #6,Edinburg Idea College Prep,51.26,179.17,99.79,192.78,471.74,Single-ply,SBD,M
Boys,51.71,2,Javier Farias,Mission,50.8,161.03,70.31,185.97,417.3,Single-ply,SBD,M
Boys,51.71,3,Bryan Loera,Brownsville Pace,51.62,149.69,95.25,149.69,394.63,Single-ply,SBD,M
Boys,51.71,4,Joey Rodriguez,Edinburg Idea College Prep,50.35,149.69,77.11,149.69,376.48,Single-ply,SBD,M
Boys,51.71,5,Chris Medina,Brownsville Hanna,51.62,138.35,79.38,156.49,374.21,Single-ply,SBD,M
Boys,51.71,6,Fabian Garcia,Edinburg Idea College Prep,49.53,136.08,77.11,133.81,347,Single-ply,SBD,M
Boys,51.71,7,Hisaac Guerrero,Rio Hondo,46.36,97.52,56.7,113.4,267.62,Single-ply,SBD,M
Boys,51.71,DQ,Erick Estrella,Brownsville Lopez,45.13,136.08,61.23,,,Single-ply,SBD,M
Boys,55.79,1,Joel Sanchez #2,Brownsville Veterans Memorial,55.79,204.12,97.52,208.65,510.29,Single-ply,SBD,M
Boys,55.79,2,Eric Capistran,Brownsville Veterans Memorial,55.25,161.03,97.52,174.63,433.18,Single-ply,SBD,M
Boys,55.79,3,Adrian Garcia,Edinburg Idea College Prep,52.8,161.03,92.99,158.76,412.77,Single-ply,SBD,M
Boys,55.79,4,Oscar Gonzalez,Brownsville Pace,55.79,149.69,90.72,136.08,376.48,Single-ply,SBD,M
Boys,55.79,5,Elijah Wheeler,Edinburg Idea College Prep,55.43,145.15,72.57,147.42,365.14,Single-ply,SBD,M
Boys,55.79,6,Aldo Salazar,Santa Rosa,54.98,131.54,86.18,145.15,362.87,Single-ply,SBD,M
Boys,55.79,DQ,Andrew Garcia,Brownsville Lopez,52.25,,,,,Single-ply,SBD,M
Boys,59.87,1,Marcus Capetillo,Raymondville,59.87,199.58,108.86,199.58,508.02,Single-ply,SBD,M
Boys,59.87,2,Ray Martinez,Santa Rosa,57.52,151.95,97.52,172.37,421.84,Single-ply,SBD,M
Boys,59.87,3,Jose Reyes,Brownsville Lopez,56.7,142.88,68.04,154.22,365.14,Single-ply,SBD,M
Boys,59.87,4,Aj Sayas,Raymondville,59.87,102.06,77.11,170.1,349.27,Single-ply,SBD,M
Boys,59.87,5,Christian Mendoza,Santa Rosa,58.06,117.93,86.18,136.08,340.19,Single-ply,SBD,M
Boys,67.13,1,Felix Rizo,Brownsville Pace,65.95,244.94,140.61,226.8,612.35,Single-ply,SBD,M
Boys,67.13,2,Mike Chavez,Brownsville Hanna,66.9,226.8,124.74,206.38,557.92,Single-ply,SBD,M
Boys,67.13,3,Jose Salinas,Brownsville Pace,66.41,206.38,113.4,199.58,519.36,Single-ply,SBD,M
Boys,67.13,4,Andrew Nevarez,Edinburg Idea College Prep,66.41,192.78,97.52,185.97,476.27,Single-ply,SBD,M
Boys,67.13,5,Javier Castro,Brownsville Lopez,66.22,183.7,102.06,188.24,474,Single-ply,SBD,M
Boys,67.13,6,Chris Gavna,Rio Hondo,66.59,174.63,104.33,170.1,449.06,Single-ply,SBD,M
Boys,67.13,7,Jonathon Godinez,Brownsville Lopez,64.5,170.1,90.72,174.63,435.45,Single-ply,SBD,M
Boys,67.13,8,Gabriel Gomez #4,Raymondville,63.59,147.42,83.91,161.03,392.36,Single-ply,SBD,M
Boys,67.13,9,Brien Garza,San Benito,65.77,129.27,90.72,142.88,362.87,Single-ply,SBD,M
Boys,67.13,10,Brandon Rodriguez #1,Edinburg Idea College Prep,66.22,138.35,77.11,147.42,362.87,Single-ply,SBD,M
Boys,67.13,11,Skylar Alaniz,Santa Rosa,63.5,102.06,65.77,104.33,272.16,Single-ply,SBD,M
Boys,67.13,DQ,Cristian Garcia #2,San Benito,64.32,,,,,Single-ply,SBD,M
Boys,74.84,1,Jose Porras,Brownsville Hanna,74.03,238.14,124.74,251.74,614.62,Single-ply,SBD,M
Boys,74.84,2,Roman Garay,Brownsville Hanna,71.26,240.4,111.13,238.14,589.67,Single-ply,SBD,M
Boys,74.84,3,Rudy Garcia,Brownsville Hanna,69.76,201.85,120.2,195.04,517.1,Single-ply,SBD,M
Boys,74.84,4,Carlos Sanchez,San Benito,74.84,188.24,127.01,190.51,505.76,Single-ply,SBD,M
Boys,74.84,5,Carlos Nieto,Brownsville Lopez,73.03,188.24,102.06,201.85,492.15,Single-ply,SBD,M
Boys,74.84,6,Jonathan Mendoza,Port Isabel,73.66,199.58,102.06,190.51,492.15,Single-ply,SBD,M
Boys,74.84,7,Victor Coello,Brownsville Lopez,74.39,188.24,102.06,199.58,489.88,Single-ply,SBD,M
Boys,74.84,8,Rafael Cuellar,Brownsville Porter,73.21,183.7,106.59,192.78,483.08,Single-ply,SBD,M
Boys,74.84,9,Josue Orozco,Port Isabel,69.85,163.29,95.25,181.44,439.98,Single-ply,SBD,M
Boys,74.84,10,Alex Sanchez,Brownsville Lopez,74.84,156.49,92.99,183.7,433.18,Single-ply,SBD,M
Boys,74.84,11,Brandon Rocha,Santa Rosa,69.67,147.42,92.99,151.95,392.36,Single-ply,SBD,M
Boys,74.84,12,Catarino Tijerna,Raymondville,68.67,127.01,88.45,158.76,374.21,Single-ply,SBD,M
Boys,74.84,13,Brendan Villarreal,Raymondville,73.57,111.13,79.38,142.88,333.39,Single-ply,SBD,M
Boys,82.1,1,Jason Navarro,San Benito,77.93,215.46,127.01,206.38,548.85,Single-ply,SBD,M
Boys,82.1,2,Jose Huacuja,Brownsville St. Joseph Academy,80.01,188.24,122.47,208.65,519.36,Single-ply,SBD,M
Boys,82.1,3,Daniel García,San Benito,78.2,195.04,136.08,176.9,508.02,Single-ply,SBD,M
Boys,82.1,4,Adrian Diaz,Brownsville Hanna,80.88,192.78,120.2,192.78,505.76,Single-ply,SBD,M
Boys,82.1,5,Nelson Mejia,Port Isabel,80.47,204.12,122.47,176.9,503.49,Single-ply,SBD,M
Boys,82.1,6,Edgar Escobedo,Mission,80.83,183.7,108.86,210.92,503.49,Single-ply,SBD,M
Boys,82.1,7,Rudy Tijerina,Raymondville,82.1,190.51,115.67,190.51,496.68,Single-ply,SBD,M
Boys,82.1,8,Christopher Espinoza,Brownsville Pace,76.57,192.78,108.86,183.7,485.34,Single-ply,SBD,M
Boys,82.1,9,Miguel Rendon,Mission,81.19,176.9,111.13,192.78,480.81,Single-ply,SBD,M
Boys,82.1,10,Ryan Mesa,Raymondville,75.57,102.06,61.23,138.35,301.64,Single-ply,SBD,M
Boys,82.1,DQ,Humberto Barrera,Rio Hondo,75.75,,,,,Single-ply,SBD,M
Boys,82.1,DQ,Mauricio Gonzales,Mission,82.1,219.99,133.81,,,Single-ply,SBD,M
Boys,89.81,1,Sebastian Diaz,Brownsville Hanna,89.45,219.99,138.35,219.99,578.33,Single-ply,SBD,M
Boys,89.81,2,Pablo Iracheta,Brownsville Pace,88.99,217.72,136.08,206.38,560.19,Single-ply,SBD,M
Boys,89.81,3,Matthew Ortiz,Los Fresnos,88.81,229.06,111.13,204.12,544.31,Single-ply,SBD,M
Boys,89.81,4,Mark Anaya,Brownsville St. Joseph Academy,86.82,181.44,145.15,181.44,508.02,Single-ply,SBD,M
Boys,89.81,5,Will Corkill,San Benito,88.72,199.58,106.59,199.58,505.76,Single-ply,SBD,M
Boys,89.81,6,Noe Castillo,Brownsville Veterans Memorial,87.82,172.37,111.13,197.31,480.81,Single-ply,SBD,M
Boys,89.81,7,Lucio Nava,Raymondville,86.82,174.63,108.86,192.78,476.27,Single-ply,SBD,M
Boys,89.81,8,Quan Nguyn,Mission,89.81,183.7,83.91,170.1,437.72,Single-ply,SBD,M
Boys,89.81,9,Eliodoro Hinojosa,Brownsville Porter,82.55,170.1,97.52,167.83,435.45,Single-ply,SBD,M
Boys,89.81,10,Rodrigo Miner,Brownsville St. Joseph Academy,89.36,163.29,83.91,181.44,428.64,Single-ply,SBD,M
Boys,89.81,DQ,Jonathon Botello,Brownsville Lopez,88,,,,,Single-ply,SBD,M
Boys,89.81,DQ,Jonas Garza,Brownsville Pace,86,,,,,Single-ply,SBD,M
Boys,89.81,DQ,Brandon Esteves,Brownsville Hanna,89.72,256.28,142.88,,,Single-ply,SBD,M
Boys,99.79,1,Fernando Martinez #1,Brownsville Hanna,99.16,265.35,156.49,213.19,635.03,Single-ply,SBD,M
Boys,99.79,2,Jake Martinez,Rio Hondo,98.07,226.8,167.83,229.06,623.69,Single-ply,SBD,M
Boys,99.79,3,Daniel Valdez,Brownsville Porter,99.25,235.87,129.27,256.28,621.42,Single-ply,SBD,M
Boys,99.79,4,Lorenzo Villarreal,Los Fresnos,99.52,226.8,129.27,235.87,591.94,Single-ply,SBD,M
Boys,99.79,5,Neyfis Castellanos,Port Isabel,97.52,258.55,147.42,174.63,580.6,Single-ply,SBD,M
Boys,99.79,6,Joey Raya,Brownsville Hanna,99.47,251.74,133.81,195.04,580.6,Single-ply,SBD,M
Boys,99.79,7,Eric Gutierrez,Mission,97.34,219.99,136.08,183.7,539.77,Single-ply,SBD,M
Boys,99.79,8,James Rodriguez,Los Fresnos,97.89,190.51,108.86,201.85,501.22,Single-ply,SBD,M
Boys,99.79,9,Jonah Hernandez,Port Isabel,91.81,195.04,115.67,158.76,469.47,Single-ply,SBD,M
Boys,99.79,10,Bryan Rosales,Mission,99.25,167.83,102.06,183.7,453.59,Single-ply,SBD,M
Boys,99.79,11,Jorge Peralta,Port Isabel,95.71,161.03,95.25,172.37,428.64,Single-ply,SBD,M
Boys,99.79,12,Blake Fowkes,Brownsville St. Joseph Academy,98.79,165.56,92.99,167.83,426.38,Single-ply,SBD,M
Boys,99.79,13,Tomas Garcia,Rio Hondo,94.17,108.86,68.04,142.88,319.78,Single-ply,SBD,M
Boys,99.79,DQ,Miguel Albores,Brownsville Lopez,92.53,224.53,,,,Single-ply,SBD,M
Boys,99.79,DQ,Matt Cortinas,Brownsville Lopez,97.52,,,,,Single-ply,SBD,M
Boys,109.77,1,Adrien Martinez,Brownsville Hanna,107.23,319.78,140.61,238.14,698.53,Single-ply,SBD,M
Boys,109.77,2,Jonathan Reyes,Brownsville Hanna,107.46,258.55,136.08,222.26,616.89,Single-ply,SBD,M
Boys,109.77,3,Eleazar Paredes,Brownsville Lopez,101.15,224.53,140.61,229.06,594.21,Single-ply,SBD,M
Boys,109.77,4,Bryan Lopez,San Benito,100.7,206.38,129.27,188.24,523.9,Single-ply,SBD,M
Boys,109.77,5,Jeremiah Gonzales,Los Fresnos,100.88,204.12,104.33,208.65,517.1,Single-ply,SBD,M
Boys,109.77,6,Ernesto Gamez,Brownsville Pace,109.32,188.24,142.88,183.7,514.83,Single-ply,SBD,M
Boys,109.77,7,Alex Franco #2,Mission,109.32,199.58,111.13,195.04,505.76,Single-ply,SBD,M
Boys,109.77,8,Jason Martell,San Benito,102.51,192.78,102.06,197.31,492.15,Single-ply,SBD,M
Boys,109.77,9,Kevin Garcia,Brownsville Lopez,103.96,195.04,102.06,185.97,483.08,Single-ply,SBD,M
Boys,109.77,10,Jose Garcia #25,Brownsville Lopez,109.13,188.24,106.59,181.44,476.27,Single-ply,SBD,M
Boys,109.77,DQ,Joel Lopez,San Benito,106.68,,,,,Single-ply,SBD,M
Boys,124.74,1,Javy Soriano,Los Fresnos,113.76,238.14,145.15,219.99,603.28,Single-ply,SBD,M
Boys,124.74,2,Steven Alvarez,Mission,118.39,215.46,145.15,226.8,587.4,Single-ply,SBD,M
Boys,124.74,3,Luis Mortera,Port Isabel,121.74,201.85,140.61,163.29,505.76,Single-ply,SBD,M
Boys,124.74,4,Jafet Coba,Brownsville Lopez,123.83,197.31,120.2,188.24,505.76,Single-ply,SBD,M
Boys,124.74,5,Arturo Garcia,Brownsville Pace,112.4,192.78,115.67,138.35,446.79,Single-ply,SBD,M
Boys,124.74,6,Julian Baccera,Mission,114.58,167.83,61.23,170.1,399.16,Single-ply,SBD,M
Boys,124.74,DQ,Christopher Atkinson,Rio Hondo,120.02,,,,,Single-ply,SBD,M
Boys,124.74,DQ,Derek Tovar,Brownsville Veterans Memorial,122.74,,,,,Single-ply,SBD,M
Boys,124.74+,1,Sebastian Garcia,Brownsville Hanna,143.83,292.57,183.7,249.48,725.75,Single-ply,SBD,M
Boys,124.74+,2,Julio Hernandez,Brownsville Pace,129.73,290.3,156.49,263.08,709.87,Single-ply,SBD,M
Boys,124.74+,3,Julian Vela,Mission,129.27,265.35,147.42,226.8,639.57,Single-ply,SBD,M
Boys,124.74+,4,Diego Rivera,Brownsville Porter,133.81,249.48,136.08,183.7,569.26,Single-ply,SBD,M
Boys,124.74+,5,Jaden Brooks,Raymondville,163.11,206.38,124.74,201.85,532.97,Single-ply,SBD,M
Boys,124.74+,6,Javier Garcia #2,Brownsville Porter,136.08,199.58,133.81,185.97,519.36,Single-ply,SBD,M
Boys,124.74+,7,Leo Garza #1,Raymondville,183.25,204.12,142.88,165.56,512.56,Single-ply,SBD,M
Boys,124.74+,DQ,Rolando Zuniga,Rio Hondo,150.05,167.83,,,,Single-ply,SBD,M
Boys,,NS,Gio Bazaldua,Raymondville,,,,,,Single-ply,SBD,M
Boys,,NS,Gabriel Caram,Brownsville St. Joseph Academy,,,,,,Single-ply,SBD,M
Boys,,NS,Diego Garza,Brownsville Veterans Memorial,,,,,,Single-ply,SBD,M
Boys,,NS,Alexis Gomez #2,Brownsville Veterans Memorial,,,,,,Single-ply,SBD,M
