Division,WeightClassKg,Place,Name,Team,BodyweightKg,Best3SquatKg,Best3BenchKg,Best3DeadliftKg,TotalKg,Equipment,Event,Sex
Boys,51.71,1,Joel Santillan,Clifton,50.8,131.54,83.91,147.42,362.87,Single-ply,SBD,M
Boys,51.71,2,Barrett Hubbard,Moody,51.53,104.33,68.04,117.93,290.3,Single-ply,SBD,M
Boys,55.79,1,Diego Rivera,Mexia,54.79,181.44,106.59,170.1,458.13,Single-ply,SBD,M
Boys,55.79,2,Philip Sharp,Robinson,55.34,149.69,97.52,176.9,424.11,Single-ply,SBD,M
Boys,55.79,3,Collin Taylor,Thorndale,55.61,108.86,56.7,124.74,290.3,Single-ply,SBD,M
Boys,55.79,4,Cade Haring,Franklin,54.34,83.91,52.16,95.25,231.33,Single-ply,SBD,M
Boys,55.79,DQ,Caden Crenshaw,Lorena,55.7,92.99,,,,Single-ply,SBD,M
Boys,59.87,1,Isaack Santillan,Clifton,58.51,163.29,102.06,172.37,437.72,Single-ply,SBD,M
Boys,59.87,2,Bryan McNeill,Rogers,58.88,158.76,83.91,158.76,401.43,Single-ply,SBD,M
Boys,59.87,3,Robby Brewer,Clifton,58.6,161.03,86.18,122.47,369.68,Single-ply,SBD,M
Boys,59.87,4,Corbin Donoho,Corsicana Mildred,58.24,136.08,79.38,149.69,365.14,Single-ply,SBD,M
Boys,59.87,5,Christian Rokes,Franklin,59.51,131.54,88.45,140.61,360.61,Single-ply,SBD,M
Boys,59.87,6,Ricardo Garcia,Mexia,59.87,136.08,68.04,145.15,349.27,Single-ply,SBD,M
Boys,59.87,7,Fernando Padilla,Mexia,58.51,104.33,70.31,142.88,317.51,Single-ply,SBD,M
Boys,59.87,8,Adam Elkin,Dawson,57.15,136.08,45.36,117.93,299.37,Single-ply,SBD,M
Boys,59.87,9,Mark Bartlett,Robinson,59.42,104.33,63.5,127.01,294.84,Single-ply,SBD,M
Boys,67.13,1,Dillon Daniel,Crawford,66.77,206.38,108.86,181.44,496.68,Single-ply,SBD,M
Boys,67.13,2,Alex Reynoso,West,63.14,163.29,97.52,192.78,453.59,Single-ply,SBD,M
Boys,67.13,3,Chase Kirby,Dawson,61.96,176.9,90.72,172.37,439.98,Single-ply,SBD,M
Boys,67.13,4,Tony Campos,Rogers,60.33,151.95,72.57,181.44,405.97,Single-ply,SBD,M
Boys,67.13,5,Kameron Sisson,Whitney,66.41,151.95,83.91,170.1,405.97,Single-ply,SBD,M
Boys,67.13,6,Dylan Martin,Valley Mills,66.22,136.08,81.65,165.56,383.29,Single-ply,SBD,M
Boys,67.13,7,Marshall Conde,Little River Academy,67.13,127.01,90.72,158.76,376.48,Single-ply,SBD,M
Boys,67.13,8,Holden Rogers,Clifton,60.69,124.74,83.91,154.22,362.87,Single-ply,SBD,M
Boys,67.13,9,Colby Caniford,Clifton,67.04,124.74,72.57,158.76,356.07,Single-ply,SBD,M
Boys,67.13,10,Zack Horner,Corsicana Mildred,62.05,129.27,77.11,142.88,349.27,Single-ply,SBD,M
Boys,67.13,11,Isaac Garcia,Riesel,63.41,106.59,79.38,138.35,324.32,Single-ply,SBD,M
Boys,67.13,12,Tyler Evans,Franklin,64.32,129.27,61.23,127.01,317.51,Single-ply,SBD,M
Boys,67.13,13,David Lopez,West,66.13,115.67,61.23,115.67,292.57,Single-ply,SBD,M
Boys,67.13,DQ,Zack Klosterman,Mexia,65.32,,,,,Single-ply,SBD,M
Boys,74.84,1,Taylor Sands,Little River Academy,74.57,195.04,120.2,210.92,526.17,Single-ply,SBD,M
Boys,74.84,2,Mariano Perez,West,74.66,195.04,106.59,181.44,483.08,Single-ply,SBD,M
Boys,74.84,3,Dalton Wiethorn,West,74.66,170.1,106.59,195.04,471.74,Single-ply,SBD,M
Boys,74.84,4,Will Ferlet,Dawson,67.77,170.1,113.4,181.44,464.93,Single-ply,SBD,M
Boys,74.84,5,Treston Horn,Clifton,71.4,181.44,104.33,158.76,444.52,Single-ply,SBD,M
Boys,74.84,6,Fallon Little,Corsicana Mildred,72.85,158.76,97.52,188.24,444.52,Single-ply,SBD,M
Boys,74.84,7,Jordan Olson,West,70.13,176.9,83.91,179.17,439.98,Single-ply,SBD,M
Boys,74.84,8,Treyton Bates,Little River Academy,74.48,154.22,99.79,183.7,437.72,Single-ply,SBD,M
Boys,74.84,9,Stephen Davis,Moody,74.75,149.69,90.72,185.97,426.38,Single-ply,SBD,M
Boys,74.84,10,Aaron Osborne,McGregor,70.03,163.29,95.25,165.56,424.11,Single-ply,SBD,M
Boys,74.84,11,Patrick Saucedo,Bosqueville,68.95,149.69,97.52,163.29,410.5,Single-ply,SBD,M
Boys,74.84,12,Dalton Boeche,Riesel,73.03,154.22,86.18,154.22,394.63,Single-ply,SBD,M
Boys,74.84,13,Will Hedges,Valley Mills,71.12,151.95,81.65,154.22,387.82,Single-ply,SBD,M
Boys,74.84,14,Cody Smith,Franklin,74.75,142.88,92.99,145.15,381.02,Single-ply,SBD,M
Boys,74.84,15,Javieon Simmon,Valley Mills,70.49,136.08,79.38,140.61,356.07,Single-ply,SBD,M
Boys,74.84,16,Ian Smith,Bosqueville,72.76,138.35,79.38,136.08,353.8,Single-ply,SBD,M
Boys,74.84,17,Robbert Krammerer,Dawson,69.31,120.2,83.91,147.42,351.53,Single-ply,SBD,M
Boys,74.84,18,Caleb Browder,McGregor,73.84,127.01,61.23,149.69,337.93,Single-ply,SBD,M
Boys,74.84,19,John Griffin,Riesel,68.86,117.93,83.91,120.2,322.05,Single-ply,SBD,M
Boys,74.84,20,Corey Horn,Mexia,69.4,102.06,72.57,88.45,263.08,Single-ply,SBD,M
Boys,74.84,21,Justin Ewing,Corsicana Mildred,73.94,83.91,68.04,99.79,251.74,Single-ply,SBD,M
Boys,82.1,1,Hunter Douzat,Little River Academy,81.37,256.28,167.83,233.6,657.71,Single-ply,SBD,M
Boys,82.1,2,Kaleb Hairston,Thorndale,81.1,247.21,167.83,215.46,630.49,Single-ply,SBD,M
Boys,82.1,3,Luke Whiteley,Little River Academy,81.1,210.92,138.35,204.12,553.38,Single-ply,SBD,M
Boys,82.1,4,Ryan Lloyd,Clifton,80.83,195.04,136.08,170.1,501.22,Single-ply,SBD,M
Boys,82.1,5,Tommy Ward,Valley Mills,81.74,172.37,111.13,192.78,476.27,Single-ply,SBD,M
Boys,82.1,6,Ryan Hilty,Whitney,80.38,174.63,102.06,183.7,460.4,Single-ply,SBD,M
Boys,82.1,7,Justin Bahajak,Riesel,82.1,156.49,102.06,181.44,439.98,Single-ply,SBD,M
Boys,82.1,8,Joanly Martinez,McGregor,78.93,167.83,102.06,167.83,437.72,Single-ply,SBD,M
Boys,82.1,9,Evan Doskocil,Rogers,78.56,181.44,81.65,172.37,435.45,Single-ply,SBD,M
Boys,82.1,10,Noah Jenkins,McGregor,79.2,158.76,83.91,172.37,415.04,Single-ply,SBD,M
Boys,82.1,11,Daylon Bartosh,Lorena,79.02,151.95,88.45,165.56,405.97,Single-ply,SBD,M
Boys,82.1,12,Carson Ford,Lorena,78.29,154.22,88.45,161.03,403.7,Single-ply,SBD,M
Boys,82.1,13,Corbin Preusse,Thorndale,82.1,149.69,68.04,136.08,353.8,Single-ply,SBD,M
Boys,82.1,14,Matthew Bodnar,Moody,78.47,136.08,90.72,122.47,349.27,Single-ply,SBD,M
Boys,82.1,15,Tyler Huf,Thorndale,80.92,113.4,72.57,156.49,342.46,Single-ply,SBD,M
Boys,82.1,16,Riley Brooks #2,Valley Mills,78.47,124.74,63.5,142.88,331.12,Single-ply,SBD,M
Boys,82.1,17,Dakota Vasquez,Moody,78.38,113.4,77.11,124.74,315.25,Single-ply,SBD,M
Boys,82.1,18,Griffen Fallwell,Whitney,76.66,120.2,70.31,115.67,306.17,Single-ply,SBD,M
Boys,82.1,DQ,Dalton Martin,Valley Mills,82.1,,,,,Single-ply,SBD,M
Boys,82.1,DQ,Dustin Richter,Bosqueville,81.92,158.76,,,,Single-ply,SBD,M
Boys,89.81,1,Drew Roberts,Bosqueville,88.45,217.72,161.03,208.65,587.4,Single-ply,SBD,M
Boys,89.81,2,Aaron Harralson,West,89.18,204.12,147.42,197.31,548.85,Single-ply,SBD,M
Boys,89.81,3,Wyatt Faulkinberry,Lorena,87.72,197.31,133.81,197.31,528.44,Single-ply,SBD,M
Boys,89.81,4,Hunter Ringo,Clifton,89.54,192.78,113.4,215.46,521.63,Single-ply,SBD,M
Boys,89.81,5,Hunter Isham,Lorena,88.27,174.63,115.67,219.99,510.29,Single-ply,SBD,M
Boys,89.81,6,Tanner Mitchell,Crawford,89.36,181.44,99.79,192.78,474,Single-ply,SBD,M
Boys,89.81,7,Bodee Humphreys,Clifton,85.55,174.63,108.86,185.97,469.47,Single-ply,SBD,M
Boys,89.81,8,Tristan Fletcher,Moody,85.18,163.29,106.59,176.9,446.79,Single-ply,SBD,M
Boys,89.81,9,Tate Sehon,Robinson,84.82,149.69,95.25,158.76,403.7,Single-ply,SBD,M
Boys,89.81,10,Corey Preusse,Thorndale,88.36,158.76,92.99,145.15,396.89,Single-ply,SBD,M
Boys,89.81,11,Landry Bruce,Crawford,89.54,158.76,83.91,151.95,394.63,Single-ply,SBD,M
Boys,89.81,12,Mason Liles,Thorndale,84.37,156.49,83.91,142.88,383.29,Single-ply,SBD,M
Boys,89.81,13,Tyson Boen,Robinson,89.72,140.61,88.45,149.69,378.75,Single-ply,SBD,M
Boys,89.81,14,Justice Little,Rosebud-Lott,88.27,133.81,79.38,156.49,369.68,Single-ply,SBD,M
Boys,89.81,15,Jaden Kistler,Corsicana Mildred,89.72,120.2,74.84,136.08,331.12,Single-ply,SBD,M
Boys,89.81,DQ,Nico Keaton,Rogers,87.32,192.78,131.54,,,Single-ply,SBD,M
Boys,89.81,DQ,Gustavo Aguilar,Moody,89.54,165.56,111.13,,,Single-ply,SBD,M
Boys,99.79,1,Mike Castillo,McGregor,95.62,233.6,154.22,244.94,632.76,Single-ply,SBD,M
Boys,99.79,2,Alex Parsons,McGregor,95.89,226.8,138.35,224.53,589.67,Single-ply,SBD,M
Boys,99.79,3,Aaron Benitez,McGregor,91.63,235.87,138.35,199.58,573.79,Single-ply,SBD,M
Boys,99.79,4,Coy Benfer,Valley Mills,99.25,215.46,149.69,206.38,571.53,Single-ply,SBD,M
Boys,99.79,5,Greg Williams,McGregor,91.35,190.51,117.93,206.38,514.83,Single-ply,SBD,M
Boys,99.79,6,Justin Horn #1,Corsicana Mildred,94.26,208.65,115.67,190.51,514.83,Single-ply,SBD,M
Boys,99.79,7,Brady King,Robinson,98.43,204.12,115.67,188.24,508.02,Single-ply,SBD,M
Boys,99.79,8,Jacob Byrd,Lorena,96.8,197.31,111.13,190.51,498.95,Single-ply,SBD,M
Boys,99.79,9,Anthony Stokley,Franklin,99.79,181.44,124.74,176.9,483.08,Single-ply,SBD,M
Boys,99.79,10,Logan Davison,Lorena,99.79,167.83,115.67,197.31,480.81,Single-ply,SBD,M
Boys,99.79,11,Nick Barrios,West,90.45,190.51,106.59,176.9,474,Single-ply,SBD,M
Boys,99.79,12,Mason Howell,Bosqueville,98.16,174.63,124.74,174.63,474,Single-ply,SBD,M
Boys,99.79,13,Sterling Harris,Lorena,98.88,167.83,108.86,181.44,458.13,Single-ply,SBD,M
Boys,99.79,14,Randy Sandoval,McGregor,95.71,158.76,86.18,181.44,426.38,Single-ply,SBD,M
Boys,99.79,15,Cody Duewall,Franklin,95.8,129.27,90.72,129.27,349.27,Single-ply,SBD,M
Boys,99.79,16,Hunter Heath,Bosqueville,93.35,99.79,74.84,136.08,310.71,Single-ply,SBD,M
Boys,99.79,DQ,Zane Guerra,Dawson,94.26,167.83,,,,Single-ply,SBD,M
Boys,109.77,1,Chandler Strmiska,Little River Academy,106.87,254.01,183.7,249.48,687.19,Single-ply,SBD,M
Boys,109.77,2,Justin Rew,Little River Academy,104.96,231.33,142.88,219.99,594.21,Single-ply,SBD,M
Boys,109.77,3,Casey Allison,Waco La Vega,109.59,222.26,154.22,201.85,578.33,Single-ply,SBD,M
Boys,109.77,4,Will Worrell,Crawford,104.24,208.65,113.4,204.12,526.17,Single-ply,SBD,M
Boys,109.77,5,Copper Mcauley,McGregor,105.87,190.51,122.47,199.58,512.56,Single-ply,SBD,M
Boys,109.77,6,Nathan Red Elk,Robinson,106.5,195.04,120.2,185.97,501.22,Single-ply,SBD,M
Boys,109.77,7,Jordan Rios,Mexia,106.23,217.72,106.59,174.63,498.95,Single-ply,SBD,M
Boys,109.77,8,Dakota Greer,Dawson,109.41,206.38,122.47,158.76,487.61,Single-ply,SBD,M
Boys,109.77,9,Joseph Williams,Corsicana Mildred,102.42,206.38,122.47,151.95,480.81,Single-ply,SBD,M
Boys,109.77,10,Tyler Sparks,Lorena,101.7,161.03,104.33,192.78,458.13,Single-ply,SBD,M
Boys,109.77,11,Colton Schmedthorst,Riesel,101.6,170.1,102.06,174.63,446.79,Single-ply,SBD,M
Boys,109.77,12,Jon Loman,Thorndale,109.5,147.42,106.59,147.42,401.43,Single-ply,SBD,M
Boys,109.77,13,James Dickson,Lorena,108.23,140.61,83.91,158.76,383.29,Single-ply,SBD,M
Boys,109.77,14,Shemar Richerdson,Dawson,102.33,161.03,102.06,115.67,378.75,Single-ply,SBD,M
Boys,109.77,15,Elijah Degrate,Valley Mills,102.6,108.86,92.99,156.49,358.34,Single-ply,SBD,M
Boys,109.77,16,Devon Olivares,Robinson,106.68,147.42,90.72,120.2,358.34,Single-ply,SBD,M
Boys,109.77,17,Ray Reimim,Corsicana Mildred,107.23,147.42,70.31,127.01,344.73,Single-ply,SBD,M
Boys,109.77,DQ,Tyler Faichtinger,Valley Mills,109.13,97.52,,,,Single-ply,SBD,M
Boys,124.74,1,Blake Johnson,Franklin,124.38,317.51,170.1,263.08,750.7,Single-ply,SBD,M
Boys,124.74,2,Jairo Rodriguez,Waco La Vega,123.92,247.21,151.95,229.06,628.23,Single-ply,SBD,M
Boys,124.74,3,Seth Kohlscheen,Crawford,123.38,251.74,131.54,204.12,587.4,Single-ply,SBD,M
Boys,124.74,4,Joe Fallwell,Whitney,113.22,183.7,127.01,210.92,521.63,Single-ply,SBD,M
Boys,124.74,5,Cory Brooks,Thorndale,121.11,238.14,117.93,158.76,514.83,Single-ply,SBD,M
Boys,124.74,6,Hunter Straten,Moody,123.2,174.63,129.27,190.51,494.42,Single-ply,SBD,M
Boys,124.74,7,Dawson Brown,McGregor,114.4,199.58,115.67,172.37,487.61,Single-ply,SBD,M
Boys,124.74,8,Dustin Stewart,Crawford,114.21,181.44,106.59,176.9,464.93,Single-ply,SBD,M
Boys,124.74,9,Kolton Benton,Rogers,122.74,190.51,102.06,167.83,460.4,Single-ply,SBD,M
Boys,124.74,10,Gabriel Gongora,Waco La Vega,110.5,188.24,102.06,167.83,458.13,Single-ply,SBD,M
Boys,124.74,11,Daniel Wilde-Berry,Robinson,111.4,195.04,99.79,158.76,453.59,Single-ply,SBD,M
Boys,124.74,12,Dalton Zander,Bosqueville,123.29,181.44,113.4,158.76,453.59,Single-ply,SBD,M
Boys,124.74,13,Hayden Frinke,Little River Academy,123.29,167.83,122.47,161.03,451.32,Single-ply,SBD,M
Boys,124.74,14,Derek Mathews,Valley Mills,110.68,167.83,79.38,158.76,405.97,Single-ply,SBD,M
Boys,124.74,15,Clint Ewing,Corsicana Mildred,110.68,170.1,90.72,145.15,405.97,Single-ply,SBD,M
Boys,124.74,16,Coltin Ward,Rosebud-Lott,112.58,102.06,65.77,108.86,276.69,Single-ply,SBD,M
Boys,124.74,DQ,Rylan Wade,Dawson,113.76,,,,,Single-ply,SBD,M
Boys,124.74+,1,Connor Barnett,Robinson,149.32,290.3,188.24,240.4,718.94,Single-ply,SBD,M
Boys,124.74+,2,Trederek Anglin,Mexia,140.25,217.72,183.7,219.99,621.42,Single-ply,SBD,M
Boys,124.74+,3,Demarcus Mason,Waco La Vega,144.97,249.48,154.22,210.92,614.62,Single-ply,SBD,M
Boys,124.74+,4,Henry Dawson,Waco La Vega,132,206.38,147.42,219.99,573.79,Single-ply,SBD,M
Boys,124.74+,5,Andrew Toledo,Robinson,129.36,217.72,117.93,229.06,564.72,Single-ply,SBD,M
Boys,124.74+,6,Travarius Glasker,Waco La Vega,175.09,231.33,131.54,188.24,551.11,Single-ply,SBD,M
Boys,124.74+,7,Juan Rodriguez,Clifton,150.59,199.58,136.08,204.12,539.77,Single-ply,SBD,M
Boys,124.74+,8,Carter Crawson,Valley Mills,126.64,226.8,117.93,192.78,537.51,Single-ply,SBD,M
Boys,124.74+,9,Jordan White,McGregor,142.88,213.19,117.93,181.44,512.56,Single-ply,SBD,M
Boys,124.74+,10,Brian Diaz,McGregor,125.55,181.44,99.79,183.7,464.93,Single-ply,SBD,M
Boys,124.74+,11,Trace Snyder,Robinson,126.82,145.15,90.72,170.1,405.97,Single-ply,SBD,M
Boys,,NS,Conner Arney,Rogers,,,,,,Single-ply,SBD,M
Boys,,NS,Gus Mulsow,Riesel,,,,,,Single-ply,SBD,M
Boys,,NS,Timmothy Collums,Corsicana Mildred,,,,,,Single-ply,SBD,M
Boys,,NS,Trey Atkeisson,Corsicana Mildred,,,,,,Single-ply,SBD,M
Boys,,NS,Daniel Fraire,West,,,,,,Single-ply,SBD,M
Boys,,NS,Freddy Williams,Waco La Vega,,,,,,Single-ply,SBD,M
Boys,,NS,Chaas Firth,Whitney,,,,,,Single-ply,SBD,M
Boys,,NS,Jarred Maler,West,,,,,,Single-ply,SBD,M
Boys,,NS,Sam Shorts,Whitney,,,,,,Single-ply,SBD,M
Boys,,NS,Luke Krumnow,Rosebud-Lott,,,,,,Single-ply,SBD,M
Boys,,NS,Garrett Garvelli,Bosqueville,,,,,,Single-ply,SBD,M
Boys,,NS,Weston Schasteen,Clifton,,,,,,Single-ply,SBD,M
Boys,,NS,Cody Bruce,Dawson,,,,,,Single-ply,SBD,M
Boys,,NS,Malik Dickson,Dawson,,,,,,Single-ply,SBD,M
Boys,,NS,Matt Duewall,Franklin,,,,,,Single-ply,SBD,M
Boys,,NS,Clayton Rosprim,Franklin,,,,,,Single-ply,SBD,M
Boys,,NS,David Dewberry,Franklin,,,,,,Single-ply,SBD,M
Boys,,NS,AJ Bell,Lorena,,,,,,Single-ply,SBD,M
