Division,WeightClassKg,Place,Name,Team,BodyweightKg,Best3SquatKg,Best3BenchKg,Best3DeadliftKg,TotalKg,Equipment,Event,Sex
Boys,51.71,1,Justin Little,Strawn,47.81,97.52,56.7,108.86,263.08,Single-ply,SBD,M
Boys,51.71,2,Jordan Whiteside,Peaster,49.9,90.72,63.5,106.59,260.82,Single-ply,SBD,M
Boys,51.71,3,Tinnin Smith,Jacksboro,51.07,102.06,61.23,97.52,260.82,Single-ply,SBD,M
Boys,51.71,4,Roger Garcia,Mineral Wells,51.07,95.25,70.31,81.65,247.21,Single-ply,SBD,M
Boys,55.79,1,Nolan Newville,Decatur,55.52,156.49,104.33,170.1,430.91,Single-ply,SBD,M
Boys,55.79,2,Weston Decker,Peaster,55.34,133.81,79.38,158.76,371.95,Single-ply,SBD,M
Boys,55.79,3,Dillon Hervey,Mineral Wells,53.07,124.74,68.04,124.74,317.51,Single-ply,SBD,M
Boys,55.79,4,Anthony Garcia,Strawn,55.07,102.06,45.36,104.33,251.74,Single-ply,SBD,M
Boys,59.87,1,Dillan Brown,Decatur,57.24,206.38,104.33,201.85,512.56,Single-ply,SBD,M
Boys,67.13,2,Ivan Karabanoff,Peaster,60.06,136.08,72.57,163.29,371.95,Single-ply,SBD,M
Boys,59.87,3,Zach Ramirez,Decatur,58.33,136.08,72.57,161.03,369.68,Single-ply,SBD,M
Boys,59.87,4,Coletyn King,Gordon,59.87,111.13,74.84,142.88,328.85,Single-ply,SBD,M
Boys,67.13,5,Ross Allison,Strawn,60.06,111.13,77.11,111.13,299.37,Single-ply,SBD,M
Boys,59.87,6,Ethan Balthrop,Castleberry,59.06,111.13,61.23,124.74,297.1,Single-ply,SBD,M
Boys,59.87,7,Mario Gutierrez,Castleberry,58.6,106.59,56.7,131.54,294.84,Single-ply,SBD,M
Boys,67.13,DQ,Jarrod Wooten,Peaster,60.06,92.99,,113.4,,Single-ply,SBD,M
Boys,67.13,1,Zane Schrader,Olney,66.13,195.04,104.33,181.44,480.81,Single-ply,SBD,M
Boys,67.13,2,Jesse Herd,Jacksboro,66.95,165.56,106.59,151.95,424.11,Single-ply,SBD,M
Boys,67.13,3,Chad Layton,Decatur,63.96,149.69,97.52,165.56,412.77,Single-ply,SBD,M
Boys,67.13,4,Sean McGuire,Mineral Wells,64.59,158.76,81.65,156.49,396.89,Single-ply,SBD,M
Boys,67.13,5,Aron Pilkington,Santo,65.32,136.08,72.57,167.83,376.48,Single-ply,SBD,M
Boys,67.13,6,Jordan McConnell,Paradise,60.51,142.88,88.45,136.08,367.41,Single-ply,SBD,M
Boys,67.13,7,Jack Zizzo,Lake Worth,65.59,145.15,77.11,136.08,358.34,Single-ply,SBD,M
Boys,67.13,8,Oscar Orozco,Castleberry,65.32,127.01,81.65,145.15,353.8,Single-ply,SBD,M
Boys,74.84,9,Jose Alvarez,Lake Worth,67.22,129.27,88.45,131.54,349.27,Single-ply,SBD,M
Boys,67.13,10,York Doby,Peaster,65.23,124.74,70.31,124.74,319.78,Single-ply,SBD,M
Boys,67.13,11,Josh Rackstraw,Wichita Falls City View,62.6,113.4,72.57,124.74,310.71,Single-ply,SBD,M
Boys,67.13,12,Chase Thompson,Jacksboro,66.59,117.93,70.31,122.47,310.71,Single-ply,SBD,M
Boys,67.13,13,Bryan Ortiz,Castleberry,64.05,115.67,65.77,117.93,299.37,Single-ply,SBD,M
Boys,67.13,14,Chase Coffman,Gordon,62.78,74.84,74.84,124.74,274.42,Single-ply,SBD,M
Boys,67.13,15,Ethan Raber,Wichita Falls City View,62.05,92.99,61.23,113.4,267.62,Single-ply,SBD,M
Boys,67.13,16,Jerado Hernandez,Strawn,62.23,90.72,68.04,102.06,260.82,Single-ply,SBD,M
Boys,67.13,17,Dillon Hackworth,Chico,61.6,86.18,54.43,113.4,254.01,Single-ply,SBD,M
Boys,67.13,DQ,Brian San Miguel,Mineral Wells,65.86,127.01,,127.01,,Single-ply,SBD,M
Boys,67.13,DQ,Austin Wyatt,Peaster,60.69,113.4,,,,Single-ply,SBD,M
Boys,67.13,DQ,Kelton Dethloff,Paradise,67.04,181.44,,170.1,,Single-ply,SBD,M
Boys,67.13,DQ,Colter Martin,Ranger,65.77,170.1,,158.76,,Single-ply,SBD,M
Boys,74.84,1,Tri Hoang,Wichita Falls City View,69.13,197.31,102.06,238.14,537.51,Single-ply,SBD,M
Boys,74.84,2,Alex Scallion,Castleberry,73.94,206.38,117.93,192.78,517.1,Single-ply,SBD,M
Boys,74.84,3,Joel Bennett,Lake Worth,72.12,176.9,95.25,213.19,485.34,Single-ply,SBD,M
Boys,74.84,4,Leo Gonzales,Mineral Wells,73.57,174.63,122.47,188.24,485.34,Single-ply,SBD,M
Boys,82.1,5,Victor Velazquez,Chico,74.93,181.44,90.72,206.38,478.54,Single-ply,SBD,M
Boys,74.84,6,Chase Reynolds,Paradise,70.13,174.63,117.93,167.83,460.4,Single-ply,SBD,M
Boys,74.84,7,Greg Roberts,Lake Worth,73.94,167.83,86.18,170.1,424.11,Single-ply,SBD,M
Boys,74.84,8,Brick Martin,Peaster,70.03,149.69,122.47,149.69,421.84,Single-ply,SBD,M
Boys,74.84,9,Ross Mullins,Olney,74.84,142.88,97.52,170.1,410.5,Single-ply,SBD,M
Boys,82.1,10,Billy Forrester,Jacksboro,74.93,156.49,88.45,147.42,392.36,Single-ply,SBD,M
Boys,74.84,11,Ricardo Carillo,Wichita Falls City View,72.12,124.74,97.52,158.76,381.02,Single-ply,SBD,M
Boys,74.84,12,Jon Thomas,Strawn,74.84,149.69,70.31,145.15,365.14,Single-ply,SBD,M
Boys,74.84,13,Allen Breaux,Santo,71.12,131.54,68.04,149.69,349.27,Single-ply,SBD,M
Boys,74.84,14,Josam Contreras,Mineral Wells,72.39,124.74,83.91,129.27,337.93,Single-ply,SBD,M
Boys,74.84,15,Austin Hogan,Paradise,69.76,124.74,83.91,124.74,333.39,Single-ply,SBD,M
Boys,74.84,16,Kristian Martinez #2,Millsap,69.94,108.86,88.45,129.27,326.59,Single-ply,SBD,M
Boys,74.84,17,Austin Collins,Chico,71.03,90.72,68.04,120.2,278.96,Single-ply,SBD,M
Boys,82.1,1,Norman James,Wichita Falls City View,79.2,226.8,149.69,192.78,569.26,Single-ply,SBD,M
Boys,82.1,2,Ramon Salazar,Jacksboro,80.83,215.46,117.93,195.04,528.44,Single-ply,SBD,M
Boys,82.1,3,Josh McDowell,Paradise,75.39,201.85,115.67,183.7,501.22,Single-ply,SBD,M
Boys,89.81,4,Kyle Young #3,Chico,82.19,181.44,104.33,190.51,476.27,Single-ply,SBD,M
Boys,82.1,5,Travis Mallory,Mineral Wells,76.84,183.7,102.06,185.97,471.74,Single-ply,SBD,M
Boys,82.1,6,Maverick Chitty,Lake Worth,80.1,167.83,95.25,183.7,446.79,Single-ply,SBD,M
Boys,82.1,7,Jackie Polk,Mineral Wells,80.2,151.95,115.67,163.29,430.91,Single-ply,SBD,M
Boys,82.1,8,Evan Bornes,Lake Worth,77.38,163.29,92.99,142.88,399.16,Single-ply,SBD,M
Boys,82.1,9,Israel Espinosa,Chico,78.29,158.76,81.65,156.49,396.89,Single-ply,SBD,M
Boys,82.1,10,Alex Montelonad,Gordon,80.65,158.76,90.72,147.42,396.89,Single-ply,SBD,M
Boys,82.1,11,Eric Maldonado,Castleberry,81.92,145.15,95.25,156.49,396.89,Single-ply,SBD,M
Boys,82.1,12,Cameron Schulte,Boyd,79.11,145.15,81.65,151.95,378.75,Single-ply,SBD,M
Boys,82.1,13,Chris Delk,Castleberry,81.65,149.69,92.99,136.08,378.75,Single-ply,SBD,M
Boys,82.1,14,Brock Reaves,Decatur,77.93,122.47,63.5,158.76,344.73,Single-ply,SBD,M
Boys,82.1,15,Tristen Garmon,Gordon,76.75,111.13,74.84,138.35,324.32,Single-ply,SBD,M
Boys,89.81,1,Ivan Garcia #2,Peaster,89.63,254.01,149.69,208.65,612.35,Single-ply,SBD,M
Boys,89.81,2,OShae Nolan,Wichita Falls City View,83.82,229.06,124.74,235.87,589.67,Single-ply,SBD,M
Boys,89.81,3,Luke Bowling,Santo,84.73,192.78,113.4,226.8,532.97,Single-ply,SBD,M
Boys,89.81,4,Robert Munoz,Lake Worth,86.18,215.46,122.47,174.63,512.56,Single-ply,SBD,M
Boys,89.81,5,Andrew Maldonado,Castleberry,89.18,188.24,115.67,188.24,492.15,Single-ply,SBD,M
Boys,89.81,6,Taylor Edwards,Paradise,85,179.17,124.74,181.44,485.34,Single-ply,SBD,M
Boys,89.81,7,Brandon Thompson,Jacksboro,85.28,170.1,111.13,197.31,478.54,Single-ply,SBD,M
Boys,89.81,8,Payton Wynn,Lake Worth,85.73,163.29,106.59,204.12,474,Single-ply,SBD,M
Boys,89.81,9,Chris Luna,Castleberry,88.54,181.44,97.52,172.37,451.32,Single-ply,SBD,M
Boys,89.81,10,Dylan Cole,Decatur,88.36,167.83,124.74,156.49,449.06,Single-ply,SBD,M
Boys,89.81,11,Nate Dawson,Chico,86.09,158.76,104.33,181.44,444.52,Single-ply,SBD,M
Boys,89.81,12,Victor Hernandez #8,Strawn,87.54,154.22,90.72,163.29,408.23,Single-ply,SBD,M
Boys,89.81,13,Chase Dodson,Millsap,87.27,138.35,90.72,136.08,365.14,Single-ply,SBD,M
Boys,89.81,14,Dub Little,Strawn,83.28,136.08,72.57,149.69,358.34,Single-ply,SBD,M
Boys,89.81,15,Zach Wood,Paradise,85,120.2,70.31,140.61,331.12,Single-ply,SBD,M
Boys,89.81,16,Luis Alcivar,Boyd,87.72,113.4,58.97,102.06,274.42,Single-ply,SBD,M
Boys,99.79,1,Tyler Tennerson,Mineral Wells,93.26,217.72,190.51,190.51,598.74,Single-ply,SBD,M
Boys,99.79,2,Jorden Molina,Olney,96.25,238.14,129.27,229.06,596.47,Single-ply,SBD,M
Boys,99.79,3,Anthony Garcia,Wichita Falls City View,91.44,229.06,129.27,229.06,587.4,Single-ply,SBD,M
Boys,99.79,4,Ej Lozado,Jacksboro,94.98,183.7,106.59,204.12,494.42,Single-ply,SBD,M
Boys,99.79,5,Tim Woods,Lake Worth,98.25,192.78,104.33,183.7,480.81,Single-ply,SBD,M
Boys,99.79,6,Stephen Plowman,Gordon,94.26,181.44,111.13,174.63,467.2,Single-ply,SBD,M
Boys,99.79,7,Bubba Johnson,Jacksboro,91.35,179.17,106.59,167.83,453.59,Single-ply,SBD,M
Boys,99.79,8,Zack Woodruff,Paradise,98.79,192.78,102.06,158.76,453.59,Single-ply,SBD,M
Boys,99.79,9,Chris Dimas,Lake Worth,99.7,176.9,108.86,165.56,451.32,Single-ply,SBD,M
Boys,99.79,10,Mitchell Coker,Millsap,99.7,120.2,106.59,149.69,376.48,Single-ply,SBD,M
Boys,99.79,11,Patrick Walthers,Mineral Wells,92.9,106.59,70.31,104.33,281.23,Single-ply,SBD,M
Boys,109.77,1,David Whited,Wichita Falls City View,108.95,240.4,133.81,192.78,566.99,Single-ply,SBD,M
Boys,109.77,2,Eric Walker,Decatur,102.87,190.51,106.59,201.85,498.95,Single-ply,SBD,M
Boys,109.77,3,Austin Williamson,Jacksboro,102.6,183.7,133.81,165.56,483.08,Single-ply,SBD,M
Boys,109.77,4,Rickey Roberts,Decatur,102.06,176.9,92.99,197.31,467.2,Single-ply,SBD,M
Boys,109.77,5,Eleazar Diaz,Lake Worth,106.05,204.12,108.86,154.22,467.2,Single-ply,SBD,M
Boys,109.77,6,Colby Low,Peaster,106.87,74.84,40.82,86.18,201.85,Single-ply,SBD,M
Boys,109.77,DQ,Morgan Glashan,Wichita Falls City View,102.78,,83.91,142.88,,Single-ply,SBD,M
Boys,109.77,DQ,Johnathan Retana,Castleberry,105.05,136.08,,,,Single-ply,SBD,M
Boys,124.74,1,Damon Hinrichs,Millsap,118.93,276.69,199.58,204.12,680.39,Single-ply,SBD,M
Boys,124.74,2,Zack Hetrick,Strawn,124.19,210.92,158.76,226.8,596.47,Single-ply,SBD,M
Boys,124.74,3,Tru Vang,Boyd,113.49,204.12,102.06,190.51,496.68,Single-ply,SBD,M
Boys,124.74,4,Julio Martinez,Castleberry,119.39,192.78,104.33,183.7,480.81,Single-ply,SBD,M
Boys,124.74,5,Luke Sims,Boyd,120.02,158.76,92.99,136.08,387.82,Single-ply,SBD,M
Boys,124.74,6,Ryan Ford,Wichita Falls City View,120.84,136.08,90.72,142.88,369.68,Single-ply,SBD,M
Boys,124.74,7,Levi Jenkins,Paradise,120.2,151.95,63.5,136.08,351.53,Single-ply,SBD,M
Boys,124.74,DQ,Peanut Tafolla,Mineral Wells,111.04,154.22,,129.27,,Single-ply,SBD,M
Boys,124.74+,1,Jeffery Cooley,Jacksboro,135.53,238.14,138.35,195.04,571.53,Single-ply,SBD,M
Boys,124.74+,2,Jt McGuire,Olney,141.43,231.33,113.4,204.12,548.85,Single-ply,SBD,M
Boys,124.74+,3,Payton Vanderveer,Millsap,143.79,219.99,120.2,163.29,503.49,Single-ply,SBD,M
Boys,124.74+,4,Dempsey Dorris,Strawn,138.25,181.44,92.99,163.29,437.72,Single-ply,SBD,M
Boys,124.74+,5,Anthony Flores,Wichita Falls City View,140.52,161.03,79.38,151.95,392.36,Single-ply,SBD,M
Boys,124.74+,6,Luke Miller,Paradise,139.43,133.81,86.18,142.88,362.87,Single-ply,SBD,M
