Name,Team,Sex,BirthDate,Division,BodyweightKg,WeightClassKg,Squat1Kg,Squat2Kg,Squat3Kg,Best3SquatKg,Bench1Kg,Bench2Kg,Bench3Kg,Best3BenchKg,Deadlift1Kg,Deadlift2Kg,Deadlift3Kg,Best3DeadliftKg,TotalKg,Place,Event,Equipment
Alannah Epaulard,Yerres,F,1997-10-05,F-JR,54.5,55.5,60,65,70,70,35,40,-42.5,40,85,95,-100,95,205,1,SBD,Raw
Ophelie Mace,Lisieux,F,1991-01-05,F-O,60.4,63,65,70,75,75,40,42.5,-45,42.5,95,100,102.5,102.5,220,2,SBD,Raw
Julia Papillon,Yerres,F,1990-10-17,F-O,62,63,85,90,95,95,45,50,-55,50,110,120,-130,120,265,1,SBD,Raw
Véronique Bourdon,Maromme,F,1957-11-20,F-M5,63,63,80,85,90,90,60,65,67.5,67.5,120,130,-140,130,287.5,1,SBD,Raw
Marie Julien,Yerres,F,1994-02-17,F-O,69.5,70,80,85,90,90,50,55,-57.5,55,120,130,142.5,142.5,287.5,1,SBD,Raw
Marie-Christine Liege,Yerres,F,1955-07-16,F-M5,67,70,-82.5,82.5,90,90,60,65,,65,90,100,110,110,265,1,SBD,Raw
Clelia Denos,Saint Aubin,F,1986-06-05,F-O,71.8,80,-70,75,-82.5,75,40,-50,-50,40,90,105,115,115,230,1,SBD,Raw
Charles Maheust,Lisieux,M,2000-02-22,M-T3,56.9,60,100,110,115,115,60,67.5,70,70,145,150,,150,335,1,SBD,Raw
Agostini Luccio,Beauvoir,M,1971-03-27,M-M2,66.7,67.5,100,110,120,120,100,110,117.5,117.5,140,152.5,160,160,397.5,1,SBD,Raw
Alexis Eude,Lisieux,M,1996-08-20,M-JR,71.5,75,100,110,120,120,100,105,-110,105,150,160,-170,160,385,1,SBD,Raw
Pascal Costa,Vitry,M,1967-01-04,M-M3,75,75,-137.5,140,-147.5,140,137.5,-145,-147.5,137.5,137.5,147.5,,147.5,425,1,SBD,Raw
Patrick Metayer,Saint Aubin,M,1964-08-26,M-M4,75,75,135,140,142.5,142.5,95,100,102.5,102.5,170,180,190,190,435,1,SBD,Raw
Jean-Claude D'Heilly,Caudebec,M,1958-05-29,M-M5,75,75,125,130,135,135,90,95,97.5,97.5,180,190,202.5,202.5,435,1,SBD,Raw
Daniel Brunet,Duclair,M,1951-04-29,M-M6,70.7,75,120,125,130,130,80,85,-87.5,85,140,150,155,155,370,1,SBD,Raw
Benjamin Cannessant,Saint Aubin,M,1988-04-24,M-O,82.5,82.5,180,190,200,200,135,140,145,145,200,212.5,220,220,565,1,SBD,Raw
Daniel Fortier,Evreux,M,1958-12-11,M-M5,81.8,82.5,160,167.5,172.5,172.5,100,110,115,115,200,210,220,220,507.5,1,SBD,Raw
Nadjid Zenasni,St Etienne,M,1998-01-13,M-JR,82,82.5,160,-165,165,165,120,-125,-125,120,190,195,200,200,485,1,SBD,Raw
Mickael Wartel,Trilport,M,1989-11-05,M-O,86.4,90,165,172.5,177.5,177.5,115,122.5,-127.5,122.5,185,197.5,210,210,510,2,SBD,Raw
Jeremy Tekasala,St Etienne,M,1989-10-25,M-O,90,90,175,185,195,195,-120,120,-122.5,120,215,230,-242.5,230,545,1,SBD,Raw
Sebastien Louvel,,M,1989-03-07,M-O,107.7,110,220,235,245,245,-140,140,-147.5,140,260,270,-280,270,655,1,SBD,Raw
François Hebert,Deville,M,1986-08-18,M-O,81.1,82.5,130,137.5,-142.5,137.5,,,,,,,,,137.5,1,S,Raw
Manu Faber,Rioz,M,1978-07-07,M-M1,86.9,90,150,160,170,170,,,,,,,,,170,1,S,Raw
Patrick Simonin,Rioz,M,1956-07-21,M-M5,87.5,90,-135,135,140,140,,,,,,,,,140,1,S,Raw
Valentin Pons,Gournay,M,2000-05-13,M-T3,99.4,100,195,202.5,-207.5,202.5,,,,,,,,,202.5,1,S,Raw
Nicole Debail,Lisieux,F,1961-01-14,F-M4,42.9,44,,,,,47.5,52.5,55,55,,,,,55,1,B,Raw
Corinne Larée,Evreux,F,1967-08-26,F-M3,50.8,53,,,,,50,52.5,55,55,,,,,55,1,B,Raw
Lena Masseline,Lisieux,F,2005-01-12,F-T1,56.7,58.5,,,,,35,37.5,-40,37.5,,,,,37.5,1,B,Raw
Sophie Hebert,Deville,F,1989-08-21,F-O,59.6,63,,,,,60,65,67.5,67.5,,,,,67.5,1,B,Raw
Marie-Line Demare,Beauvoir,F,1963-09-06,F-M4,62.5,63,,,,,50,52.5,-55,52.5,,,,,52.5,2,B,Raw
Marie-Christine Larée,Evreux,F,1968-12-25,F-M3,86.6,90,,,,,60,65,67.5,67.5,,,,,67.5,1,B,Raw
Jean-Michel Moreiro,Vitry,M,1953-04-13,M-M6,59.6,60,,,,,72.5,75,77.5,77.5,,,,,77.5,2,B,Raw
Nathan Tellier,Caudebec,M,2001-09-09,M-T3,65.4,67.5,,,,,80,87.5,95,95,,,,,95,1,B,Raw
Anthony Pauchard,Gournay,M,1998-10-06,M-JR,62.2,67.5,,,,,105,110,115,115,,,,,115,1,B,Raw
Daniel Vallée,Lisieux,M,1967-06-29,M-M3,65.4,67.5,,,,,95,-100,-100,95,,,,,95,1,B,Raw
Dominique Loquet,Caudebec,M,1962-09-15,M-M4,64.1,67.5,,,,,85,90,,90,,,,,90,1,B,Raw
Didier Debail,Lisieux,M,1956-08-24,M-M5,66.3,67.5,,,,,97.5,102.5,105,105,,,,,105,1,B,Raw
Léo Massi,Caudebec,M,1938-03-28,M-M9,66.6,67.5,,,,,72.5,-75,75,75,,,,,75,1,B,Raw
Marie-Line Demare,Beauvoir,F,1963-09-06,F-M4,62.5,63,,,,,60,62.5,65,65,,,,,65,1,B,Raw
Jean-Michel Moreiro,Vitry,M,1953-04-13,M-M6,59.6,60,,,,,-85,85,90,90,,,,,90,1,B,Raw
Corentin Spinali,Gournay,M,1996-04-11,M-JR,70.2,75,,,,,105,110,-115,110,,,,,110,1,B,Raw
Ibrahim Dem,Saint Aubin,M,1990-08-04,M-O,74.5,75,,,,,80,90,-100,90,,,,,90,1,B,Raw
Cyrille Cusumano,Caudebec,M,1970-12-06,M-M2,71,75,,,,,95,102.5,-110,102.5,,,,,102.5,1,B,Raw
Pascal Costa,Vitry,M,1967-01-04,M-M3,75,75,,,,,102.5,107.5,,107.5,,,,,107.5,1,B,Raw
Nicolas Isacesco,Vitry,M,1962-12-07,M-M4,75,75,,,,,85,90,,90,,,,,90,3,B,Raw
Eric Buron,Deville,M,1962-11-28,M-M4,74.4,75,,,,,115,122.5,-125,122.5,,,,,122.5,1,B,Raw
Bruno Maury,Deville,M,1958-10-15,M-M5,65,67.5,,,,,85,90,92.5,92.5,,,,,92.5,2,B,Raw
Daniel Delaporte,Maromme,M,1948-05-21,M-M7,74.5,75,,,,,90,95,100,100,,,,,100,1,B,Raw
Nicolas Isacesco,Vitry,M,1962-12-07,M-M4,75,75,,,,,-110,110,-115,110,,,,,110,2,B,Raw
Alexandre Grain,Maromme,M,1997-05-06,M-JR,77.2,82.5,,,,,107.5,112.5,117.5,117.5,,,,,117.5,1,B,Raw
François Hebert,Deville,M,1986-08-18,M-O,81.1,82.5,,,,,110,-115,-115,110,,,,,110,1,B,Raw
Gwennael Lechanoine,Lisieux,M,1967-11-04,M-M3,77.1,82.5,,,,,122.5,127.5,132.5,132.5,,,,,132.5,1,B,Raw
Mohand Kadoun,Caudebec,M,1964-03-24,M-M4,80.9,82.5,,,,,100,110,-120,110,,,,,110,1,B,Raw
Alain Schall,Caudebec,M,1950-11-05,M-M6,77.6,82.5,,,,,85,90,92.5,92.5,,,,,92.5,1,B,Raw
Fabrice Marchet,Beauvoir,M,1961-08-11,M-M4,88.9,90,,,,,107.5,-110,-110,107.5,,,,,107.5,3,B,Raw
Jacky Bussiere,Beauvoir,M,1952-07-11,M-M6,94.6,100,,,,,135,137.5,-140,137.5,,,,,137.5,2,B,Raw
Jean-Yves Minelle,Physic System,M,1966-04-24,M-M3,130.8,145,,,,,172.5,,,172.5,,,,,172.5,2,B,Raw
Vincent Virly,Trilport,M,1981-12-22,M-O,,90,,,,,,,,,,,,,,DQ,B,Raw
Julien Camdessoucens,Rioz,M,1984-05-24,M-O,,90,,,,,,,,,,,,,,DQ,B,Raw
Jérôme Prevot,Caudebec,M,1974-06-19,M-M2,83.3,90,,,,,135,142.5,,142.5,,,,,142.5,2,B,Raw
Richard Navarre,Duclair,M,1974-01-09,M-M2,88.9,90,,,,,145,150,152.5,152.5,,,,,152.5,1,B,Raw
Thierry Mathieu,Oissel,M,1961-03-21,M-M4,86.5,90,,,,,100,110,,110,,,,,110,2,B,Raw
Fabrice Marchet,Beauvoir,M,1961-08-11,M-M4,88.9,90,,,,,120,122.5,125,125,,,,,125,1,B,Raw
Daniel Mouchard,Saint Aubin,M,1948-06-17,M-M7,87.1,90,,,,,115,120,-122.5,120,,,,,120,1,B,Raw
Valentin Pons,Gournay,M,2000-05-13,M-T3,99.4,100,,,,,125,132.5,137.5,137.5,,,,,137.5,2,B,Raw
Jessy Bouvree,Duclair,M,2000-06-18,M-T3,92.9,100,,,,,145,150,155,155,,,,,155,1,B,Raw
Jacky Bussiere,Beauvoir,M,1952-07-11,M-M6,94.6,100,,,,,160,165,-170,165,,,,,165,1,B,Raw
Pierre Vallais,Caudebec,M,1947-05-14,M-M7,98.1,100,,,,,115,120,125,125,,,,,125,1,B,Raw
Kamorudeen Animashaun,Maromme,M,1970-11-07,M-M2,107.7,110,,,,,160,170,180,180,,,,,180,1,B,Raw
Cédric Colange,Maromme,M,1982-11-16,M-O,118.8,125,,,,,165,170,-180,170,,,,,170,1,B,Raw
Jean-Yves Minelle,Physic System,M,1966-04-24,M-M3,130.8,145,,,,,160,175,190,190,,,,,190,1,B,Raw
Sebastien Brunel,Soissons,M,1968-11-18,M-M3,145,145,,,,,120,125,130,130,,,,,130,3,B,Raw
Patrick Ruch,Lisieux,M,1962-11-02,M-M4,134.6,145,,,,,127.5,132.5,140,140,,,,,140,1,B,Raw
Thibault Auguste,Gournay,M,1998-09-15,M-JR,56.7,60,,,,,,,,,137.5,145,155,155,155,1,D,Raw
Ibrahim Dem,St Etienne,M,1990-08-04,M-O,74.5,75,,,,,,,,,175,185,195,195,195,1,D,Raw
Philippe Cazorla,Oissel,M,1959-12-14,M-M5,74.5,75,,,,,,,,,130,142.5,,142.5,142.5,2,D,Raw
Jean-Claude D'Heilly,Caudebec,M,1958-05-29,M-M5,75,75,,,,,,,,,200,210,,210,210,1,D,Raw
Daniel Delaporte,Maromme,M,1948-05-21,M-M7,74.5,75,,,,,,,,,155,165,175,175,175,1,D,Raw
Jean-Claude Peter,,M,1951-02-12,M-M6,,82.5,,,,,,,,,,,,,,DQ,D,Raw
Norman Camier,Gournay,M,1998-08-12,M-JR,85.7,90,,,,,,,,,185,192.5,200,200,200,1,D,Raw
Manu Faber,Rioz,M,1978-07-07,M-M1,86.9,90,,,,,,,,,250,260,270,270,270,1,D,Raw
Valentin Pons,Gournay,M,2000-05-13,M-T3,99.4,100,,,,,,,,,252.5,262.5,270,270,270,1,D,Raw
Luc Fretel,Deville,M,1955-07-18,M-M5,91,100,,,,,,,,,160,-175,,160,160,1,D,Raw
