Division,WeightClassKg,Place,Name,Team,BodyweightKg,Best3SquatKg,Best3BenchKg,Best3DeadliftKg,TotalKg,Equipment,Event,Sex,BirthDate
Boys,51.71,1,Chance Paschal,Blooming Grove,51.57,117.93,79.38,136.08,333.39,Single-ply,SBD,M,
Boys,59.87,1,Noah Hutchison,Blooming Grove,59.69,151.95,104.33,145.15,401.43,Single-ply,SBD,M,
Boys,59.87,2,Nathan Hall,Athens,59.33,142.88,102.06,151.95,396.89,Single-ply,SBD,M,
Boys,59.87,3,Andrew Santoyo,Rice,57.33,142.88,70.31,138.35,351.53,Single-ply,SBD,M,
Boys,67.13,1,Nolan Haden,Ennis,66.95,240.4,158.76,226.8,625.96,Single-ply,SBD,M,
Boys,67.13,2,Caleb Clemmons,Athens,65.41,165.56,106.59,167.83,439.98,Single-ply,SBD,M,
Boys,67.13,3,Chance Cox,Rice,64.68,142.88,90.72,113.4,347,Single-ply,SBD,M,
Boys,67.13,DQ,Krissangel Lopez,Rice,64.5,,,,,Single-ply,SBD,M,
Boys,74.84,1,Michael Martinez,Ennis,72.57,215.46,124.74,192.78,532.97,Single-ply,SBD,M,
Boys,74.84,2,Matthew Beacom,Blooming Grove,73.03,190.51,124.74,183.7,498.95,Single-ply,SBD,M,
Boys,74.84,3,Carson Selman,Rice,71.3,158.76,97.52,129.27,385.55,Single-ply,SBD,M,
Boys,82.1,1,Brayden Gardner,Ennis,77.84,238.14,167.83,215.46,621.42,Single-ply,SBD,M,
Boys,82.1,2,Juan Paredes,Rice,79.83,188.24,113.4,179.17,480.81,Single-ply,SBD,M,
Boys,82.1,3,Tommy Bernal,Rice,78.56,183.7,104.33,142.88,430.91,Single-ply,SBD,M,
Boys,82.1,4,Logan Schwerin,Athens,74.93,151.95,97.52,174.63,424.11,Single-ply,SBD,M,
Boys,89.81,1,Sam Meeker,Ennis,86.36,254.01,142.88,219.99,616.89,Single-ply,SBD,M,
Boys,89.81,2,Jorge Garcia,Athens,84.19,138.35,90.72,154.22,383.29,Single-ply,SBD,M,
Boys,99.79,1,Rodrigo Molina,Ennis,95.62,183.7,124.74,188.24,496.68,Single-ply,SBD,M,
Boys,99.79,2,Anthony Ovalle,Rice,98.43,158.76,97.52,165.56,421.84,Single-ply,SBD,M,
Boys,99.79,3,Steven Aderhold,Blooming Grove,95.71,138.35,102.06,149.69,390.09,Single-ply,SBD,M,
Boys,99.79,DQ,Jerry Montgomery,Rice,94.17,,,,,Single-ply,SBD,M,
Boys,109.77,1,Lucas Hagler,Ennis,103.24,217.72,156.49,208.65,582.87,Single-ply,SBD,M,
Boys,109.77,2,Marco Martínez,Ennis,107.5,204.12,151.95,226.8,582.87,Single-ply,SBD,M,
Boys,109.77,3,Logan Hancock,Corsicana Mildred,102.51,215.46,111.13,233.6,560.19,Single-ply,SBD,M,
Boys,109.77,4,David Mirafuentes,Blooming Grove,104.33,233.6,113.4,204.12,551.11,Single-ply,SBD,M,
Boys,109.77,5,Zachary Carranza,Athens,105.6,138.35,90.72,154.22,383.29,Single-ply,SBD,M,
Boys,139.71,1,Reid White,Ennis,132.54,217.72,174.63,204.12,596.47,Single-ply,SBD,M,
Boys,139.71,2,Cody Jurcik,Ennis,133.08,226.8,158.76,199.58,585.13,Single-ply,SBD,M,
Boys,139.71+,1,Xavier Perez #2,Ennis,146.69,283.5,158.76,226.8,669.05,Single-ply,SBD,M,
