Division,WeightClassKg,Place,Name,Team,BodyweightKg,Best3SquatKg,Best3BenchKg,Best3DeadliftKg,TotalKg,Equipment,Event,Sex,BirthDate
Boys,51.71,1,Eric Valencia,Olton,50.62,158.76,72.57,136.08,367.41,Single-ply,SBD,M,
Boys,51.71,2,Damion Gonzales,Lockney,48.17,142.88,77.11,138.35,358.34,Single-ply,SBD,M,
Boys,51.71,3,Riley Rodriguez,Whiteface,51.71,95.25,56.7,120.2,272.16,Single-ply,SBD,M,
Boys,51.71,4,Bobby Bowman,Whiteface,46.81,99.79,56.7,108.86,265.35,Single-ply,SBD,M,
Boys,51.71,5,Peyton Langhor,Iraan,49.08,95.25,54.43,102.06,251.74,Single-ply,SBD,M,
Boys,51.71,6,Marcus Gonzales,Plains,50.44,65.77,45.36,95.25,206.38,Single-ply,SBD,M,
Boys,51.71,7,Dagon Rangel,Whiteface,51.44,74.84,47.63,83.91,206.38,Single-ply,SBD,M,
Boys,51.71,DQ,Devin Russell,Olton,47.17,102.06,,,,Single-ply,SBD,M,
Boys,55.79,1,Caden Rocha,Panhandle,55.52,158.76,77.11,142.88,378.75,Single-ply,SBD,M,
Boys,55.79,2,Kyndle Esparza,Seagraves,55.25,133.81,68.04,142.88,344.73,Single-ply,SBD,M,
Boys,55.79,3,Jovany Salazar,Bovina,54.34,120.2,61.23,122.47,303.91,Single-ply,SBD,M,
Boys,55.79,4,Miguel Lopez #8,Bovina,54.7,102.06,74.84,117.93,294.84,Single-ply,SBD,M,
Boys,55.79,5,Calvin Carpenter,Lubbock All Saints School,54.52,92.99,56.7,124.74,274.42,Single-ply,SBD,M,
Boys,55.79,6,Colton Benson,Clarendon,54.79,83.91,61.23,113.4,258.55,Single-ply,SBD,M,
Boys,55.79,7,Clay Humphrey,Ralls,55.79,95.25,43.09,102.06,240.4,Single-ply,SBD,M,
Boys,55.79,8,Cason Couch,Whiteface,52.44,81.65,49.9,81.65,213.19,Single-ply,SBD,M,
Boys,55.79,DQ,Bronson Putman,Ropesville Ropes,51.8,108.86,61.23,,,Single-ply,SBD,M,
Boys,59.87,1,Brennan Riker,Post,58.6,188.24,102.06,181.44,471.74,Single-ply,SBD,M,
Boys,59.87,2,Aidon Olivas,Sundown,59.33,172.37,99.79,185.97,458.13,Single-ply,SBD,M,
Boys,59.87,3,Brayden Sanders,Sundown,59.15,165.56,86.18,176.9,428.64,Single-ply,SBD,M,
Boys,59.87,4,Josiah Rodriguez,Meadow,58.15,149.69,83.91,181.44,415.04,Single-ply,SBD,M,
Boys,59.87,5,Toby Rios,Ralls,59.33,163.29,88.45,163.29,415.04,Single-ply,SBD,M,
Boys,59.87,6,Dillon Bruington,Floydada,59.06,163.29,81.65,151.95,396.89,Single-ply,SBD,M,
Boys,59.87,7,Paxtyn Gwin,Tahoka,59.87,131.54,86.18,158.76,376.48,Single-ply,SBD,M,
Boys,59.87,8,Klayton Lake,New Home,59.51,133.81,83.91,156.49,374.21,Single-ply,SBD,M,
Boys,59.87,9,Dominic Casares,Sunray,59.33,129.27,81.65,147.42,358.34,Single-ply,SBD,M,
Boys,59.87,DQ,Jhoan Menjivar,Plains,59.6,136.08,,,,Single-ply,SBD,M,
Boys,59.87,DQ,Jason Granillo,Olton,58.42,,,,,Single-ply,SBD,M,
Boys,59.87,DQ,Joshua Granillo,Olton,57.88,131.54,70.31,,,Single-ply,SBD,M,
Boys,67.13,1,Pablo Mendoza,Sundown,66.13,210.92,113.4,208.65,532.97,Single-ply,SBD,M,
Boys,67.13,2,Brady Tiemann,Vega,67.04,190.51,120.2,215.46,526.17,Single-ply,SBD,M,
Boys,67.13,3,Daniel Estrada,New Home,66.13,195.04,113.4,188.24,496.68,Single-ply,SBD,M,
Boys,67.13,4,Mark Reyna,Sundown,67.04,188.24,102.06,190.51,480.81,Single-ply,SBD,M,
Boys,67.13,5,Rickey Melendez,Sundown,65.95,199.58,104.33,174.63,478.54,Single-ply,SBD,M,
Boys,67.13,6,Matthew Rosas,McCamey,65.5,181.44,92.99,197.31,471.74,Single-ply,SBD,M,
Boys,67.13,7,Alex Vitolas,New Home,65.32,156.49,108.86,170.1,435.45,Single-ply,SBD,M,
Boys,67.13,8,Trae Zavala,Ralls,65.5,161.03,106.59,167.83,435.45,Single-ply,SBD,M,
Boys,67.13,9,Marcos Hernandez,Sundown,62.05,176.9,88.45,167.83,433.18,Single-ply,SBD,M,
Boys,67.13,10,Carlos Perez #3,Sundown,62.41,156.49,92.99,181.44,430.91,Single-ply,SBD,M,
Boys,67.13,11,Xavier Rodriguez,Olton,67.13,163.29,86.18,154.22,403.7,Single-ply,SBD,M,
Boys,67.13,DQ,Braxton Beck,New Home,65.41,142.88,88.45,,,Single-ply,SBD,M,
Boys,74.84,1,Alex Carmona,Floydada,74.39,258.55,154.22,226.8,639.57,Single-ply,SBD,M,
Boys,74.84,2,Stewart Skiles,Vega,74.03,240.4,104.33,226.8,571.53,Single-ply,SBD,M,
Boys,74.84,3,Riley Tiemann,Vega,72.85,217.72,113.4,217.72,548.85,Single-ply,SBD,M,
Boys,74.84,4,Mauro Moreno,Ralls,70.76,199.58,124.74,192.78,517.1,Single-ply,SBD,M,
Boys,74.84,5,Elijah Zavala,Ralls,69.4,172.37,102.06,195.04,469.47,Single-ply,SBD,M,
Boys,74.84,6,Hunter Tindol,Sundown,72.12,156.49,102.06,195.04,453.59,Single-ply,SBD,M,
Boys,74.84,7,Landon Pevey,Post,72.94,158.76,102.06,185.97,446.79,Single-ply,SBD,M,
Boys,74.84,8,Gavin Aguirre,Iraan,70.85,165.56,79.38,197.31,442.25,Single-ply,SBD,M,
Boys,74.84,9,Syreal Biaza,McCamey,71.03,172.37,104.33,165.56,442.25,Single-ply,SBD,M,
Boys,74.84,10,Jc Camacho,Sundown,74.39,165.56,92.99,172.37,430.91,Single-ply,SBD,M,
Boys,74.84,11,Rhett Caison,Clarendon,72.76,154.22,106.59,167.83,428.64,Single-ply,SBD,M,
Boys,74.84,12,Tobi Bernal,Ropesville Ropes,74.84,156.49,88.45,172.37,417.3,Single-ply,SBD,M,
Boys,74.84,13,Whitman Martin,Panhandle,72.48,151.95,74.84,172.37,399.16,Single-ply,SBD,M,
Boys,74.84,DQ,Dylan Davis,Panhandle,72.21,195.04,104.33,,,Single-ply,SBD,M,
Boys,82.1,1,Kevin Garcia,Sundown,80.74,240.4,149.69,233.6,623.69,Single-ply,SBD,M,
Boys,82.1,2,Aldo Vasquez,Olton,78.93,244.94,124.74,210.92,580.6,Single-ply,SBD,M,
Boys,82.1,3,Austin Ferriera,Wellman-Union,81.19,192.78,115.67,172.37,480.81,Single-ply,SBD,M,
Boys,82.1,4,Nick Quintana,Post,79.2,172.37,102.06,190.51,464.93,Single-ply,SBD,M,
Boys,82.1,5,Mike Theis,Panhandle,82.1,167.83,122.47,170.1,460.4,Single-ply,SBD,M,
Boys,82.1,6,Isiah Flores,Sundown,79.47,181.44,95.25,179.17,455.86,Single-ply,SBD,M,
Boys,82.1,7,Andrew Suarez,Floydada,76.11,161.03,102.06,183.7,446.79,Single-ply,SBD,M,
Boys,82.1,8,Harrison Weeks,Plains,76.29,176.9,97.52,172.37,446.79,Single-ply,SBD,M,
Boys,82.1,9,Luke Brooker,Whiteface,79.2,170.1,99.79,172.37,442.25,Single-ply,SBD,M,
Boys,82.1,10,Logan Boggs,Sundown,75.02,149.69,90.72,158.76,399.16,Single-ply,SBD,M,
Boys,82.1,11,McCade Smith,Panhandle,80.47,133.81,77.11,163.29,374.21,Single-ply,SBD,M,
Boys,82.1,DQ,Damian Marquez,Olton,78.56,147.42,,,,Single-ply,SBD,M,
Boys,89.81,1,Sergio Salinas,Ralls,82.19,235.87,117.93,233.6,587.4,Single-ply,SBD,M,
Boys,89.81,2,Diego Hernandez,Sundown,83.37,219.99,131.54,222.26,573.79,Single-ply,SBD,M,
Boys,89.81,3,Jax Ferrel,Memphis,82.83,170.1,138.35,226.8,535.24,Single-ply,SBD,M,
Boys,89.81,4,Carson McCall,Vega,83.73,190.51,97.52,210.92,498.95,Single-ply,SBD,M,
Boys,89.81,5,Isaac Tovar,Sunray,87.09,185.97,122.47,188.24,496.68,Single-ply,SBD,M,
Boys,89.81,6,Dylan Quintero,Tahoka,84.28,167.83,111.13,199.58,478.54,Single-ply,SBD,M,
Boys,89.81,7,Darian DeLaRosa,Bovina,85.09,181.44,104.33,181.44,467.2,Single-ply,SBD,M,
Boys,89.81,8,Alejandro Rodriguez,Post,82.55,192.78,99.79,163.29,455.86,Single-ply,SBD,M,
Boys,89.81,9,Thomas Neuenschwander,Sundown,83.82,185.97,95.25,172.37,453.59,Single-ply,SBD,M,
Boys,89.81,10,Diego Romero,Sundown,84.01,174.63,111.13,161.03,446.79,Single-ply,SBD,M,
Boys,89.81,11,Ky Collins,Ropesville Ropes,86.18,158.76,117.93,156.49,433.18,Single-ply,SBD,M,
Boys,89.81,12,Clay Wagner,Panhandle,86.91,170.1,102.06,161.03,433.18,Single-ply,SBD,M,
Boys,99.79,1,Misael Castaneda,Whiteface,96.62,263.08,158.76,249.48,671.32,Single-ply,SBD,M,
Boys,99.79,2,Cole Boren,Post,96.43,256.28,163.29,215.46,635.03,Single-ply,SBD,M,
Boys,99.79,3,Jonathon Golightly,Sundown,94.8,244.94,165.56,204.12,614.62,Single-ply,SBD,M,
Boys,99.79,4,Alex Tew,Tahoka,93.08,185.97,108.86,217.72,512.56,Single-ply,SBD,M,
Boys,99.79,5,Javier Hernandez,Iraan,93.26,195.04,86.18,217.72,498.95,Single-ply,SBD,M,
Boys,99.79,6,Caleb Pritchard,Lockney,90.17,195.04,113.4,170.1,478.54,Single-ply,SBD,M,
Boys,99.79,7,David Espinoza,Memphis,90.36,174.63,102.06,181.44,458.13,Single-ply,SBD,M,
Boys,99.79,8,Rigo Molina,McCamey,95.07,192.78,99.79,165.56,458.13,Single-ply,SBD,M,
Boys,99.79,9,Riley Ashbaugh,Sunray,93.44,154.22,117.93,183.7,455.86,Single-ply,SBD,M,
Boys,99.79,10,Hayden Forbes,Panhandle,97.52,172.37,99.79,181.44,453.59,Single-ply,SBD,M,
Boys,99.79,11,Turner Becton,Ropesville Ropes,96.52,158.76,104.33,181.44,444.52,Single-ply,SBD,M,
Boys,99.79,12,Jesus Carrillo,Wink,96.98,170.1,108.86,147.42,426.38,Single-ply,SBD,M,
Boys,109.77,1,Andy Castillo,Sundown,108.68,272.16,147.42,251.74,671.32,Single-ply,SBD,M,
Boys,109.77,2,Elias Martinez,Ralls,106.96,242.67,161.03,244.94,648.64,Single-ply,SBD,M,
Boys,109.77,3,Miguel Lara,Lockney,107.86,251.74,145.15,231.33,628.23,Single-ply,SBD,M,
Boys,109.77,4,Mason Morgan,Wink,103.87,238.14,156.49,231.33,625.96,Single-ply,SBD,M,
Boys,109.77,5,Tyler Ivins,Olton,101.33,226.8,136.08,210.92,573.79,Single-ply,SBD,M,
Boys,109.77,6,Jesse Putnam,Wink,101.7,181.44,136.08,192.78,510.29,Single-ply,SBD,M,
Boys,109.77,7,Marcus Collins #3,Floydada,103.6,204.12,102.06,197.31,503.49,Single-ply,SBD,M,
Boys,109.77,8,Jon Dylan Rodriguez,Tahoka,107.86,181.44,115.67,204.12,501.22,Single-ply,SBD,M,
Boys,109.77,9,Mack Payne,Wink,102.06,192.78,108.86,185.97,487.61,Single-ply,SBD,M,
Boys,109.77,10,Knoah Escobedo,Post,106.05,188.24,113.4,185.97,487.61,Single-ply,SBD,M,
Boys,109.77,11,Jadon McAdams,Sundown,106.41,181.44,108.86,154.22,444.52,Single-ply,SBD,M,
Boys,109.77,DQ,Louis Herrera,Ropesville Ropes,105.51,249.48,147.42,,,Single-ply,SBD,M,
Boys,124.74,1,Taye Perez,Post,123.92,272.16,176.9,276.69,725.75,Single-ply,SBD,M,
Boys,124.74,2,Chris Jackson #5,Post,122.11,249.48,156.49,265.35,671.32,Single-ply,SBD,M,
Boys,124.74,3,Jayson Pagan,McCamey,115.94,285.76,149.69,233.6,669.05,Single-ply,SBD,M,
Boys,124.74,4,Chris Castillo,Sundown,119.02,210.92,142.88,210.92,564.72,Single-ply,SBD,M,
Boys,124.74,5,Jeffery Rodriguez,Sundown,109.86,224.53,113.4,222.26,560.19,Single-ply,SBD,M,
Boys,124.74,6,Dekota Golightly,Sundown,115.76,226.8,133.81,199.58,560.19,Single-ply,SBD,M,
Boys,124.74,7,Alberto Dorantes,Olton,117.12,179.17,124.74,210.92,514.83,Single-ply,SBD,M,
Boys,124.74,8,Richard Badillo,Plains,113.31,190.51,90.72,183.7,464.93,Single-ply,SBD,M,
Boys,124.74,9,Clayton Tucker,Forsan,114.85,158.76,102.06,192.78,453.59,Single-ply,SBD,M,
Boys,124.74,10,Skylen Copeland,Wink,119.66,172.37,106.59,158.76,437.72,Single-ply,SBD,M,
Boys,124.74,11,Candelario Saldana,McCamey,116.39,154.22,83.91,149.69,387.82,Single-ply,SBD,M,
Boys,139.71,1,Nico Rodriguez,Sundown,127.28,272.16,176.9,222.26,671.32,Single-ply,SBD,M,
Boys,139.71,2,Javen Diaz,Post,138.35,267.62,161.03,224.53,653.17,Single-ply,SBD,M,
Boys,139.71,3,Isaiah Garcia,McCamey,127.19,278.96,127.01,213.19,619.15,Single-ply,SBD,M,
Boys,139.71,4,Jacob Hernandez,Vega,127.1,249.48,154.22,195.04,598.74,Single-ply,SBD,M,
Boys,139.71,5,Jayden Golleher,Forsan,136.44,226.8,122.47,190.51,539.77,Single-ply,SBD,M,
Boys,139.71,6,Kade Hurt,Tahoka,131.63,181.44,86.18,185.97,453.59,Single-ply,SBD,M,
Boys,139.71,7,Caden Pritchard,Lockney,131.63,149.69,104.33,149.69,403.7,Single-ply,SBD,M,
Boys,139.71,DQ,Nicholas Delgado,Iraan,125.55,,,,,Single-ply,SBD,M,
Boys,139.71,DQ,Niko Castaneda,Meadow,131.72,235.87,,,,Single-ply,SBD,M,
Boys,139.71+,1,Jalen Ramirez,Wink,144.33,233.6,117.93,226.8,578.33,Single-ply,SBD,M,
Boys,139.71+,2,Julius Alaniz,Wellman-Union,143.97,231.33,120.2,210.92,562.45,Single-ply,SBD,M,
Boys,139.71+,3,Konar Alaman,Sundown,170.91,222.26,145.15,190.51,557.92,Single-ply,SBD,M,
Boys,139.71+,DQ,Raul Villalpando,Meadow,141.07,240.4,,,,Single-ply,SBD,M,
