Division,WeightClassKg,Place,Name,Team,BodyweightKg,Best3SquatKg,Best3BenchKg,Best3DeadliftKg,TotalKg,Equipment,Event,Sex,BirthDate
Boys,51.71,1,Alex Salto,Manvel,49.62,92.99,72.57,113.4,278.96,Single-ply,SBD,M,
Boys,51.71,2,Furrest Greenwood,Needville,50.89,88.45,45.36,95.25,229.06,Single-ply,SBD,M,
Boys,55.79,1,Noah Hysten,Sweeny,54.43,124.74,70.31,104.33,299.37,Single-ply,SBD,M,
Boys,55.79,2,Jesse Norwood,Needville,52.98,83.91,61.23,104.33,249.48,Single-ply,SBD,M,
Boys,59.87,1,D'Orien Steamer,Freeport Brazosport,59.87,158.76,88.45,165.56,412.77,Single-ply,SBD,M,
Boys,59.87,2,Cayde Brewer,Sweeny,59.33,149.69,99.79,147.42,396.89,Single-ply,SBD,M,
Boys,59.87,3,Carlos Harian,Manvel,59.87,129.27,70.31,145.15,344.73,Single-ply,SBD,M,
Boys,59.87,4,Matthew Martinez,Pasadena Memorial,59.42,115.67,70.31,147.42,333.39,Single-ply,SBD,M,
Boys,59.87,5,Rudy Martinez,Needville,59.87,90.72,70.31,113.4,274.42,Single-ply,SBD,M,
Boys,59.87,DQ,Royce Brooks,Stafford,59.69,92.99,,,,Single-ply,SBD,M,
Boys,67.13,1,Richie Garza,West Columbia,65.86,201.85,117.93,206.38,526.17,Single-ply,SBD,M,
Boys,67.13,2,Robert Martinez,West Columbia,67.04,195.04,120.2,197.31,512.56,Single-ply,SBD,M,
Boys,67.13,3,Clayton Gallagher,Alvin Shadow Creek,65.5,188.24,111.13,195.04,494.42,Single-ply,SBD,M,
Boys,67.13,4,Jared Pearson,Clute Brazoswood,65.86,183.7,102.06,190.51,476.27,Single-ply,SBD,M,
Boys,67.13,5,Isiah Jackson,Manvel,66.41,156.49,108.86,199.58,464.93,Single-ply,SBD,M,
Boys,67.13,6,Armando Cabriales,Clute Brazoswood,64.95,172.37,102.06,183.7,458.13,Single-ply,SBD,M,
Boys,67.13,7,Ashton Norwood,Hitchcock,65.05,190.51,83.91,183.7,458.13,Single-ply,SBD,M,
Boys,67.13,8,Sean Cabala,Alvin Shadow Creek,66.59,154.22,79.38,176.9,410.5,Single-ply,SBD,M,
Boys,67.13,9,Marco Sanchez,Hitchcock,65.86,163.29,81.65,161.03,405.97,Single-ply,SBD,M,
Boys,67.13,10,Noah Burton,Alvin Shadow Creek,65.77,147.42,92.99,156.49,396.89,Single-ply,SBD,M,
Boys,67.13,11,Matt Aguilar,Needville,67.13,147.42,86.18,154.22,387.82,Single-ply,SBD,M,
Boys,67.13,12,Garren Heath,West Columbia,67.13,115.67,102.06,158.76,376.48,Single-ply,SBD,M,
Boys,67.13,13,Reese Staley,Needville,66.5,122.47,70.31,127.01,319.78,Single-ply,SBD,M,
Boys,67.13,DQ,Shane Del Thompson,Stafford,66.59,,,,,Single-ply,SBD,M,
Boys,74.84,1,Regie Marges,Alvin Shadow Creek,73.39,176.9,122.47,226.8,526.17,Single-ply,SBD,M,
Boys,74.84,2,Keegan Anderson,West Columbia,72.39,174.63,133.81,176.9,485.34,Single-ply,SBD,M,
Boys,74.84,3,Sovanara Kuy,Alvin Shadow Creek,74.12,158.76,102.06,204.12,464.93,Single-ply,SBD,M,
Boys,74.84,4,Junji Chen,Alvin Shadow Creek,73.84,161.03,106.59,192.78,460.4,Single-ply,SBD,M,
Boys,74.84,5,Nate Neely,Clute Brazoswood,70.03,161.03,111.13,174.63,446.79,Single-ply,SBD,M,
Boys,74.84,6,Aaron Martinez,Manvel,69.67,156.49,113.4,172.37,442.25,Single-ply,SBD,M,
Boys,74.84,7,Kidus Gorge,Alvin Shadow Creek,74.57,136.08,108.86,188.24,433.18,Single-ply,SBD,M,
Boys,74.84,8,Jonathan Reynolds,Manvel,74.48,149.69,102.06,161.03,412.77,Single-ply,SBD,M,
Boys,74.84,9,Dylan Folse,Hitchcock,73.48,142.88,68.04,142.88,353.8,Single-ply,SBD,M,
Boys,82.1,1,Mario Vega,Clute Brazoswood,81.83,249.48,172.37,249.48,671.32,Single-ply,SBD,M,
Boys,82.1,2,Micah Bumgarner,Hitchcock,80.83,217.72,136.08,210.92,564.72,Single-ply,SBD,M,
Boys,82.1,3,Kyler Tecykl,Needville,78.74,226.8,117.93,190.51,535.24,Single-ply,SBD,M,
Boys,82.1,4,Stephen Morales,Hitchcock,78.83,208.65,108.86,204.12,521.63,Single-ply,SBD,M,
Boys,82.1,5,Noah Cruz,Manvel,82.1,190.51,117.93,201.85,510.29,Single-ply,SBD,M,
Boys,82.1,6,Lemarkus Owens,Manvel,77.2,188.24,120.2,199.58,508.02,Single-ply,SBD,M,
Boys,82.1,7,Grant Crawford,Alvin Shadow Creek,76.02,172.37,111.13,181.44,464.93,Single-ply,SBD,M,
Boys,82.1,8,Blaze Dabelgott,Sweeny,81.19,163.29,115.67,185.97,464.93,Single-ply,SBD,M,
Boys,82.1,9,Alex Leija,Freeport Brazosport,78.11,172.37,113.4,176.9,462.66,Single-ply,SBD,M,
Boys,82.1,10,Martin Dietz,Needville,79.29,183.7,97.52,174.63,455.86,Single-ply,SBD,M,
Boys,82.1,11,Matt Fleming,Hitchcock,80.56,172.37,90.72,183.7,446.79,Single-ply,SBD,M,
Boys,82.1,12,Rey Garcia,Freeport Brazosport,82.1,158.76,104.33,183.7,446.79,Single-ply,SBD,M,
Boys,82.1,13,Isaiah Llorens,Stafford,76.66,183.7,106.59,149.69,439.98,Single-ply,SBD,M,
Boys,82.1,14,Carlo Lewis,Hitchcock,80.74,172.37,79.38,185.97,437.72,Single-ply,SBD,M,
Boys,82.1,15,Chris West,Clute Brazoswood,81.28,161.03,106.59,167.83,435.45,Single-ply,SBD,M,
Boys,82.1,16,Carlos Montaoya,Pasadena Memorial,76.02,142.88,106.59,174.63,424.11,Single-ply,SBD,M,
Boys,82.1,17,Brandon Chem,Clute Brazoswood,80.29,145.15,90.72,172.37,408.23,Single-ply,SBD,M,
Boys,82.1,18,Caleb Mitchell,Hitchcock,79.29,172.37,61.23,156.49,390.09,Single-ply,SBD,M,
Boys,82.1,19,Franco Godoy,Pasadena Memorial,82.1,140.61,86.18,142.88,369.68,Single-ply,SBD,M,
Boys,89.81,1,Dylan Campbell,Alvin Shadow Creek,89.81,249.48,156.49,217.72,623.69,Single-ply,SBD,M,
Boys,89.81,2,DeMonte Seymore,Manvel,86,226.8,127.01,206.38,560.19,Single-ply,SBD,M,
Boys,89.81,3,Pristine Hysten,Sweeny,83.01,199.58,149.69,204.12,553.38,Single-ply,SBD,M,
Boys,89.81,4,Avory Clark,Manvel,83.46,188.24,115.67,210.92,514.83,Single-ply,SBD,M,
Boys,89.81,5,Ricardo Medina,Manvel,88.63,190.51,111.13,213.19,514.83,Single-ply,SBD,M,
Boys,89.81,6,Hogan Ashford,Sweeny,85.82,199.58,111.13,183.7,494.42,Single-ply,SBD,M,
Boys,89.81,7,Jayson Peters,Alvin Shadow Creek,87.54,170.1,113.4,192.78,476.27,Single-ply,SBD,M,
Boys,89.81,8,Tyler Norman,Hitchcock,88.45,158.76,79.38,183.7,421.84,Single-ply,SBD,M,
Boys,89.81,9,Andres Cabral,Freeport Brazosport,86.36,136.08,131.54,147.42,415.04,Single-ply,SBD,M,
Boys,89.81,10,Adrain Frausto,Needville,89.72,142.88,104.33,154.22,401.43,Single-ply,SBD,M,
Boys,89.81,11,Korhan Elkat,Stafford,83.01,102.06,49.9,142.88,294.84,Single-ply,SBD,M,
Boys,89.81,DQ,Juan Cuevas,West Columbia,87.82,,,,,Single-ply,SBD,M,
Boys,89.81,DQ,Sebastian Briones,Freeport Brazosport,86.73,192.78,,,,Single-ply,SBD,M,
Boys,89.81,DQ,Sean Gonzalez,Clute Brazoswood,87.91,,102.06,,,Single-ply,SBD,M,
Boys,89.81,DQ,Marcus Lane,Stafford,86.73,192.78,192.78,,,Single-ply,SBD,M,
Boys,89.81,DQ,Jeffrey Pamugo,Stafford,89.36,170.1,,,,Single-ply,SBD,M,
Boys,99.79,1,Kelvon Norman,Hitchcock,91.08,249.48,136.08,226.8,612.35,Single-ply,SBD,M,
Boys,99.79,2,Giovanni Zaso,Pasadena Memorial,92.9,219.99,136.08,215.46,571.53,Single-ply,SBD,M,
Boys,99.79,3,Brett Bible,Sweeny,94.17,204.12,129.27,188.24,521.63,Single-ply,SBD,M,
Boys,99.79,4,Brandon Jackson,Alvin Shadow Creek,98.88,185.97,124.74,197.31,508.02,Single-ply,SBD,M,
Boys,99.79,5,Nathan Cabrera,Pasadena Memorial,90.17,206.38,102.06,192.78,501.22,Single-ply,SBD,M,
Boys,99.79,6,Samuel Knuckles,Manvel,96.62,163.29,115.67,206.38,485.34,Single-ply,SBD,M,
Boys,99.79,7,Osiris Jackson,Alvin Shadow Creek,96.12,183.7,124.74,172.37,480.81,Single-ply,SBD,M,
Boys,99.79,8,Israel Deleon,Needville,98.7,183.7,117.93,163.29,464.93,Single-ply,SBD,M,
Boys,99.79,9,Jose Carrizales,Alvin Shadow Creek,96.52,165.56,97.52,197.31,460.4,Single-ply,SBD,M,
Boys,99.79,10,Dijon James,Clute Brazoswood,92.99,156.49,115.67,183.7,455.86,Single-ply,SBD,M,
Boys,99.79,11,Micheal Gomez,Pasadena Memorial,93.44,174.63,99.79,181.44,455.86,Single-ply,SBD,M,
Boys,99.79,12,David Collins,Stafford,96.34,147.42,124.74,183.7,455.86,Single-ply,SBD,M,
Boys,99.79,13,Christian Fregia,Stafford,91.9,181.44,102.06,170.1,453.59,Single-ply,SBD,M,
Boys,99.79,14,Francisco Villalobos,Pasadena Memorial,97.98,156.49,77.11,201.85,435.45,Single-ply,SBD,M,
Boys,99.79,15,Elijah Norwood,Pasadena Memorial,94.53,161.03,86.18,174.63,421.84,Single-ply,SBD,M,
Boys,109.77,1,Landon Henke,Needville,108.32,247.21,147.42,226.8,621.42,Single-ply,SBD,M,
Boys,109.77,2,Chancellor Buford,Alvin Shadow Creek,108.32,204.12,158.76,235.87,598.74,Single-ply,SBD,M,
Boys,109.77,3,Diego Flores,Sweeny,107.77,226.8,149.69,215.46,591.94,Single-ply,SBD,M,
Boys,109.77,4,Jairo Castillo,Alvin Shadow Creek,107.59,210.92,127.01,231.33,569.26,Single-ply,SBD,M,
Boys,109.77,5,Adrain Tamez,Pasadena Memorial,101.88,197.31,122.47,222.26,542.04,Single-ply,SBD,M,
Boys,109.77,6,Rexie Parjarillaga,Alvin Shadow Creek,104.51,183.7,127.01,226.8,537.51,Single-ply,SBD,M,
Boys,109.77,7,Rafael Martinez,West Columbia,105.41,188.24,131.54,188.24,508.02,Single-ply,SBD,M,
Boys,109.77,8,Jose Jimenez #9,Pasadena Memorial,106.05,172.37,102.06,226.8,501.22,Single-ply,SBD,M,
Boys,109.77,9,Gerardo Romero,Alvin Shadow Creek,103.78,165.56,106.59,217.72,489.88,Single-ply,SBD,M,
Boys,109.77,10,Trevino Patt,Stafford,105.14,192.78,113.4,183.7,489.88,Single-ply,SBD,M,
Boys,109.77,11,Dacoda Lopez,Clute Brazoswood,103.96,151.95,131.54,188.24,471.74,Single-ply,SBD,M,
Boys,109.77,12,Bobby Stephens,Freeport Brazosport,100.33,174.63,102.06,181.44,458.13,Single-ply,SBD,M,
Boys,109.77,13,Andrew Ramirez,Pasadena Memorial,105.78,163.29,113.4,176.9,453.59,Single-ply,SBD,M,
Boys,124.74,1,Ricardo Marquez,Needville,121.65,244.94,147.42,215.46,607.81,Single-ply,SBD,M,
Boys,124.74,2,Dylan Hughes,Alvin Shadow Creek,118.02,219.99,142.88,233.6,596.47,Single-ply,SBD,M,
Boys,124.74,3,Alex Zavalla,Clute Brazoswood,113.94,217.72,154.22,219.99,591.94,Single-ply,SBD,M,
Boys,124.74,4,Randy Robertson,Freeport Brazosport,113.94,226.8,131.54,197.31,555.65,Single-ply,SBD,M,
Boys,124.74,5,Christopher Hein,Needville,116.85,201.85,124.74,204.12,530.7,Single-ply,SBD,M,
Boys,124.74,6,Sebastian Carrier,Stafford,113.04,142.88,133.81,226.8,503.49,Single-ply,SBD,M,
Boys,124.74,7,Stephen Ashburn,Needville,115.48,192.78,129.27,165.56,487.61,Single-ply,SBD,M,
Boys,124.74,8,Eddie Jones #2,Needville,122.74,183.7,115.67,170.1,469.47,Single-ply,SBD,M,
Boys,124.74,9,Devin Dunlap,Freeport Brazosport,119.57,149.69,117.93,172.37,439.98,Single-ply,SBD,M,
Boys,124.74,10,Alex Mateo,Pasadena Memorial,120.11,147.42,90.72,161.03,399.16,Single-ply,SBD,M,
Boys,124.74,DQ,Lamar Adams,Stafford,120.47,,102.06,183.7,,Single-ply,SBD,M,
Boys,124.74+,1,Blake Boenesch,Needville,147.51,267.62,158.76,272.16,698.53,Single-ply,SBD,M,
Boys,124.74+,2,Mikel Richey,Clute Brazoswood,135.17,260.82,158.76,233.6,653.17,Single-ply,SBD,M,
Boys,124.74+,3,Marcus Smith,Stafford,154.77,192.78,185.97,204.12,582.87,Single-ply,SBD,M,
Boys,124.74+,4,Braylon Garcia,Stafford,147.05,215.46,131.54,204.12,551.11,Single-ply,SBD,M,
Boys,124.74+,5,Chris Robinson #9,Manvel,128.73,217.72,122.47,204.12,544.31,Single-ply,SBD,M,
Boys,124.74+,6,Mikal Bryan,Hitchcock,145.78,213.19,120.2,208.65,542.04,Single-ply,SBD,M,
Boys,124.74+,7,Lance McLaren,Sweeny,126.01,208.65,138.35,188.24,535.24,Single-ply,SBD,M,
Boys,124.74+,8,Jake Walker,West Columbia,134.54,206.38,129.27,192.78,528.44,Single-ply,SBD,M,
Boys,124.74+,9,Shmir Lewis,Freeport Brazosport,180.89,174.63,117.93,195.04,487.61,Single-ply,SBD,M,
Boys,124.74+,10,Shaun Hubbard,Sweeny,125.83,170.1,102.06,174.63,446.79,Single-ply,SBD,M,
Boys,124.74+,11,Trevor Strother,Hitchcock,142.34,147.42,113.4,142.88,403.7,Single-ply,SBD,M,
Boys,124.74+,DQ,Surafel Michael,Stafford,137.35,161.03,,,,Single-ply,SBD,M,
