Division,WeightClassKg,Place,Name,Team,BodyweightKg,Best3SquatKg,Best3BenchKg,Best3DeadliftKg,TotalKg,Equipment,Event,Sex
Boys,51.71,1,Darius Mallard,Navasota,51.71,140.61,77.11,156.49,374.21,Single-ply,SBD,M
Boys,51.71,2,Tyler Sevcik,College Station A&M Cons,51.71,117.93,81.65,151.95,351.53,Single-ply,SBD,M
Boys,51.71,3,Chris Vivero,Bryan,50.44,120.2,49.9,129.27,299.37,Single-ply,SBD,M
Boys,51.71,4,Alex Helm,Montgomery,50.35,90.72,68.04,124.74,283.5,Single-ply,SBD,M
Boys,51.71,5,Kyle Stafford,Navasota,49.17,111.13,54.43,111.13,276.69,Single-ply,SBD,M
Boys,51.71,6,Brad Bentley,Conroe The Woodlands,50.44,102.06,56.7,113.4,272.16,Single-ply,SBD,M
Boys,51.71,7,Sterling Scott,Conroe The Woodlands,51.71,106.59,45.36,120.2,272.16,Single-ply,SBD,M
Boys,51.71,8,Daniel Segura,Magnolia,50.8,92.99,61.23,104.33,258.55,Single-ply,SBD,M
Boys,51.71,9,Eric Aceves,Madisonville,48.26,90.72,56.7,106.59,254.01,Single-ply,SBD,M
Boys,51.71,10,Jim Williams #3,Conroe The Woodlands,50.08,74.84,49.9,97.52,222.26,Single-ply,SBD,M
Boys,59.87,1,Willie Ihlenfeldt,Caldwell,55.97,154.22,86.18,140.61,381.02,Single-ply,SBD,M
Boys,59.87,2,DeMarcus Lee,Navasota,55.84,145.15,63.5,138.35,347,Single-ply,SBD,M
Boys,55.79,3,Tyler Houghton,Caldwell,55.07,129.27,79.38,115.67,324.32,Single-ply,SBD,M
Boys,55.79,4,Matt Hebert,Magnolia,53.61,124.74,61.23,120.2,306.17,Single-ply,SBD,M
Boys,55.79,DQ,Chaise Edwards,Montgomery,55.79,,,,,Single-ply,SBD,M
Boys,59.87,1,Victor Aguilar #1,Caldwell,57.24,204.12,129.27,170.1,503.49,Single-ply,SBD,M
Boys,59.87,2,Eric Garza,Magnolia West,58.97,190.51,111.13,181.44,483.08,Single-ply,SBD,M
Boys,59.87,3,Brian Vizuet,Navasota,59.24,154.22,106.59,183.7,444.52,Single-ply,SBD,M
Boys,59.87,4,Caffery Penn,Conroe The Woodlands,59.6,154.22,90.72,167.83,412.77,Single-ply,SBD,M
Boys,59.87,5,Stephen Jefferson,Navasota,59.87,140.61,74.84,174.63,390.09,Single-ply,SBD,M
Boys,59.87,6,Steven McCartha,Montgomery,57.97,149.69,81.65,145.15,376.48,Single-ply,SBD,M
Boys,59.87,7,Ismael Castillo,Madisonville,59.33,147.42,79.38,147.42,374.21,Single-ply,SBD,M
Boys,59.87,8,Albert Cortez,Bryan,58.6,113.4,74.84,147.42,335.66,Single-ply,SBD,M
Boys,59.87,9,John-Bradley Greene,Conroe Woodlands College Park,59.42,129.27,68.04,136.08,333.39,Single-ply,SBD,M
Boys,59.87,10,Kyle Shannon,Normangee,59.42,102.06,52.16,90.72,244.94,Single-ply,SBD,M
Boys,59.87,DQ,Austin Hutchins,Normangee,59.87,,,,,Single-ply,SBD,M
Boys,59.87,DQ,Brandon Jackson,College Station A&M Cons,59.87,,,,,Single-ply,SBD,M
Boys,59.87,DQ,Tate Hartley,Buffalo,59.87,,,,,Single-ply,SBD,M
Boys,59.87,DQ,Lane Sellers,Magnolia,56.97,120.2,,,,Single-ply,SBD,M
Boys,67.13,1,Bobby Hennigan,College Station A&M Cons,67.13,181.44,131.54,195.04,508.02,Single-ply,SBD,M
Boys,67.13,2,Riley Martinez,College Station A&M Cons,66.77,201.85,108.86,192.78,503.49,Single-ply,SBD,M
Boys,67.13,3,Austin Stephen,College Station A&M Cons,66.04,195.04,111.13,192.78,498.95,Single-ply,SBD,M
Boys,67.13,4,Staphan Ellis,Bryan,62.87,167.83,97.52,176.9,442.25,Single-ply,SBD,M
Boys,67.13,5,Stephen Smith,Iola,65.68,176.9,102.06,161.03,439.98,Single-ply,SBD,M
Boys,67.13,6,Jesus Cortez,Navasota,63.96,163.29,95.25,167.83,426.38,Single-ply,SBD,M
Boys,67.13,7,Jesus Lopez,Buffalo,67.13,158.76,79.38,172.37,410.5,Single-ply,SBD,M
Boys,67.13,8,Jared Cohm,Bryan Rudder,66.59,154.22,83.91,163.29,401.43,Single-ply,SBD,M
Boys,67.13,9,Felix Gonzalez,Shepherd,66.95,151.95,83.91,156.49,392.36,Single-ply,SBD,M
Boys,67.13,10,Justin Poole,Conroe The Woodlands,64.41,136.08,77.11,142.88,356.07,Single-ply,SBD,M
Boys,67.13,11,Akeem Green,Conroe The Woodlands,63.14,131.54,72.57,145.15,349.27,Single-ply,SBD,M
Boys,67.13,DQ,Rico Garcia,Giddings,67.13,,,,,Single-ply,SBD,M
Boys,67.13,DQ,Dalton Rowe,Normangee,67.13,,,,,Single-ply,SBD,M
Boys,67.13,DQ,Halen Magee,Montgomery,63.68,154.22,,,,Single-ply,SBD,M
Boys,74.84,1,DeRon Bullard,Giddings,74.48,192.78,108.86,215.46,517.1,Single-ply,SBD,M
Boys,74.84,2,John Patty,Montgomery,70.03,195.04,117.93,185.97,498.95,Single-ply,SBD,M
Boys,74.84,3,Eric Garnica,Madisonville,73.57,185.97,102.06,195.04,483.08,Single-ply,SBD,M
Boys,74.84,4,Caleb Schnebeli,Bryan Rudder,73.39,170.1,104.33,199.58,474,Single-ply,SBD,M
Boys,74.84,5,Eri Flores,College Station A&M Cons,72.3,185.97,104.33,176.9,467.2,Single-ply,SBD,M
Boys,74.84,6,Antonio Mora,Madisonville,69.76,154.22,113.4,151.95,419.57,Single-ply,SBD,M
Boys,74.84,7,Will McCleary,Normangee,74.84,149.69,90.72,176.9,417.3,Single-ply,SBD,M
Boys,74.84,8,Cody Williams,Caldwell,74.39,136.08,92.99,147.42,376.48,Single-ply,SBD,M
Boys,82.1,9,Charles Cotton,Conroe The Woodlands,75.02,124.74,95.25,151.95,371.95,Single-ply,SBD,M
Boys,74.84,10,Kevin Harris,Navasota,74.84,136.08,81.65,142.88,360.61,Single-ply,SBD,M
Boys,74.84,11,Dakota Stewart,Bryan Rudder,72.21,131.54,83.91,142.88,358.34,Single-ply,SBD,M
Boys,74.84,12,Will Hicks,Magnolia West,71.21,145.15,70.31,136.08,351.53,Single-ply,SBD,M
Boys,74.84,13,Alija Barber,Madisonville,72.85,136.08,83.91,129.27,349.27,Single-ply,SBD,M
Boys,74.84,14,David Wetterman,Caldwell,73.21,124.74,79.38,120.2,324.32,Single-ply,SBD,M
Boys,74.84,15,Colin Woitena,Iola,69.76,111.13,68.04,136.08,315.25,Single-ply,SBD,M
Boys,74.84,DQ,Heath Barney,Iola,74.84,,,,,Single-ply,SBD,M
Boys,74.84,DQ,Jessie Hopper,Montgomery,74.12,195.04,113.4,,,Single-ply,SBD,M
Boys,74.84,DQ,Calvin Young,Buffalo,74.84,,,,,Single-ply,SBD,M
Boys,74.84,DQ,Tavian Walton,Bryan,74.84,,,,,Single-ply,SBD,M
Boys,74.84,DQ,Nick Gonzales,Rockdale,74.84,,,,,Single-ply,SBD,M
Boys,74.84,DQ,Taurean Lawson,Bryan Rudder,68.58,174.63,,,,Single-ply,SBD,M
Boys,74.84,DQ,Trey Gordon,Montgomery,70.31,190.51,117.93,,,Single-ply,SBD,M
Boys,74.84,DQ,Mark McKeown,Magnolia,73.48,183.7,149.69,,,Single-ply,SBD,M
Boys,82.1,1,DJ Levias,College Station A&M Cons,82.1,235.87,138.35,249.48,623.69,Single-ply,SBD,M
Boys,82.1,2,Jamie Czajkowski,Milano,79.74,213.19,142.88,204.12,560.19,Single-ply,SBD,M
Boys,82.1,3,Ericc Washington,Montgomery,75.52,206.38,124.74,222.26,553.38,Single-ply,SBD,M
Boys,82.1,4,Brett Boswell,Conroe Woodlands College Park,81.19,197.31,133.81,213.19,544.31,Single-ply,SBD,M
Boys,82.1,5,Shyerome Harris,Magnolia,79.29,217.72,106.59,217.72,542.04,Single-ply,SBD,M
Boys,82.1,6,Desmond Calhoun,Navasota,81.37,181.44,95.25,238.14,514.83,Single-ply,SBD,M
Boys,82.1,7,Auston Ellis,Bryan Rudder,78.11,206.38,106.59,183.7,496.68,Single-ply,SBD,M
Boys,82.1,8,Chance Pack,Milano,81.01,204.12,120.2,172.37,496.68,Single-ply,SBD,M
Boys,82.1,9,Eric Washington,Bryan Rudder,80.65,183.7,108.86,195.04,487.61,Single-ply,SBD,M
Boys,82.1,10,Jordan Birdwell,Navasota,80.29,170.1,90.72,181.44,442.25,Single-ply,SBD,M
Boys,82.1,DQ,Patrick Strong,Magnolia,82.1,,,,,Single-ply,SBD,M
Boys,82.1,DQ,Colton Brunette,Iola,82.1,,,,,Single-ply,SBD,M
Boys,82.1,DQ,Trevor Stephens,Iola,82.1,,,,,Single-ply,SBD,M
Boys,82.1,DQ,Adrian Randle,Magnolia West,82.1,,,,,Single-ply,SBD,M
Boys,82.1,DQ,Thomas Ewing,Giddings,82.1,,,,,Single-ply,SBD,M
Boys,82.1,DQ,Tyler Fowler,Caldwell,82.1,,,,,Single-ply,SBD,M
Boys,82.1,DQ,Sergio Vargas,Bryan Rudder,77.47,190.51,,,,Single-ply,SBD,M
Boys,82.1,DQ,Jose Dominguez,Buffalo,78.02,238.14,140.61,,,Single-ply,SBD,M
Boys,89.81,1,Chris Ceazer,College Station A&M Cons,88.36,272.16,165.56,267.62,705.34,Single-ply,SBD,M
Boys,89.81,2,Deon Hutchinson,Giddings,87.09,231.33,136.08,238.14,605.55,Single-ply,SBD,M
Boys,89.81,3,Joey Johnson,Magnolia West,89.36,204.12,145.15,215.46,564.72,Single-ply,SBD,M
Boys,89.81,4,Trey Salas,College Station A&M Cons,88.9,213.19,117.93,204.12,535.24,Single-ply,SBD,M
Boys,89.81,5,Ivan Rivas,Buffalo,89.63,201.85,133.81,195.04,530.7,Single-ply,SBD,M
Boys,89.81,6,Brian Jones,Montgomery,89.63,190.51,136.08,199.58,526.17,Single-ply,SBD,M
Boys,89.81,7,Jake Moore,Iola,89.81,195.04,124.74,201.85,521.63,Single-ply,SBD,M
Boys,89.81,8,Kesnick Jones,Navasota,87.54,199.58,108.86,210.92,519.36,Single-ply,SBD,M
Boys,89.81,9,Cody Wallace,Magnolia,83.64,183.7,120.2,210.92,514.83,Single-ply,SBD,M
Boys,89.81,10,Gene Wizniewski,Caldwell,85.37,201.85,124.74,183.7,510.29,Single-ply,SBD,M
Boys,89.81,11,Macade Trim,Magnolia West,87.18,197.31,120.2,183.7,501.22,Single-ply,SBD,M
Boys,89.81,12,Alex Arseneaux,College Station A&M Cons,88.63,192.78,104.33,201.85,498.95,Single-ply,SBD,M
Boys,89.81,13,Jason Paul,Conroe Woodlands College Park,87.18,192.78,117.93,181.44,492.15,Single-ply,SBD,M
Boys,89.81,14,Michael Clouston,College Station A&M Cons,86.09,199.58,104.33,183.7,487.61,Single-ply,SBD,M
Boys,89.81,15,JeCory Goosby,Bryan,87.45,181.44,104.33,192.78,478.54,Single-ply,SBD,M
Boys,99.79,16,Justin Whitfield,Navasota,89.99,204.12,115.67,158.76,478.54,Single-ply,SBD,M
Boys,89.81,17,Chris Lee,Madisonville,86.18,172.37,102.06,170.1,444.52,Single-ply,SBD,M
Boys,89.81,DQ,Dasmine Whaley,Madisonville,89.81,,,,,Single-ply,SBD,M
Boys,89.81,DQ,Pierce Latham,Magnolia West,89.81,,,,,Single-ply,SBD,M
Boys,89.81,DQ,Mitchell Moore,Iola,87.36,,,,,Single-ply,SBD,M
Boys,89.81,DQ,Ricardo Aguilar,Navasota,89.81,,,,,Single-ply,SBD,M
Boys,89.81,DQ,Kolby Kahlden,Caldwell,89.81,,,,,Single-ply,SBD,M
Boys,89.81,DQ,Jonathan Cates,Buffalo,89.81,,,,,Single-ply,SBD,M
Boys,89.81,DQ,Jonathan Massey,Caldwell,88.09,226.8,,,,Single-ply,SBD,M
Boys,89.81,DQ,Clint Ramirez,New Caney,84.91,,,,,Single-ply,SBD,M
Boys,89.81,DQ,Ty Kirk,Rockdale,84.01,,,,,Single-ply,SBD,M
Boys,99.79,1,Rodney Brown,Navasota,95.48,254.01,167.83,249.48,671.32,Single-ply,SBD,M
Boys,99.79,2,Nathan Mallard,Navasota,97.79,238.14,120.2,242.67,601.01,Single-ply,SBD,M
Boys,99.79,3,Matt Cohan,Bryan Rudder,95.8,204.12,124.74,242.67,571.53,Single-ply,SBD,M
Boys,99.79,4,Luis Garcia #2,College Station A&M Cons,93.71,229.06,147.42,192.78,569.26,Single-ply,SBD,M
Boys,99.79,5,Sam Heaton,Conroe Woodlands College Park,99.79,231.33,102.06,233.6,566.99,Single-ply,SBD,M
Boys,99.79,6,Juan Nunez,Caldwell,96.71,226.8,140.61,195.04,562.45,Single-ply,SBD,M
Boys,99.79,7,Nathan Klawinsky,Montgomery,96.16,199.58,129.27,213.19,542.04,Single-ply,SBD,M
Boys,99.79,8,Ethridge Brooks,Madisonville,98.88,192.78,122.47,204.12,519.36,Single-ply,SBD,M
Boys,109.77,9,Jorge Moran,Navasota,99.88,199.58,108.86,158.76,467.2,Single-ply,SBD,M
Boys,99.79,10,Jalen Woods,Navasota,91.72,167.83,104.33,181.44,453.59,Single-ply,SBD,M
Boys,99.79,11,Cody Skrivanek,Magnolia West,96.8,174.63,104.33,151.95,430.91,Single-ply,SBD,M
Boys,99.79,12,Jason Zgourides,Conroe The Woodlands,95.35,127.01,92.99,149.69,369.68,Single-ply,SBD,M
Boys,99.79,13,Eric Whitaker,Conroe The Woodlands,92.71,131.54,81.65,129.27,342.46,Single-ply,SBD,M
Boys,99.79,DQ,Josh Carrillo,Buffalo,99.79,,,,,Single-ply,SBD,M
Boys,99.79,DQ,Matt McGlone,Magnolia,92.26,183.7,161.03,,,Single-ply,SBD,M
Boys,99.79,DQ,Stephen Schneider,Rockdale,99.79,,,,,Single-ply,SBD,M
Boys,99.79,DQ,Anthony Montoya,Rockdale,98.25,233.6,,,,Single-ply,SBD,M
Boys,99.79,DQ,Caleb Etheridge,New Caney,98.43,,,,,Single-ply,SBD,M
Boys,99.79,DQ,Michael Elston,Milano,98.61,161.03,120.2,,,Single-ply,SBD,M
Boys,109.77,1,Autra Maxey,Navasota,107.14,272.16,138.35,258.55,669.05,Single-ply,SBD,M
Boys,109.77,2,Wyatt Smith,College Station A&M Cons,108.59,254.01,140.61,226.8,621.42,Single-ply,SBD,M
Boys,109.77,3,Kyle Orlando,Navasota,106.68,249.48,131.54,229.06,610.08,Single-ply,SBD,M
Boys,109.77,4,Frankie Garcia,Conroe Woodlands College Park,109.59,226.8,136.08,226.8,589.67,Single-ply,SBD,M
Boys,109.77,5,Kyle Kavanaugh,College Station A&M Cons,103.06,235.87,111.13,197.31,544.31,Single-ply,SBD,M
Boys,109.77,6,Joey Hughes,Bryan Rudder,105.14,181.44,117.93,204.12,503.49,Single-ply,SBD,M
Boys,109.77,7,Colten Long,Madisonville,108.41,192.78,106.59,204.12,503.49,Single-ply,SBD,M
Boys,109.77,8,Hunter Wilson #1,Magnolia West,109.77,188.24,136.08,170.1,494.42,Single-ply,SBD,M
Boys,109.77,9,Mark Hitt,Bryan,104.78,185.97,99.79,158.76,444.52,Single-ply,SBD,M
Boys,109.77,10,Markho Babasoro,College Station A&M Cons,104.51,181.44,77.11,138.35,396.89,Single-ply,SBD,M
Boys,109.77,11,Seth Blendermann,Magnolia West,108.5,142.88,88.45,158.76,390.09,Single-ply,SBD,M
Boys,109.77,DQ,Austin Ray,Magnolia West,109.77,,,,,Single-ply,SBD,M
Boys,109.77,DQ,Tobi Babalola,Bryan,109.77,,,,,Single-ply,SBD,M
Boys,109.77,DQ,Will Byrd,Normangee,109.77,,,,,Single-ply,SBD,M
Boys,109.77,DQ,Santiago Capetillo,Normangee,109.77,,,,,Single-ply,SBD,M
Boys,124.74,1,Jj Bynum,College Station A&M Cons,123.56,324.32,174.63,267.62,766.57,Single-ply,SBD,M
Boys,124.74,2,Cruz Rodríguez,Navasota,110.31,272.16,124.74,226.8,623.69,Single-ply,SBD,M
Boys,124.74,3,Zach Kelly,Caldwell,117.57,226.8,161.03,226.8,614.62,Single-ply,SBD,M
Boys,124.74,4,Cory Kelly,Magnolia West,123.83,238.14,136.08,226.8,601.01,Single-ply,SBD,M
Boys,124.74,5,Keith Lewis,Bryan,120.56,240.4,147.42,204.12,591.94,Single-ply,SBD,M
Boys,124.74,6,Dylan Isom,Normangee,113.94,222.26,102.06,224.53,548.85,Single-ply,SBD,M
Boys,124.74,7,Jorge Rosas,Madisonville,116.3,226.8,97.52,188.24,512.56,Single-ply,SBD,M
Boys,124.74,8,Clayton Barnes,Montgomery,120.38,163.29,92.99,142.88,399.16,Single-ply,SBD,M
Boys,124.74,DQ,Tyler Lewis,Navasota,124.74,,,,,Single-ply,SBD,M
Boys,124.74,DQ,Alex Montano,Buffalo,112.31,217.72,129.27,,,Single-ply,SBD,M
Boys,124.74+,1,Jacob Bohannon,Navasota,131,290.3,185.97,240.4,716.68,Single-ply,SBD,M
Boys,124.74+,2,Justin Smith #18,New Caney,129.95,260.82,204.12,204.12,669.05,Single-ply,SBD,M
Boys,124.74+,3,Johnathan Ramirez,Giddings,146.33,249.48,161.03,226.8,637.3,Single-ply,SBD,M
Boys,124.74+,4,Mark Poteat,Conroe The Woodlands,153.99,272.16,120.2,222.26,614.62,Single-ply,SBD,M
Boys,124.74+,5,Josh Kapchinski,Bryan Rudder,158.76,249.48,158.76,195.04,603.28,Single-ply,SBD,M
Boys,124.74+,6,Tim Hines,Bryan,136.8,222.26,140.61,235.87,598.74,Single-ply,SBD,M
Boys,124.74+,7,Danny Bricker,Giddings,139.71,226.8,131.54,226.8,585.13,Single-ply,SBD,M
Boys,124.74+,8,Larry Reed #2,Magnolia,131.77,229.06,151.95,188.24,569.26,Single-ply,SBD,M
Boys,124.74+,9,Bo Meece,Navasota,133.08,231.33,120.2,188.24,539.77,Single-ply,SBD,M
Boys,124.74+,10,Tony Craigo,Normangee,126.01,190.51,140.61,185.97,517.1,Single-ply,SBD,M
Boys,124.74+,11,Tyler White #4,Navasota,148.82,190.51,97.52,172.37,460.4,Single-ply,SBD,M
Boys,124.74+,12,Kyle Rogers,Madisonville,157.85,124.74,99.79,151.95,376.48,Single-ply,SBD,M
Boys,124.74+,DQ,Clayton Leeth,Bryan,136.08,,,,,Single-ply,SBD,M
