Division,WeightClassKg,Place,Name,Team,BodyweightKg,Best3SquatKg,Best3BenchKg,Best3DeadliftKg,TotalKg,Equipment,Event,Sex
Girls,44.23,1,Hailey Nunez,Wichita Falls City View,43.27,95.25,43.09,97.52,235.87,Single-ply,SBD,F
Girls,44.23,2,Rosario Labrada,Whitesboro,43.91,86.18,47.63,81.65,215.46,Single-ply,SBD,F
Girls,44.23,3,Jaci Owen,Vernon,43.54,79.38,38.56,95.25,213.19,Single-ply,SBD,F
Girls,44.23,4,Alexa Sindelar,Perrin-Whitt,44.09,79.38,36.29,88.45,204.12,Single-ply,SBD,F
Girls,44.23,5,Crystal Lively,Iowa Park,39.01,68.04,27.22,79.38,174.63,Single-ply,SBD,F
Girls,44.23,6,Jennifer Phan,Wichita Falls Rider,44,65.77,29.48,70.31,165.56,Single-ply,SBD,F
Girls,44.23,7,McBride Amber,Wichita Falls,42.27,43.09,20.41,72.57,136.08,Single-ply,SBD,F
Girls,44.23,DQ,Hanna Kinnett,Wichita Falls City View,40.91,,,,,Single-ply,SBD,F
Girls,47.85,1,Alondra Watkins,Iowa Park,47.45,92.99,49.9,106.59,249.48,Single-ply,SBD,F
Girls,47.85,2,Courtney Caudill,Wichita Falls City View,47.54,106.59,49.9,92.99,249.48,Single-ply,SBD,F
Girls,47.85,3,Chloe Roberts,Whitesboro,46.63,90.72,47.63,97.52,235.87,Single-ply,SBD,F
Girls,47.85,4,Jordyn Stout-Meek,Whitesboro,47.54,70.31,36.29,83.91,190.51,Single-ply,SBD,F
Girls,47.85,5,Kelsey Sitz,Archer City,45.99,74.84,43.09,70.31,188.24,Single-ply,SBD,F
Girls,47.85,DQ,Gilbert Hannah,Perrin-Whitt,47.26,56.7,,,,Single-ply,SBD,F
Girls,47.85,DQ,Brittany Hodges,Vernon,47.72,,,,,Single-ply,SBD,F
Girls,47.85,DQ,Bailey Woolington,Wichita Falls Rider,45.99,74.84,24.95,,,Single-ply,SBD,F
Girls,51.94,1,Kayla Wampler,Wichita Falls City View,50.8,133.81,61.23,133.81,328.85,Single-ply,SBD,F
Girls,51.94,2,Caitlin Pawloski,Wichita Falls Rider,50.89,95.25,38.56,108.86,242.67,Single-ply,SBD,F
Girls,51.94,3,Grace Windham,Graham,50.44,86.18,38.56,86.18,210.92,Single-ply,SBD,F
Girls,51.94,4,Brianna Bryant,Perrin-Whitt,51.8,83.91,34.02,92.99,210.92,Single-ply,SBD,F
Girls,51.94,5,Katie Newberry,Henrietta,51.17,83.91,43.09,79.38,206.38,Single-ply,SBD,F
Girls,51.94,6,Emily Wall #1,Nocona,49.99,65.77,38.56,95.25,199.58,Single-ply,SBD,F
Girls,51.94,7,Avery Quarles,Decatur,50.44,74.84,27.22,90.72,192.78,Single-ply,SBD,F
Girls,56.02,1,Lauren Tatom,Iowa Park,55.97,138.35,61.23,133.81,333.39,Single-ply,SBD,F
Girls,56.02,2,Shelimar Neris Santiago,Burkburnett,55.97,127.01,54.43,131.54,312.98,Single-ply,SBD,F
Girls,56.02,3,Bailey Merrifield,Iowa Park,54.98,113.4,61.23,104.33,278.96,Single-ply,SBD,F
Girls,56.02,4,Meagan Walker,Wichita Falls Rider,55.43,99.79,43.09,108.86,251.74,Single-ply,SBD,F
Girls,56.02,5,Savannah Dickson,Wichita Falls Rider,55.34,102.06,47.63,95.25,244.94,Single-ply,SBD,F
Girls,56.02,6,Brionna Townsend,Petrolia,55.97,90.72,49.9,102.06,242.67,Single-ply,SBD,F
Girls,56.02,7,Kassey Pettigrew,Decatur,55.97,81.65,43.09,92.99,217.72,Single-ply,SBD,F
Girls,56.02,8,Katelyn Washburn,Petrolia,55.88,77.11,40.82,95.25,213.19,Single-ply,SBD,F
Girls,56.02,9,Christine Hiatt,Olney,54.98,79.38,45.36,86.18,210.92,Single-ply,SBD,F
Girls,56.02,10,Faith Bowers,Iowa Park,55.97,83.91,43.09,72.57,199.58,Single-ply,SBD,F
Girls,56.02,11,Rebecca Vela,Perrin-Whitt,53.98,70.31,31.75,86.18,188.24,Single-ply,SBD,F
Girls,56.02,12,Lexie Mattix,Alvord,53.07,49.9,22.68,49.9,122.47,Single-ply,SBD,F
Girls,56.02,DQ,Emma Sanders,Olney,52.89,86.18,,,,Single-ply,SBD,F
Girls,56.02,DQ,Keyla Singleton,Wichita Falls City View,55.34,88.45,,,,Single-ply,SBD,F
Girls,60.1,1,Abigail Reilly,Wichita Falls Rider,59.15,136.08,74.84,136.08,347,Single-ply,SBD,F
Girls,60.1,2,Jessica Vogel,Nocona,59.33,111.13,56.7,122.47,290.3,Single-ply,SBD,F
Girls,60.1,3,Jasmine Brown,Perrin-Whitt,59.15,92.99,40.82,127.01,260.82,Single-ply,SBD,F
Girls,60.1,4,Karli Montgomery,Whitesboro,59.78,102.06,47.63,106.59,256.28,Single-ply,SBD,F
Girls,60.1,5,Laren Rogers,Graham,59.96,90.72,47.63,115.67,254.01,Single-ply,SBD,F
Girls,60.1,6,Kourtney Pettigrew,Decatur,60.06,88.45,54.43,108.86,251.74,Single-ply,SBD,F
Girls,60.1,7,Jaylei Lamb,Iowa Park,58.42,86.18,49.9,97.52,233.6,Single-ply,SBD,F
Girls,60.1,8,Claire Mounce,Perrin-Whitt,58.79,97.52,40.82,90.72,229.06,Single-ply,SBD,F
Girls,60.1,9,Charlee Vance,Wichita Falls City View,56.34,77.11,38.56,106.59,222.26,Single-ply,SBD,F
Girls,60.1,10,Arianna Altstatt,Wichita Falls Rider,56.43,88.45,38.56,92.99,219.99,Single-ply,SBD,F
Girls,60.1,11,Lizbeth Pozus,Wichita Falls,59.15,83.91,43.09,86.18,213.19,Single-ply,SBD,F
Girls,60.1,12,Haylie Hamilton,Iowa Park,59.06,65.77,38.56,70.31,174.63,Single-ply,SBD,F
Girls,60.1,DQ,Jordan Thomas #1,Iowa Park,59.24,99.79,58.97,,,Single-ply,SBD,F
Girls,60.1,DQ,Shekinah Walton,Wichita Falls Rider,58.33,95.25,,,,Single-ply,SBD,F
Girls,67.36,1,Peytton Gribble,Vernon,65.14,108.86,63.5,133.81,306.17,Single-ply,SBD,F
Girls,67.36,2,Alexis Ohm,Iowa Park,61.23,122.47,56.7,122.47,301.64,Single-ply,SBD,F
Girls,67.36,3,Sierra Peirce,Iowa Park,61.51,111.13,49.9,99.79,260.82,Single-ply,SBD,F
Girls,67.36,4,Vanessa Huerta,Graham,66.22,104.33,47.63,108.86,260.82,Single-ply,SBD,F
Girls,67.36,5,Eliza Gilliam,Whitesboro,66.13,102.06,52.16,90.72,244.94,Single-ply,SBD,F
Girls,67.36,6,Samantha Clement,Archer City,62.6,95.25,49.9,95.25,240.4,Single-ply,SBD,F
Girls,67.36,7,Anjelica Corona,Wichita Falls,66.41,86.18,40.82,108.86,235.87,Single-ply,SBD,F
Girls,67.36,8,Dutchess Dearmond,Graham,64.41,86.18,38.56,92.99,217.72,Single-ply,SBD,F
Girls,67.36,9,Esperanza Montijo,Wichita Falls Rider,60.96,83.91,38.56,92.99,215.46,Single-ply,SBD,F
Girls,67.36,10,Kelsey Beleu,Olney,63.23,77.11,47.63,79.38,204.12,Single-ply,SBD,F
Girls,67.36,11,Alexandra Lofland,Wichita Falls Rider,63.32,74.84,34.02,83.91,192.78,Single-ply,SBD,F
Girls,67.36,12,Yadira Herrera,Wichita Falls,60.51,70.31,31.75,83.91,185.97,Single-ply,SBD,F
Girls,67.36,13,Jazmine Martinez,Wichita Falls,66.77,54.43,29.48,74.84,158.76,Single-ply,SBD,F
Girls,67.36,DQ,Kayla Singleton,Wichita Falls City View,66.22,,,,,Single-ply,SBD,F
Girls,67.36,DQ,Makinzee Thomas,Alvord,65.23,,,,,Single-ply,SBD,F
Girls,75.07,1,Kaylin Miller,Whitesboro,68.31,142.88,83.91,156.49,383.29,Single-ply,SBD,F
Girls,75.07,2,Sydney Wilhelm,Archer City,74.66,149.69,58.97,149.69,358.34,Single-ply,SBD,F
Girls,75.07,3,Riece Talbert,Iowa Park,74.48,127.01,61.23,136.08,324.32,Single-ply,SBD,F
Girls,75.07,4,Lexi Towery,Nocona,69.49,120.2,56.7,140.61,317.51,Single-ply,SBD,F
Girls,75.07,5,Kaitlin Raber,Wichita Falls City View,70.58,124.74,54.43,122.47,301.64,Single-ply,SBD,F
Girls,75.07,6,Macee Russell,Wichita Falls Rider,71.94,122.47,52.16,122.47,297.1,Single-ply,SBD,F
Girls,75.07,7,Destiney Thompson,Whitesboro,71.03,106.59,54.43,122.47,283.5,Single-ply,SBD,F
Girls,75.07,8,Allie Blackmon,Burkburnett,69.4,102.06,43.09,108.86,254.01,Single-ply,SBD,F
Girls,75.07,9,Sarah Ortiz,Wichita Falls Hirschi,73.75,108.86,43.09,99.79,251.74,Single-ply,SBD,F
Girls,75.07,10,Kaela Roberds,Alvord,74.12,95.25,49.9,99.79,244.94,Single-ply,SBD,F
Girls,75.07,11,Emily Kirkelie,Decatur,75.02,104.33,38.56,99.79,242.67,Single-ply,SBD,F
Girls,75.07,12,Harley Anderson,Archer City,70.13,99.79,47.63,92.99,240.4,Single-ply,SBD,F
Girls,75.07,13,Kaleigh Cochran,Whitesboro,70.03,81.65,52.16,102.06,235.87,Single-ply,SBD,F
Girls,75.07,14,Stefany Hervert,Wichita Falls,72.85,88.45,43.09,102.06,233.6,Single-ply,SBD,F
Girls,75.07,15,Diana Andrade,Graham,69.31,104.33,34.02,88.45,226.8,Single-ply,SBD,F
Girls,75.07,16,Kalie Stover,Decatur,70.49,74.84,40.82,81.65,197.31,Single-ply,SBD,F
Girls,75.07,17,Alicia Russell,Wichita Falls,71.03,58.97,24.95,99.79,183.7,Single-ply,SBD,F
Girls,75.07,18,Caylen Myracle,Archer City,72.3,74.84,31.75,72.57,179.17,Single-ply,SBD,F
Girls,82.33,1,Natalie Hofsiss,Alvord,79.83,140.61,58.97,149.69,349.27,Single-ply,SBD,F
Girls,82.33,2,Vanessa Ramirez,Childress,80.29,136.08,56.7,138.35,331.12,Single-ply,SBD,F
Girls,82.33,3,Melanie Allen,Olney,80.83,136.08,83.91,111.13,331.12,Single-ply,SBD,F
Girls,82.33,4,Katlyn Skinner,Iowa Park,80.74,115.67,52.16,127.01,294.84,Single-ply,SBD,F
Girls,82.33,5,Kayla Weaver,Henrietta,77.84,120.2,52.16,120.2,292.57,Single-ply,SBD,F
Girls,82.33,6,Kara Harper,Decatur,80.65,124.74,49.9,111.13,285.76,Single-ply,SBD,F
Girls,82.33,7,RayAnn Schooling,Decatur,79.47,99.79,45.36,102.06,247.21,Single-ply,SBD,F
Girls,82.33,8,Nikki Adams,Wichita Falls City View,79.47,102.06,54.43,90.72,247.21,Single-ply,SBD,F
Girls,90.04,1,Taylor Brown #3,Whitesboro,85.46,136.08,79.38,129.27,344.73,Single-ply,SBD,F
Girls,90.04,2,Makayla Martin,Alvord,86.64,131.54,49.9,120.2,301.64,Single-ply,SBD,F
Girls,90.04,3,Codie Fields,Graham,85.91,129.27,56.7,113.4,299.37,Single-ply,SBD,F
Girls,90.04,4,Ali Dragoo,Graham,83.01,113.4,54.43,108.86,276.69,Single-ply,SBD,F
Girls,90.04,5,Madison Stout,Wichita Falls,88,111.13,45.36,92.99,249.48,Single-ply,SBD,F
Girls,90.04,6,Yovani Gomez,Decatur,83.28,68.04,36.29,79.38,183.7,Single-ply,SBD,F
Girls,90.04,DQ,Emily Chupka,Wichita Falls Rider,84.19,,,,,Single-ply,SBD,F
Girls,90.04,DQ,Isabelle Ruth,Wichita Falls Rider,89.81,113.4,,,,Single-ply,SBD,F
Girls,100.02,1,Keyshawna Newman,Wichita Falls Rider,92.99,181.44,68.04,167.83,417.3,Single-ply,SBD,F
Girls,100.02,2,Sydney Smith,Graham,98.16,154.22,68.04,167.83,390.09,Single-ply,SBD,F
Girls,100.02,3,Janielle Garcia,Olney,99.16,136.08,70.31,136.08,342.46,Single-ply,SBD,F
Girls,100.02,4,Maggie Smith,Petrolia,91.44,136.08,68.04,136.08,340.19,Single-ply,SBD,F
Girls,100.02,5,Brittany Bernhardt,Wichita Falls City View,91.26,133.81,56.7,142.88,333.39,Single-ply,SBD,F
Girls,100.02,6,Allison Ricketts,Alvord,99.16,124.74,56.7,113.4,294.84,Single-ply,SBD,F
Girls,100.02,DQ,Sammie Slagle,Wichita Falls,92.71,158.76,77.11,,,Single-ply,SBD,F
Girls,100.02+,1,Deziray Graham,Nocona,116.85,188.24,83.91,161.03,433.18,Single-ply,SBD,F
Girls,100.02+,2,Catlin Lewis,Graham,112.49,183.7,65.77,142.88,392.36,Single-ply,SBD,F
Girls,100.02+,3,Haylee McAdoo,Whitesboro,125.92,151.95,90.72,136.08,378.75,Single-ply,SBD,F
Girls,100.02+,4,Haley Roberds,Alvord,116.94,142.88,74.84,133.81,351.53,Single-ply,SBD,F
Girls,100.02+,5,Kaylie McCarty,Iowa Park,165.74,145.15,90.72,113.4,349.27,Single-ply,SBD,F
Girls,100.02+,6,Marissia Bias,Decatur,108.5,127.01,52.16,117.93,297.1,Single-ply,SBD,F
Girls,100.02+,7,Annie Slavings,Graham,105.05,97.52,58.97,104.33,260.82,Single-ply,SBD,F
