Division,WeightClassKg,Place,Name,Team,BodyweightKg,Best3SquatKg,Best3BenchKg,Best3DeadliftKg,TotalKg,Equipment,Event,Sex
Boys,51.71,1,Isaac Villalta,Little Elm,49.08,138.35,70.31,158.76,367.41,Single-ply,SBD,M
Boys,51.71,2,Blayze Ferguson,Frisco Heritage,50.8,102.06,79.38,106.59,288.03,Single-ply,SBD,M
Boys,55.79,1,Lane Anthony,Nevada Community,54.61,156.49,68.04,154.22,378.75,Single-ply,SBD,M
Boys,55.79,2,Kyle Humphrey,Sherman,55.7,136.08,90.72,138.35,365.14,Single-ply,SBD,M
Boys,55.79,3,Angel Armijo,Carrollton Turner,55.7,120.2,68.04,124.74,312.98,Single-ply,SBD,M
Boys,55.79,4,John Tran,Carrollton Creekview,53.07,111.13,49.9,106.59,267.62,Single-ply,SBD,M
Boys,55.79,5,Dylan Cortez,Castleberry,54.25,95.25,49.9,92.99,238.14,Single-ply,SBD,M
Boys,59.87,1,Dalton Waller,Princeton,59.87,172.37,106.59,192.78,471.74,Single-ply,SBD,M
Boys,59.87,2,Josh Hathorn,Melissa,59.78,142.88,92.99,167.83,403.7,Single-ply,SBD,M
Boys,59.87,3,Manuel Labrada,Whitesboro,58.06,124.74,77.11,136.08,337.93,Single-ply,SBD,M
Boys,59.87,4,Donovan Smith,Carrollton Turner,59.87,124.74,77.11,136.08,337.93,Single-ply,SBD,M
Boys,59.87,5,Daniel Oquendo,Little Elm,58.97,127.01,58.97,117.93,303.91,Single-ply,SBD,M
Boys,59.87,6,Jose Ramirez #12,Castleberry,59.78,97.52,77.11,120.2,294.84,Single-ply,SBD,M
Boys,59.87,7,Hunter Smith #4,Lucas Lovejoy,57.79,106.59,61.23,111.13,278.96,Single-ply,SBD,M
Boys,59.87,8,Kasey Nguyen,Carrollton Creekview,57.61,97.52,58.97,115.67,272.16,Single-ply,SBD,M
Boys,59.87,9,Andrew Mast,Carrollton Creekview,58.42,86.18,70.31,104.33,260.82,Single-ply,SBD,M
Boys,59.87,10,Emmanuel Msewe,Garland Naaman Forest,57.06,102.06,61.23,90.72,254.01,Single-ply,SBD,M
Boys,59.87,11,Fernando Rea,Terrell,59.78,72.57,61.23,113.4,247.21,Single-ply,SBD,M
Boys,59.87,12,Perry Simpson,Melissa,58.69,142.88,,,142.88,Single-ply,S,M
Boys,67.13,1,Mario Discua,Nevada Community,66.68,156.49,108.86,190.51,455.86,Single-ply,SBD,M
Boys,67.13,2,Omar Villegas,Melissa,64.23,167.83,99.79,167.83,435.45,Single-ply,SBD,M
Boys,67.13,3,Austin Helton,Caddo Mills,66.13,158.76,83.91,170.1,412.77,Single-ply,SBD,M
Boys,67.13,4,Cameron Gray #4,Carrollton Creekview,65.86,142.88,79.38,158.76,381.02,Single-ply,SBD,M
Boys,67.13,5,David Spencer,Little Elm,64.68,124.74,81.65,170.1,376.48,Single-ply,SBD,M
Boys,67.13,6,Corey Norman,Frisco Heritage,67.04,136.08,65.77,172.37,374.21,Single-ply,SBD,M
Boys,67.13,7,Aaron Cyrus,Carrollton Creekview,62.32,127.01,83.91,154.22,365.14,Single-ply,SBD,M
Boys,67.13,8,Ryan Collins #2,Lucas Lovejoy,64.68,133.81,86.18,136.08,356.07,Single-ply,SBD,M
Boys,67.13,9,Robin Cung,Sherman,65.95,129.27,74.84,142.88,347,Single-ply,SBD,M
Boys,67.13,10,Cole Haan,Carrollton Turner,64.86,129.27,72.57,142.88,344.73,Single-ply,SBD,M
Boys,67.13,11,Dylan Shawver,Little Elm,62.41,117.93,88.45,131.54,337.93,Single-ply,SBD,M
Boys,67.13,12,Ethan Cowan,Lucas Lovejoy,65.95,115.67,61.23,133.81,310.71,Single-ply,SBD,M
Boys,67.13,13,Ethan Barboza,Castleberry,66.13,124.74,61.23,86.18,272.16,Single-ply,SBD,M
Boys,67.13,14,Rickie Brown,Carrollton Creekview,61.51,83.91,68.04,108.86,260.82,Single-ply,SBD,M
Boys,67.13,15,Genesis Solomon,Carrollton Turner,63.68,70.31,40.82,74.84,185.97,Single-ply,SBD,M
Boys,67.13,DQ,Samahja Mucherson,Garland Naaman Forest,62.41,,,,,Single-ply,SBD,M
Boys,67.13,DQ,Matua Mauga,Garland Naaman Forest,63.5,,,,,Single-ply,SBD,M
Boys,67.13,DQ,Kevin Romero,Sherman,65.41,,,,,Single-ply,SBD,M
Boys,74.84,1,DeVante Clayton,Sherman,71.58,183.7,108.86,215.46,508.02,Single-ply,SBD,M
Boys,74.84,2,Jacob Jenkins #3,Caddo Mills,70.49,181.44,97.52,222.26,501.22,Single-ply,SBD,M
Boys,74.84,3,Hung Tran,Carrollton Creekview,74.84,174.63,108.86,199.58,483.08,Single-ply,SBD,M
Boys,74.84,4,Hudson Wallace,Lucas Lovejoy,73.57,188.24,106.59,183.7,478.54,Single-ply,SBD,M
Boys,74.84,5,Connor Wolfe,Frisco Heritage,74.84,161.03,104.33,188.24,453.59,Single-ply,SBD,M
Boys,74.84,6,Brendene Ramos,Castleberry,73.48,158.76,122.47,163.29,444.52,Single-ply,SBD,M
Boys,74.84,7,Dillon Moncier,Princeton,73.66,170.1,99.79,174.63,444.52,Single-ply,SBD,M
Boys,74.84,8,Malichi Davidson,Whitesboro,74.39,167.83,92.99,181.44,442.25,Single-ply,SBD,M
Boys,74.84,9,Cody Hunter,Sherman,70.85,156.49,102.06,174.63,433.18,Single-ply,SBD,M
Boys,74.84,10,James Purkins,Nevada Community,74.84,170.1,102.06,158.76,430.91,Single-ply,SBD,M
Boys,74.84,11,Jhonathan Villa,Little Elm,73.94,165.56,97.52,158.76,421.84,Single-ply,SBD,M
Boys,74.84,12,Jason Baker,Melissa,70.67,181.44,83.91,154.22,419.57,Single-ply,SBD,M
Boys,74.84,13,Cam Washington DNS,Sherman,68.13,138.35,61.23,215.46,415.04,Single-ply,SBD,M
Boys,74.84,14,Caleb McKenzie,Castleberry,70.31,149.69,79.38,163.29,392.36,Single-ply,SBD,M
Boys,74.84,15,Chance Mapps,Melissa,72.85,136.08,92.99,158.76,387.82,Single-ply,SBD,M
Boys,74.84,16,Jaxon Holloman,Frisco Heritage,72.57,136.08,95.25,142.88,374.21,Single-ply,SBD,M
Boys,74.84,17,Ryan Zarate,Carrollton Creekview,73.48,129.27,88.45,142.88,360.61,Single-ply,SBD,M
Boys,74.84,18,Jacob Marin,Carrollton Turner,70.94,145.15,81.65,117.93,344.73,Single-ply,SBD,M
Boys,74.84,19,Gireesh Dagguppati,Frisco Heritage,68.04,113.4,68.04,136.08,317.51,Single-ply,SBD,M
Boys,74.84,20,Alex Taylor,McKinney Boyd,67.77,102.06,68.04,136.08,306.17,Single-ply,SBD,M
Boys,74.84,21,Landon Speaker DNS,Sherman,72.57,102.06,74.84,120.2,297.1,Single-ply,SBD,M
Boys,74.84,22,Hunter Parker,Carrollton Turner,73.48,102.06,65.77,108.86,276.69,Single-ply,SBD,M
Boys,74.84,23,Zion Lance,Carrollton Creekview,70.85,151.95,77.11,,229.06,Single-ply,SB,M
Boys,74.84,24,Kenenth Parra,Carrollton Turner,71.12,81.65,65.77,74.84,222.26,Single-ply,SBD,M
Boys,82.1,1,Nick Butler,Caddo Mills,80.83,204.12,117.93,226.8,548.85,Single-ply,SBD,M
Boys,82.1,2,Isaac Graham,Princeton,80.56,170.1,108.86,183.7,462.66,Single-ply,SBD,M
Boys,82.1,3,Jourdan Boze,Garland Naaman Forest,78.38,165.56,113.4,181.44,460.4,Single-ply,SBD,M
Boys,82.1,4,Oliq Kirksey,McKinney Boyd,77.02,136.08,97.52,190.51,424.11,Single-ply,SBD,M
Boys,82.1,5,Braylon Brown,Melissa,76.66,158.76,79.38,154.22,392.36,Single-ply,SBD,M
Boys,82.1,6,Jayvin Rodriguez,Melissa,80.01,147.42,99.79,142.88,390.09,Single-ply,SBD,M
Boys,82.1,7,Nathan Ihle,Terrell,81.37,127.01,83.91,142.88,353.8,Single-ply,SBD,M
Boys,82.1,8,Raymond Sanchez,Terrell,77.11,102.06,86.18,142.88,331.12,Single-ply,SBD,M
Boys,82.1,9,Christian Rose-Alvarado,Carrollton Creekview,77.47,81.65,47.63,120.2,249.48,Single-ply,SBD,M
Boys,82.1,10,Keion Lewis,McKinney Boyd,79.83,136.08,,,136.08,Single-ply,S,M
Boys,82.1,DQ,Mike Brown #6,Sherman,76.84,,,,,Single-ply,S,M
Boys,82.1,DQ,Lemuel Adams,Garland Naaman Forest,77.29,,,,,Single-ply,S,M
Boys,89.81,1,Roy Goins,Little Elm,88.99,240.4,140.61,254.01,635.03,Single-ply,SBD,M
Boys,89.81,2,Armando Aguilar,Caddo Mills,82.46,210.92,124.74,197.31,532.97,Single-ply,SBD,M
Boys,89.81,3,Som Dipto,Carrollton Turner,85.82,199.58,138.35,170.1,508.02,Single-ply,SBD,M
Boys,89.81,4,Colt Cooper,Caddo Mills,85.09,181.44,122.47,190.51,494.42,Single-ply,SBD,M
Boys,89.81,5,Markos Morales,Whitesboro,88,179.17,115.67,197.31,492.15,Single-ply,SBD,M
Boys,89.81,6,Colton Wilson,Nevada Community,87.09,197.31,97.52,192.78,487.61,Single-ply,SBD,M
Boys,89.81,7,Mario Cruz,Castleberry,88,163.29,120.2,181.44,464.93,Single-ply,SBD,M
Boys,89.81,8,Cole Thompson,Little Elm,83.91,163.29,113.4,163.29,439.98,Single-ply,SBD,M
Boys,89.81,9,Alexis Arbaiza,Carrollton Turner,85.91,165.56,83.91,190.51,439.98,Single-ply,SBD,M
Boys,89.81,10,Prince McCormick,Garland Naaman Forest,83.73,147.42,99.79,174.63,421.84,Single-ply,SBD,M
Boys,89.81,11,Calvin Gordon,Lancaster,86.64,111.13,83.91,181.44,376.48,Single-ply,SBD,M
Boys,89.81,12,Zach Tippett,Caddo Mills,82.37,147.42,,,147.42,Single-ply,S,M
Boys,89.81,DQ,Chris Taylor #3,Caddo Mills,89.81,,,,,Single-ply,S,M
Boys,89.81,DQ,Adrian Brown,Garland Naaman Forest,86.55,,,,,Single-ply,S,M
Boys,99.79,1,Tristan Myers,Carrollton Creekview,98.7,247.21,165.56,219.99,632.76,Single-ply,SBD,M
Boys,99.79,2,Zach Helton,Plano,94.26,249.48,104.33,249.48,603.28,Single-ply,SBD,M
Boys,99.79,3,Brock Prengler,Lucas Lovejoy,98.97,222.26,138.35,215.46,576.06,Single-ply,SBD,M
Boys,99.79,4,Ja'Bray Young,Melissa,92.44,233.6,124.74,204.12,562.45,Single-ply,SBD,M
Boys,99.79,5,Sergio Arriaga,Lucas Lovejoy,97.34,217.72,122.47,213.19,553.38,Single-ply,SBD,M
Boys,99.79,6,Justin Pate,Caddo Mills,90.08,215.46,99.79,208.65,523.9,Single-ply,SBD,M
Boys,99.79,7,Brandon Kim,Frisco Heritage,98.88,183.7,147.42,170.1,501.22,Single-ply,SBD,M
Boys,99.79,8,Cody Gonzales,Frisco Heritage,99.52,190.51,129.27,158.76,478.54,Single-ply,SBD,M
Boys,99.79,9,Camerson Maddux,McKinney Boyd,91.81,170.1,113.4,192.78,476.27,Single-ply,SBD,M
Boys,99.79,10,Junior Tekodo,Little Elm,91.17,174.63,108.86,183.7,467.2,Single-ply,SBD,M
Boys,99.79,11,Caleb Kroese,Melissa,91.81,190.51,90.72,185.97,467.2,Single-ply,SBD,M
Boys,99.79,12,Ethan Bedgood DNS,Sherman,94.62,158.76,88.45,181.44,428.64,Single-ply,SBD,M
Boys,99.79,13,Issa Diop,Carrollton Creekview,95.35,129.27,92.99,165.56,387.82,Single-ply,SBD,M
Boys,99.79,14,Kaleb Markham,Whitesboro,96.16,142.88,92.99,142.88,378.75,Single-ply,SBD,M
Boys,99.79,15,Brandon Markel,Garland Naaman Forest,90.63,165.56,,156.49,322.05,Single-ply,SD,M
Boys,109.77,1,Kade Ashley,Lucas Lovejoy,100.61,244.94,181.44,226.8,653.17,Single-ply,SBD,M
Boys,109.77,2,Tanner Young,Whitesboro,102.06,217.72,136.08,217.72,571.53,Single-ply,SBD,M
Boys,109.77,3,Cameron Rose,Frisco Heritage,102.51,197.31,127.01,210.92,535.24,Single-ply,SBD,M
Boys,109.77,4,Justin Shipman,Castleberry,102.06,204.12,117.93,185.97,508.02,Single-ply,SBD,M
Boys,109.77,5,Hamza Hanan,Lancaster,103.96,181.44,120.2,174.63,476.27,Single-ply,SBD,M
Boys,109.77,6,Malik Griffin,Terrell,109.5,183.7,111.13,174.63,469.47,Single-ply,SBD,M
Boys,109.77,7,Christian Jimenez,Carrollton Turner,109.59,145.15,99.79,165.56,410.5,Single-ply,SBD,M
Boys,109.77,8,Ryan Gabriel,Nevada Community,100.33,136.08,77.11,149.69,362.87,Single-ply,SBD,M
Boys,109.77,9,Kameron Green,Princeton,108.86,158.76,,170.1,328.85,Single-ply,SD,M
Boys,109.77,10,Noe Garcia #1,Nevada Community,107.5,158.76,,161.03,319.78,Single-ply,SD,M
Boys,109.77,DQ,Tyler Menard,Caddo Mills,107.95,,,,,Single-ply,SD,M
Boys,124.74,1,Austin Norton,Nevada Community,122.83,333.39,204.12,213.19,750.7,Single-ply,SBD,M
Boys,124.74,2,Jacob McCain,Caddo Mills,113.13,222.26,120.2,213.19,555.65,Single-ply,SBD,M
Boys,124.74,3,Dayven Monroe,Lancaster,119.02,181.44,120.2,204.12,505.76,Single-ply,SBD,M
Boys,124.74,4,Tyler Beidleman,Lucas Lovejoy,124.28,192.78,108.86,188.24,489.88,Single-ply,SBD,M
Boys,124.74,5,Allen Phillips,Garland Naaman Forest,123.74,165.56,106.59,199.58,471.74,Single-ply,SBD,M
Boys,124.74,6,Wisdom Sadari,Lancaster,124.74,142.88,124.74,204.12,471.74,Single-ply,SBD,M
Boys,124.74,7,Tyler Smith DNS,Sherman,116.94,170.1,83.91,197.31,451.32,Single-ply,SBD,M
Boys,124.74,8,Garrett Bowen,Melissa,113.4,181.44,95.25,165.56,442.25,Single-ply,SBD,M
Boys,124.74,9,Steven Rico,Carrollton Turner,120.47,217.72,151.95,,369.68,Single-ply,SB,M
Boys,124.74,10,Rudy Vazquez,Sherman,121.56,204.12,115.67,,319.78,Single-ply,SB,M
Boys,124.74,11,Israel Gutierrez,Sherman,114.67,192.78,120.2,,312.98,Single-ply,SB,M
Boys,124.74,12,Seth Maynard,Little Elm,117.48,192.78,,,192.78,Single-ply,S,M
Boys,124.74,DQ,Frank Martinez,Garland Naaman Forest,121.56,,,,,Single-ply,S,M
Boys,124.74+,1,Tucker Rowland,Frisco Heritage,136.98,242.67,183.7,226.8,653.17,Single-ply,SBD,M
Boys,124.74+,2,TK Walton,Sherman,141.43,224.53,142.88,247.21,614.62,Single-ply,SBD,M
Boys,124.74+,3,Gabe Lutz,Nevada Community,127.46,226.8,158.76,172.37,557.92,Single-ply,SBD,M
Boys,124.74+,4,Jonathan Govan,Lancaster,133.72,181.44,136.08,204.12,521.63,Single-ply,SBD,M
Boys,124.74+,5,Brenden Lewis,Lancaster,156.04,204.12,124.74,192.78,521.63,Single-ply,SBD,M
Boys,124.74+,6,Brian Blackwell,Melissa,130.82,215.46,117.93,183.7,517.1,Single-ply,SBD,M
Boys,124.74+,7,Matt Kelley,Caddo Mills,140.61,331.12,158.76,,489.88,Single-ply,SB,M
Boys,124.74+,8,Elias De Leon,Little Elm,144.7,188.24,117.93,176.9,483.08,Single-ply,SBD,M
Boys,124.74+,9,Cruz Tobar,Sherman,185.16,231.33,142.88,,374.21,Single-ply,SB,M
Boys,124.74+,10,Justin Stewart,McKinney Boyd,146.33,226.8,124.74,,351.53,Single-ply,SB,M
Boys,124.74+,11,Dalton Ross,Carrollton Creekview,131.54,106.59,65.77,136.08,308.44,Single-ply,SBD,M
Boys,124.74+,12,Chris Tobar,Sherman,131.63,183.7,124.74,,308.44,Single-ply,SB,M
Boys,,NS,Josh Garza,Princeton,,,,,,Single-ply,SB,M
Boys,,NS,Elishah Harrison,Princeton,,,,,,Single-ply,SB,M
Boys,,NS,Dakota Meeks,Whitesboro,,,,,,Single-ply,SB,M
Boys,,NS,Mason Pendegrass,Whitesboro,,,,,,Single-ply,SB,M
Boys,,NS,Christian Chitwood,Whitesboro,,,,,,Single-ply,SB,M
Boys,,NS,Coleman Christensen,Lucas Lovejoy,,,,,,Single-ply,SB,M
Boys,,NS,Dalton Wilcox,Little Elm,,,,,,Single-ply,SB,M
Boys,,NS,Kevin Weiss,Plano,,,,,,Single-ply,SB,M
Boys,,NS,Obed Guerrero,Carrollton Turner,,,,,,Single-ply,SB,M
Boys,,NS,Tony Baker,Carrollton Creekview,,,,,,Single-ply,SB,M
Boys,,NS,Jacob Pulley,Caddo Mills,,,,,,Single-ply,SB,M
Boys,,NS,Adam Washington,Frisco Heritage,,,,,,Single-ply,SB,M
Boys,,NS,Ismael Banda,Castleberry,,,,,,Single-ply,SB,M
Boys,,NS,Julius Trucksess,Frisco Heritage,,,,,,Single-ply,SB,M
