Division,WeightClassKg,Place,Name,Team,BodyweightKg,Best3SquatKg,Best3BenchKg,Best3DeadliftKg,TotalKg,Equipment,Event,Sex,BirthDate
Boys,67.13,1,Israel Ramos,Brownsville Pace,64.86,199.58,104.33,192.78,496.68,Single-ply,SBD,M,
Boys,67.13,DQ,Gabriel Andrade,Brownsville Rivera,65.32,151.95,,,,Single-ply,SBD,M,
Boys,74.84,1,Jose E Hernandez,Brownsville Rivera,71.49,183.7,111.13,183.7,478.54,Single-ply,SBD,M,
Boys,74.84,2,Oscar Gonzalez,Brownsville Rivera,72.12,142.88,68.04,138.35,349.27,Single-ply,SBD,M,
Boys,74.84,3,Valient Rodriguez,Brownsville Pace,72.12,183.7,97.52,158.76,439.98,Single-ply,SBD,M,
Boys,74.84,DQ,Esau Gutierrez,Brownsville Rivera,69.49,172.37,,,,Single-ply,SBD,M,
Boys,82.1,1,Gualberto Zarate,Brownsville Pace,79.83,192.78,108.86,165.56,467.2,Single-ply,SBD,M,
Boys,99.79,1,Jesus Hernandez #8,Brownsville Rivera,97.98,256.28,145.15,213.19,614.62,Single-ply,SBD,M,
Boys,99.79,2,Omar Nava,Brownsville Pace,89.9,117.93,70.31,124.74,312.98,Single-ply,SBD,M,
Boys,109.77,1,Hector Guerrero,Brownsville Rivera,108.14,217.72,133.81,195.04,546.58,Single-ply,SBD,M,
Boys,109.77,2,Jesus Salas,Brownsville Rivera,109.41,192.78,111.13,174.63,478.54,Single-ply,SBD,M,
Boys,124.74,1,David De La Torre,Brownsville Pace,124.74,272.16,140.61,222.26,635.03,Single-ply,SBD,M,
Boys,124.74,2,Roman Alfaro,Brownsville Pace,120.47,183.7,127.01,176.9,487.61,Single-ply,SBD,M,
Boys,124.74,DQ,Arthur Emerson,Brownsville Pace,118.12,,,,,Single-ply,SBD,M,
Boys,139.71,1,Abraham Lozano,Brownsville Rivera,127.73,233.6,120.2,210.92,564.72,Single-ply,SBD,M,
Boys,139.71,2,Kaleb Loredo,Brownsville Pace,125.01,183.7,102.06,147.42,433.18,Single-ply,SBD,M,
